<?xml version="1.0" encoding="UTF-8" standalone="no"?>
<svg width="24px" height="23px" viewBox="0 0 24 23" version="1.1" xmlns="http://www.w3.org/2000/svg" xmlns:xlink="http://www.w3.org/1999/xlink" xmlns:sketch="http://www.bohemiancoding.com/sketch/ns">
    <!-- Generator: Sketch 3.3.2 (12043) - http://www.bohemiancoding.com/sketch -->
    <title>icons/ic-app-ss-tiny</title>
    <desc>Created with Sketch.</desc>
    <defs></defs>
    <g id="ASSETS-+-SPECS" stroke="none" stroke-width="1" fill="none" fill-rule="evenodd" sketch:type="MSPage">
        <g id="artboard" sketch:type="MSArtboardGroup" transform="translate(-349.000000, -382.000000)" fill="#41BFBA">
            <g id="icons/ic-app-ss-tiny" sketch:type="MSLayerGroup" transform="translate(349.500000, 382.000000)">
                <path d="M11.5,0.92 C17.3266667,0.92 22.08,5.67333333 22.08,11.5 C22.08,17.3266667 17.3266667,22.08 11.5,22.08 C5.67333333,22.08 0.92,17.3266667 0.92,11.5 C0.92,5.67333333 5.67333333,0.92 11.5,0.92 L11.5,0.92 Z M11.5,0 C5.13666667,0 0,5.13666667 0,11.5 C0,17.8633333 5.13666667,23 11.5,23 C17.8633333,23 23,17.8633333 23,11.5 C23,5.13666667 17.8633333,0 11.5,0 L11.5,0 L11.5,0 Z" id="Shape" sketch:type="MSShapeGroup"></path>
                <path d="M11.5766667,4.6 C8.89333333,4.6 6.67,6.13333333 6.67,7.97333333 L6.67,15.0266667 C6.67,16.8666667 8.89333333,18.4 11.5766667,18.4 C14.26,18.4 16.4833333,16.8666667 16.4833333,15.0266667 L16.4833333,7.97333333 C16.4833333,6.13333333 14.26,4.6 11.5766667,4.6 L11.5766667,4.6 Z M7.66666667,10.0433333 C8.58666667,10.8866667 10.0433333,11.3466667 11.5766667,11.3466667 C13.11,11.3466667 14.5666667,10.8866667 15.4866667,10.0433333 C15.18,11.1933333 13.57,12.1133333 11.5766667,12.1133333 C9.58333333,12.1133333 7.97333333,11.1933333 7.66666667,10.0433333 L7.66666667,10.0433333 Z M11.5766667,10.35 C9.43,10.35 7.66666667,9.27666667 7.66666667,7.97333333 C7.66666667,6.67 9.43,5.59666667 11.5766667,5.59666667 C13.7233333,5.59666667 15.4866667,6.67 15.4866667,7.97333333 C15.4866667,9.27666667 13.7233333,10.35 11.5766667,10.35 L11.5766667,10.35 Z M7.66666667,11.73 C8.58666667,12.5733333 10.0433333,13.11 11.5766667,13.11 C13.11,13.11 14.5666667,12.5733333 15.4866667,11.73 C15.2566667,12.9566667 13.57,13.8766667 11.5766667,13.8766667 C9.58333333,13.8766667 7.89666667,12.9566667 7.66666667,11.73 L7.66666667,11.73 Z M7.66666667,13.57 C8.58666667,14.4133333 10.0433333,14.95 11.5766667,14.95 C13.11,14.95 14.5666667,14.4133333 15.4866667,13.57 C15.2566667,14.7966667 13.57,15.7166667 11.5766667,15.7166667 C9.58333333,15.7166667 7.89666667,14.7966667 7.66666667,13.57 L7.66666667,13.57 Z M15.41,15.41 C15.1033333,16.56 13.4933333,17.4033333 11.5766667,17.4033333 C9.66,17.4033333 7.97333333,16.56 7.74333333,15.41 C8.66333333,16.2533333 10.12,16.7133333 11.5766667,16.7133333 C13.0333333,16.7133333 14.49,16.1766667 15.41,15.41 L15.41,15.41 Z" id="Shape" sketch:type="MSShapeGroup"></path>
            </g>
        </g>
    </g>
</svg>