<?xml version="1.0" encoding="UTF-8" standalone="no"?>
<svg width="30px" height="30px" viewBox="0 0 30 30" version="1.1" xmlns="http://www.w3.org/2000/svg" xmlns:xlink="http://www.w3.org/1999/xlink" xmlns:sketch="http://www.bohemiancoding.com/sketch/ns">
    <!-- Generator: Sketch 3.3.2 (12043) - http://www.bohemiancoding.com/sketch -->
    <title>icons/ic-app-ss-inv</title>
    <desc>Created with Sketch.</desc>
    <defs></defs>
    <g id="ASSETS-+-SPECS" stroke="none" stroke-width="1" fill="none" fill-rule="evenodd" sketch:type="MSPage">
        <g id="artboard" sketch:type="MSArtboardGroup" transform="translate(-346.000000, -487.000000)" fill="#FFFFFF">
            <g id="icons/ic-app-ss-inv" sketch:type="MSLayerGroup" transform="translate(346.000000, 487.000000)">
                <path d="M15,1.2 C22.6,1.2 28.8,7.4 28.8,15 C28.8,22.6 22.6,28.8 15,28.8 C7.4,28.8 1.2,22.6 1.2,15 C1.2,7.4 7.4,1.2 15,1.2 L15,1.2 Z M15,0 C6.7,0 0,6.7 0,15 C0,23.3 6.7,30 15,30 C23.3,30 30,23.3 30,15 C30,6.7 23.3,0 15,0 L15,0 L15,0 Z" id="Shape" sketch:type="MSShapeGroup"></path>
                <path d="M15.1,6 C11.6,6 8.7,8 8.7,10.4 L8.7,19.6 C8.7,22 11.6,24 15.1,24 C18.6,24 21.5,22 21.5,19.6 L21.5,10.4 C21.5,8 18.6,6 15.1,6 L15.1,6 Z M10,13.1 C11.2,14.2 13.1,14.8 15.1,14.8 C17.1,14.8 19,14.2 20.2,13.1 C19.8,14.6 17.7,15.8 15.1,15.8 C12.5,15.8 10.4,14.6 10,13.1 L10,13.1 Z M15.1,13.5 C12.3,13.5 10,12.1 10,10.4 C10,8.7 12.3,7.3 15.1,7.3 C17.9,7.3 20.2,8.7 20.2,10.4 C20.2,12.1 17.9,13.5 15.1,13.5 L15.1,13.5 Z M10,15.3 C11.2,16.4 13.1,17.1 15.1,17.1 C17.1,17.1 19,16.4 20.2,15.3 C19.9,16.9 17.7,18.1 15.1,18.1 C12.5,18.1 10.3,16.9 10,15.3 L10,15.3 Z M10,17.7 C11.2,18.8 13.1,19.5 15.1,19.5 C17.1,19.5 19,18.8 20.2,17.7 C19.9,19.3 17.7,20.5 15.1,20.5 C12.5,20.5 10.3,19.3 10,17.7 L10,17.7 Z M20.1,20.1 C19.7,21.6 17.6,22.7 15.1,22.7 C12.6,22.7 10.4,21.6 10.1,20.1 C11.3,21.2 13.2,21.8 15.1,21.8 C17,21.8 18.9,21.1 20.1,20.1 L20.1,20.1 Z" id="Shape" sketch:type="MSShapeGroup"></path>
            </g>
        </g>
    </g>
</svg>