<?xml version="1.0" encoding="UTF-8" standalone="no"?>
<svg width="147px" height="132px" viewBox="0 0 147 132" version="1.1" xmlns="http://www.w3.org/2000/svg" xmlns:xlink="http://www.w3.org/1999/xlink" xmlns:sketch="http://www.bohemiancoding.com/sketch/ns">
    <!-- Generator: Sketch 3.3.2 (12043) - http://www.bohemiancoding.com/sketch -->
    <title>SS</title>
    <desc>Created with Sketch.</desc>
    <defs></defs>
    <g id="Page-1" stroke="none" stroke-width="1" fill="none" fill-rule="evenodd" sketch:type="MSPage">
        <g id="SS" sketch:type="MSLayerGroup">
            <g id="icons/ic-app-lcva" transform="translate(34.000000, 0.000000)" fill="#41BFBA" sketch:type="MSShapeGroup">
                <path d="M35.1896364,14.9481818 C27.44,14.9481818 21.1361818,19.1965455 21.1361818,24.4172727 L21.1361818,24.4236364 L21.1361818,24.43 L21.1361818,45.4007273 C21.1361818,50.6201818 27.44,54.8672727 35.1896364,54.8672727 C42.938,54.8672727 49.2418182,50.6201818 49.2418182,45.4007273 L49.2418182,24.43 L49.2418182,24.4261818 L49.2418182,24.4172727 C49.2418182,19.1965455 42.938,14.9481818 35.1896364,14.9481818 L35.1896364,14.9481818 Z M35.1896364,16.7910909 C41.9261818,16.7910909 47.4090909,20.2134545 47.4129091,24.4236364 C47.4090909,28.6312727 41.9261818,32.0549091 35.1896364,32.0549091 C28.4505455,32.0549091 22.9689091,28.6312727 22.9638182,24.4236364 C22.9689091,20.2134545 28.4505455,16.7910909 35.1896364,16.7910909 L35.1896364,16.7910909 Z M47.4141818,45.4007273 C47.4141818,49.6121818 41.93,53.0396364 35.1896364,53.0396364 C28.448,53.0396364 22.9638182,49.6121818 22.9638182,45.4007273 L22.9638182,44.9425455 C25.3972727,47.8749091 29.9587273,49.8603636 35.1896364,49.8603636 C40.418,49.8603636 44.982,47.8749091 47.4141818,44.94 L47.4141818,45.4007273 L47.4141818,45.4007273 Z M47.4141818,40.6470909 C46.9801818,44.7656364 41.6690909,48.0327273 35.1896364,48.0327273 C28.7203636,48.0327273 23.4181818,44.7796364 22.9638182,40.6738182 L22.9638182,39.6034545 C25.3972727,42.5370909 29.9587273,44.5238182 35.1896364,44.5238182 C40.418,44.5238182 44.982,42.5370909 47.4141818,39.6009091 L47.4141818,40.6470909 L47.4141818,40.6470909 Z M47.4141818,35.3067273 C46.9801818,39.4278182 41.6690909,42.6974545 35.1896364,42.6974545 C28.7203636,42.6974545 23.4181818,39.4418182 22.9638182,35.3334545 L22.9638182,34.2656364 C25.3972727,37.2005455 29.9587273,39.1847273 35.1896364,39.1847273 C40.418,39.1847273 44.982,37.1992727 47.4141818,34.2630909 L47.4141818,35.3067273 L47.4141818,35.3067273 Z M47.4141818,29.9676364 C46.9801818,34.09 41.6690909,37.3583636 35.1896364,37.3583636 C28.7203636,37.3583636 23.4181818,34.104 22.9638182,29.9956364 L22.9638182,29.0678182 C25.3794545,31.9378182 29.9498182,33.8812727 35.1896364,33.8812727 C40.4269091,33.8812727 44.9985455,31.9378182 47.4141818,29.0678182 L47.4141818,29.9676364 L47.4141818,29.9676364 Z" id="art"></path>
                <path d="M35.2572727,0.711454545 C16.2024502,0.711454545 0.757272727,16.1591966 0.757272727,35.2114545 C0.757272727,54.2649948 16.2024502,69.7140191 35.2572727,69.7140191 C54.3120953,69.7140191 69.7572727,54.2649948 69.7572727,35.2114545 C69.7572727,16.1591966 54.3120953,0.711454545 35.2572727,0.711454545 L35.2572727,0.711454545 Z M35.2572727,67.8008431 C17.2898317,67.8008431 2.66916643,53.1814601 2.66916643,35.2114545 C2.66916643,17.2427313 17.2898317,2.62463054 35.2572727,2.62463054 C53.2247137,2.62463054 67.845379,17.2427313 67.845379,35.2114545 C67.845379,53.1814601 53.2247137,67.8008431 35.2572727,67.8008431 L35.2572727,67.8008431 Z" id="circle"></path>
            </g>
            <path d="M138.948,88.572 C138.948,88.7360008 138.976,88.8759994 139.032,88.992 C139.088,89.1080006 139.165999,89.2029996 139.266,89.277 C139.366,89.3510004 139.480999,89.4049998 139.611,89.439 C139.741001,89.4730002 139.881999,89.49 140.034,89.49 C140.198001,89.49 140.337999,89.4710002 140.454,89.433 C140.570001,89.3949998 140.664,89.3460003 140.736,89.286 C140.808,89.2259997 140.86,89.1570004 140.892,89.079 C140.924,89.0009996 140.94,88.9220004 140.94,88.842 C140.94,88.6779992 140.903,88.5570004 140.829,88.479 C140.755,88.4009996 140.674,88.3460002 140.586,88.314 C140.433999,88.2579997 140.257001,88.2050002 140.055,88.155 C139.852999,88.1049998 139.604001,88.0400004 139.308,87.96 C139.123999,87.9119998 138.971001,87.8490004 138.849,87.771 C138.726999,87.6929996 138.63,87.6060005 138.558,87.51 C138.486,87.4139995 138.435,87.3120005 138.405,87.204 C138.375,87.0959995 138.36,86.9860006 138.36,86.874 C138.36,86.6579989 138.405,86.4710008 138.495,86.313 C138.585,86.1549992 138.703999,86.0240005 138.852,85.92 C139.000001,85.8159995 139.167999,85.7390003 139.356,85.689 C139.544001,85.6389997 139.733999,85.614 139.926,85.614 C140.150001,85.614 140.360999,85.6429997 140.559,85.701 C140.757001,85.7590003 140.930999,85.8459994 141.081,85.962 C141.231001,86.0780006 141.35,86.2209991 141.438,86.391 C141.526,86.5610008 141.57,86.7579989 141.57,86.982 L140.82,86.982 C140.8,86.7059986 140.706001,86.5110006 140.538,86.397 C140.369999,86.2829994 140.156001,86.226 139.896,86.226 C139.808,86.226 139.718,86.2349999 139.626,86.253 C139.534,86.2710001 139.45,86.3009998 139.374,86.343 C139.298,86.3850002 139.235,86.4419996 139.185,86.514 C139.135,86.5860004 139.11,86.6759995 139.11,86.784 C139.11,86.9360008 139.157,87.0549996 139.251,87.141 C139.345,87.2270004 139.467999,87.2919998 139.62,87.336 C139.636,87.34 139.698999,87.3569998 139.809,87.387 C139.919001,87.4170002 140.041999,87.4499998 140.178,87.486 C140.314001,87.5220002 140.446999,87.5569998 140.577,87.591 C140.707001,87.6250002 140.8,87.6499999 140.856,87.666 C140.996001,87.7100002 141.117999,87.7699996 141.222,87.846 C141.326001,87.9220004 141.413,88.0089995 141.483,88.107 C141.553,88.2050005 141.605,88.3099994 141.639,88.422 C141.673,88.5340006 141.69,88.6459994 141.69,88.758 C141.69,88.9980012 141.641,89.2029991 141.543,89.373 C141.445,89.5430008 141.316001,89.6819995 141.156,89.79 C140.995999,89.8980005 140.814001,89.9769998 140.61,90.027 C140.405999,90.0770002 140.198001,90.102 139.986,90.102 C139.741999,90.102 139.512001,90.0720003 139.296,90.012 C139.079999,89.9519997 138.892001,89.8600006 138.732,89.736 C138.571999,89.6119994 138.444,89.453001 138.348,89.259 C138.252,89.064999 138.202,88.8360013 138.198,88.572 L138.948,88.572 Z M142.332,85.716 L143.388,85.716 L144.57,89.07 L144.582,89.07 L145.734,85.716 L146.778,85.716 L146.778,90 L146.064,90 L146.064,86.694 L146.052,86.694 L144.864,90 L144.246,90 L143.058,86.694 L143.046,86.694 L143.046,90 L142.332,90 L142.332,85.716 Z" id="SM" fill="#616D77" sketch:type="MSShapeGroup"></path>
            <path d="M2.021,94.83 L0.525,94.83 C0.48099978,95.7980048 0.60933183,96.6266632 0.91,97.316 C1.21066817,98.0053368 1.63966388,98.5699978 2.197,99.01 C2.75433612,99.4500022 3.42899604,99.7763323 4.221,99.989 C5.01300396,100.201668 5.87099538,100.308 6.795,100.308 C7.71900462,100.308 8.5109967,100.223668 9.171,100.055 C9.8310033,99.8863325 10.3846644,99.6663347 10.832,99.395 C11.2793356,99.1236653 11.631332,98.819335 11.888,98.482 C12.1446679,98.144665 12.342666,97.8110016 12.482,97.481 C12.621334,97.1509983 12.7093331,96.8393348 12.746,96.546 C12.7826668,96.2526652 12.801,96.0180009 12.801,95.842 C12.801,95.1966634 12.6946677,94.6466689 12.482,94.192 C12.2693323,93.7373311 11.9760019,93.3523349 11.602,93.037 C11.2279981,92.7216651 10.7953358,92.4576677 10.304,92.245 C9.81266421,92.0323323 9.28833612,91.8526674 8.731,91.706 L4.903,90.76 C4.58033172,90.6866663 4.27600143,90.5913339 3.99,90.474 C3.70399857,90.3566661 3.4510011,90.2026676 3.231,90.012 C3.0109989,89.8213324 2.83866729,89.5903347 2.714,89.319 C2.58933271,89.0476653 2.527,88.7286685 2.527,88.362 C2.527,87.7753304 2.6369989,87.284002 2.857,86.888 C3.0770011,86.491998 3.36666487,86.1730012 3.726,85.931 C4.08533513,85.6889988 4.50333095,85.5130005 4.98,85.403 C5.45666905,85.2929994 5.9516641,85.238 6.465,85.238 C7.02233612,85.238 7.55399747,85.3149992 8.06,85.469 C8.56600253,85.6230008 9.01333139,85.8503318 9.402,86.151 C9.79066861,86.4516682 10.1059988,86.8256644 10.348,87.273 C10.5900012,87.7203356 10.7256665,88.2446637 10.755,88.846 L12.251,88.846 C12.251,88.0393293 12.0933349,87.3316697 11.778,86.723 C11.4626651,86.1143303 11.0410026,85.6046687 10.513,85.194 C9.98499736,84.7833313 9.36900352,84.4753344 8.665,84.27 C7.96099648,84.0646656 7.22033722,83.962 6.443,83.962 C5.3429945,83.962 4.44100352,84.1196651 3.737,84.435 C3.03299648,84.7503349 2.47933535,85.1353311 2.076,85.59 C1.67266465,86.0446689 1.3976674,86.5286641 1.251,87.042 C1.1043326,87.5553359 1.031,88.0026648 1.031,88.384 C1.031,89.0000031 1.12999901,89.5206645 1.328,89.946 C1.52600099,90.3713355 1.78633172,90.7306652 2.109,91.024 C2.43166828,91.3173348 2.80933117,91.5519991 3.242,91.728 C3.67466883,91.9040009 4.11833106,92.0506661 4.573,92.168 L8.071,93.026 C8.4376685,93.1140004 8.81166476,93.227666 9.193,93.367 C9.57433524,93.506334 9.92266509,93.6859989 10.238,93.906 C10.5533349,94.1260011 10.809999,94.3973317 11.008,94.72 C11.206001,95.0426683 11.305,95.4239978 11.305,95.864 C11.305,96.4360029 11.1656681,96.9236646 10.887,97.327 C10.6083319,97.7303353 10.2600021,98.060332 9.842,98.317 C9.42399791,98.5736679 8.97300242,98.7606661 8.489,98.878 C8.00499758,98.9953339 7.55766872,99.054 7.147,99.054 C6.42832974,99.054 5.75366982,98.984334 5.123,98.845 C4.49233018,98.705666 3.94600231,98.4746683 3.484,98.152 C3.02199769,97.8293317 2.65900132,97.3966694 2.395,96.854 C2.13099868,96.3113306 2.00633326,95.6366707 2.021,94.83 L2.021,94.83 Z M23.075,93.532 L15.727,93.532 C15.785667,93.0186641 15.9066657,92.5163358 16.09,92.025 C16.2733342,91.5336642 16.5189985,91.1010019 16.827,90.727 C17.1350015,90.3529981 17.5089978,90.0523345 17.949,89.825 C18.3890022,89.5976655 18.8949971,89.484 19.467,89.484 C20.0243361,89.484 20.5229978,89.5976655 20.963,89.825 C21.4030022,90.0523345 21.7769985,90.3529981 22.085,90.727 C22.3930015,91.1010019 22.6313325,91.5299976 22.8,92.014 C22.9686675,92.4980024 23.0603333,93.0039974 23.075,93.532 L23.075,93.532 Z M15.727,94.698 L24.461,94.698 C24.4903335,93.905996 24.4170009,93.1250038 24.241,92.355 C24.0649991,91.5849961 23.7753353,90.903003 23.372,90.309 C22.9686647,89.714997 22.4443366,89.2346685 21.799,88.868 C21.1536634,88.5013315 20.3763379,88.318 19.467,88.318 C18.5723289,88.318 17.7986699,88.4903316 17.146,88.835 C16.4933301,89.1796684 15.9616687,89.6343305 15.551,90.199 C15.1403313,90.7636695 14.836001,91.4053297 14.638,92.124 C14.439999,92.8426703 14.341,93.5759963 14.341,94.324 C14.341,95.1306707 14.439999,95.8969964 14.638,96.623 C14.836001,97.3490036 15.1403313,97.9869972 15.551,98.537 C15.9616687,99.0870027 16.4933301,99.5196651 17.146,99.835 C17.7986699,100.150335 18.5723289,100.308 19.467,100.308 C20.9043405,100.308 22.0153294,99.9560035 22.8,99.252 C23.5846706,98.5479965 24.1236652,97.5506731 24.417,96.26 L23.031,96.26 C22.8109989,97.1400044 22.4150029,97.8439974 21.843,98.372 C21.2709971,98.9000026 20.4790051,99.164 19.467,99.164 C18.8069967,99.164 18.2423357,99.0246681 17.773,98.746 C17.3036643,98.4673319 16.9150015,98.1153355 16.607,97.69 C16.2989985,97.2646645 16.075334,96.784336 15.936,96.249 C15.796666,95.713664 15.727,95.1966692 15.727,94.698 L15.727,94.698 Z M26.353,84.292 L26.353,100 L27.739,100 L27.739,84.292 L26.353,84.292 Z M30.423,84.292 L30.423,100 L31.809,100 L31.809,84.292 L30.423,84.292 Z M34.493,84.292 L34.493,86.514 L35.879,86.514 L35.879,84.292 L34.493,84.292 Z M34.493,88.648 L34.493,100 L35.879,100 L35.879,88.648 L34.493,88.648 Z M38.519,88.648 L38.519,100 L39.905,100 L39.905,93.378 C39.9196667,92.8206639 40.0113325,92.303669 40.18,91.827 C40.3486675,91.3503309 40.5833318,90.9396684 40.884,90.595 C41.1846682,90.2503316 41.5513312,89.979001 41.984,89.781 C42.4166688,89.582999 42.9116639,89.484 43.469,89.484 C44.0263361,89.484 44.4919981,89.5719991 44.866,89.748 C45.2400019,89.9240009 45.5369989,90.1659985 45.757,90.474 C45.9770011,90.7820015 46.1309996,91.1449979 46.219,91.563 C46.3070004,91.9810021 46.351,92.4319976 46.351,92.916 L46.351,100 L47.737,100 L47.737,92.696 C47.737,92.02133 47.6710007,91.4126694 47.539,90.87 C47.4069993,90.3273306 47.1796683,89.8690019 46.857,89.495 C46.5343317,89.1209981 46.105336,88.8313344 45.57,88.626 C45.034664,88.4206656 44.371004,88.318 43.579,88.318 C42.7723293,88.318 42.03167,88.5269979 41.357,88.945 C40.68233,89.3630021 40.2130013,89.9166632 39.949,90.606 L39.905,90.606 L39.905,88.648 L38.519,88.648 Z M59.947,99.076 L59.947,88.648 L58.561,88.648 L58.561,90.606 L58.517,90.606 C58.3849993,90.2979985 58.1980012,90.0046681 57.956,89.726 C57.7139988,89.4473319 57.4390015,89.2016677 57.131,88.989 C56.8229985,88.7763323 56.4820019,88.6113339 56.108,88.494 C55.7339981,88.3766661 55.3343355,88.318 54.909,88.318 C54.0876626,88.318 53.3580032,88.4683318 52.72,88.769 C52.0819968,89.0696682 51.5466688,89.4803307 51.114,90.001 C50.6813312,90.5216693 50.3513345,91.1303298 50.124,91.827 C49.8966655,92.5236701 49.783,93.2606628 49.783,94.038 C49.783,94.8446707 49.8783324,95.6036631 50.069,96.315 C50.2596676,97.0263369 50.5639979,97.6459974 50.982,98.174 C51.4000021,98.7020026 51.9316634,99.1163318 52.577,99.417 C53.2223366,99.7176682 53.9996621,99.868 54.909,99.868 C55.7450042,99.868 56.4746635,99.6553355 57.098,99.23 C57.7213364,98.8046645 58.1943317,98.2400035 58.517,97.536 L58.561,97.536 L58.561,99.076 C58.561,100.454674 58.2750029,101.510663 57.703,102.244 C57.1309971,102.977337 56.1996731,103.344 54.909,103.344 C54.5276648,103.344 54.1536685,103.303667 53.787,103.223 C53.4203315,103.142333 53.0866682,103.014001 52.786,102.838 C52.4853318,102.661999 52.2286677,102.431001 52.016,102.145 C51.8033323,101.858999 51.6603337,101.503335 51.587,101.078 L50.201,101.078 C50.2450002,101.679336 50.4099986,102.196331 50.696,102.629 C50.9820014,103.061669 51.3413312,103.417332 51.774,103.696 C52.2066688,103.974668 52.6943306,104.179999 53.237,104.312 C53.7796694,104.444001 54.3369971,104.51 54.909,104.51 C55.8330046,104.51 56.6139968,104.385335 57.252,104.136 C57.8900032,103.886665 58.406998,103.527336 58.803,103.058 C59.199002,102.588664 59.4886657,102.01667 59.672,101.342 C59.8553342,100.66733 59.947,99.9120042 59.947,99.076 L59.947,99.076 Z M54.909,98.702 C54.2636634,98.702 53.7063357,98.5736679 53.237,98.317 C52.7676643,98.060332 52.3790015,97.7230021 52.071,97.305 C51.7629985,96.8869979 51.5356674,96.4066694 51.389,95.864 C51.2423326,95.3213306 51.169,94.7640029 51.169,94.192 C51.169,93.6053304 51.238666,93.0296695 51.378,92.465 C51.517334,91.9003305 51.7409985,91.3980022 52.049,90.958 C52.3570015,90.5179978 52.7456643,90.1623347 53.215,89.891 C53.6843357,89.6196653 54.2489967,89.484 54.909,89.484 C55.5690033,89.484 56.1299977,89.6233319 56.592,89.902 C57.0540023,90.1806681 57.4316652,90.5473311 57.725,91.002 C58.0183348,91.4566689 58.2309993,91.9626639 58.363,92.52 C58.4950007,93.0773361 58.561,93.6346639 58.561,94.192 C58.561,94.7640029 58.4840008,95.3213306 58.33,95.864 C58.1759992,96.4066694 57.9450015,96.8869979 57.637,97.305 C57.3289985,97.7230021 56.9476689,98.060332 56.493,98.317 C56.0383311,98.5736679 55.5103363,98.702 54.909,98.702 L54.909,98.702 Z M69.671,94.83 L68.175,94.83 C68.1309998,95.7980048 68.2593318,96.6266632 68.56,97.316 C68.8606682,98.0053368 69.2896639,98.5699978 69.847,99.01 C70.4043361,99.4500022 71.078996,99.7763323 71.871,99.989 C72.663004,100.201668 73.5209954,100.308 74.445,100.308 C75.3690046,100.308 76.1609967,100.223668 76.821,100.055 C77.4810033,99.8863325 78.0346644,99.6663347 78.482,99.395 C78.9293356,99.1236653 79.281332,98.819335 79.538,98.482 C79.7946679,98.144665 79.992666,97.8110016 80.132,97.481 C80.271334,97.1509983 80.3593331,96.8393348 80.396,96.546 C80.4326668,96.2526652 80.451,96.0180009 80.451,95.842 C80.451,95.1966634 80.3446677,94.6466689 80.132,94.192 C79.9193323,93.7373311 79.6260019,93.3523349 79.252,93.037 C78.8779981,92.7216651 78.4453358,92.4576677 77.954,92.245 C77.4626642,92.0323323 76.9383361,91.8526674 76.381,91.706 L72.553,90.76 C72.2303317,90.6866663 71.9260014,90.5913339 71.64,90.474 C71.3539986,90.3566661 71.1010011,90.2026676 70.881,90.012 C70.6609989,89.8213324 70.4886673,89.5903347 70.364,89.319 C70.2393327,89.0476653 70.177,88.7286685 70.177,88.362 C70.177,87.7753304 70.2869989,87.284002 70.507,86.888 C70.7270011,86.491998 71.0166649,86.1730012 71.376,85.931 C71.7353351,85.6889988 72.1533309,85.5130005 72.63,85.403 C73.106669,85.2929994 73.6016641,85.238 74.115,85.238 C74.6723361,85.238 75.2039975,85.3149992 75.71,85.469 C76.2160025,85.6230008 76.6633314,85.8503318 77.052,86.151 C77.4406686,86.4516682 77.7559988,86.8256644 77.998,87.273 C78.2400012,87.7203356 78.3756665,88.2446637 78.405,88.846 L79.901,88.846 C79.901,88.0393293 79.7433349,87.3316697 79.428,86.723 C79.1126651,86.1143303 78.6910026,85.6046687 78.163,85.194 C77.6349974,84.7833313 77.0190035,84.4753344 76.315,84.27 C75.6109965,84.0646656 74.8703372,83.962 74.093,83.962 C72.9929945,83.962 72.0910035,84.1196651 71.387,84.435 C70.6829965,84.7503349 70.1293353,85.1353311 69.726,85.59 C69.3226646,86.0446689 69.0476674,86.5286641 68.901,87.042 C68.7543326,87.5553359 68.681,88.0026648 68.681,88.384 C68.681,89.0000031 68.779999,89.5206645 68.978,89.946 C69.176001,90.3713355 69.4363317,90.7306652 69.759,91.024 C70.0816683,91.3173348 70.4593312,91.5519991 70.892,91.728 C71.3246688,91.9040009 71.7683311,92.0506661 72.223,92.168 L75.721,93.026 C76.0876685,93.1140004 76.4616648,93.227666 76.843,93.367 C77.2243352,93.506334 77.5726651,93.6859989 77.888,93.906 C78.2033349,94.1260011 78.459999,94.3973317 78.658,94.72 C78.856001,95.0426683 78.955,95.4239978 78.955,95.864 C78.955,96.4360029 78.8156681,96.9236646 78.537,97.327 C78.2583319,97.7303353 77.9100021,98.060332 77.492,98.317 C77.0739979,98.5736679 76.6230024,98.7606661 76.139,98.878 C75.6549976,98.9953339 75.2076687,99.054 74.797,99.054 C74.0783297,99.054 73.4036698,98.984334 72.773,98.845 C72.1423302,98.705666 71.5960023,98.4746683 71.134,98.152 C70.6719977,97.8293317 70.3090013,97.3966694 70.045,96.854 C69.7809987,96.3113306 69.6563333,95.6366707 69.671,94.83 L69.671,94.83 Z M81.287,88.648 L85.819,99.956 L85.335,101.232 C85.2176661,101.496001 85.1076672,101.737999 85.005,101.958 C84.9023328,102.178001 84.7776674,102.364999 84.631,102.519 C84.4843326,102.673001 84.312001,102.794 84.114,102.882 C83.915999,102.97 83.6630015,103.014 83.355,103.014 C83.1936659,103.014 83.0360008,103.003 82.882,102.981 C82.7279992,102.959 82.5703341,102.933333 82.409,102.904 L82.409,104.07 C82.5263339,104.114 82.6619992,104.139667 82.816,104.147 C82.9700008,104.154333 83.1863319,104.165333 83.465,104.18 C83.9050022,104.18 84.2679986,104.139667 84.554,104.059 C84.8400014,103.978333 85.0893323,103.846334 85.302,103.663 C85.5146677,103.479666 85.7089991,103.230335 85.885,102.915 C86.0610009,102.599665 86.2516656,102.200002 86.457,101.716 L91.385,88.648 L89.999,88.648 L86.501,98.328 L82.761,88.648 L81.287,88.648 Z M99.547,91.97 L100.933,91.97 C100.903667,91.3539969 100.779001,90.8186689 100.559,90.364 C100.338999,89.9093311 100.042002,89.5280015 99.668,89.22 C99.2939981,88.9119985 98.8613358,88.6846674 98.37,88.538 C97.8786642,88.3913326 97.3470029,88.318 96.775,88.318 C96.2763308,88.318 95.7740025,88.3766661 95.268,88.494 C94.7619975,88.6113339 94.3036687,88.7946654 93.893,89.044 C93.4823313,89.2933346 93.1486679,89.6233313 92.892,90.034 C92.635332,90.4446687 92.507,90.9359971 92.507,91.508 C92.507,91.9920024 92.5876659,92.3989983 92.749,92.729 C92.9103341,93.0590016 93.1339986,93.3376655 93.42,93.565 C93.7060014,93.7923345 94.0396648,93.9829992 94.421,94.137 C94.8023352,94.2910008 95.2203311,94.4266661 95.675,94.544 L97.457,94.94 C97.7650015,95.0133337 98.0693318,95.1013328 98.37,95.204 C98.6706682,95.3066672 98.9383322,95.4349992 99.173,95.589 C99.4076678,95.7430008 99.594666,95.9336655 99.734,96.161 C99.873334,96.3883345 99.943,96.670665 99.943,97.008 C99.943,97.404002 99.844001,97.7376653 99.646,98.009 C99.447999,98.2803347 99.1950015,98.5039991 98.887,98.68 C98.5789985,98.8560009 98.2453351,98.9806663 97.886,99.054 C97.5266649,99.1273337 97.178335,99.164 96.841,99.164 C95.9169954,99.164 95.1433364,98.925669 94.52,98.449 C93.8966635,97.9723309 93.555667,97.2646714 93.497,96.326 L92.111,96.326 C92.2283339,97.7193403 92.7013292,98.7313302 93.53,99.362 C94.3586708,99.9926698 95.4403267,100.308 96.775,100.308 C97.3030026,100.308 97.8383306,100.249334 98.381,100.132 C98.9236694,100.014666 99.4113312,99.8203347 99.844,99.549 C100.276669,99.2776653 100.632332,98.9256688 100.911,98.493 C101.189668,98.0603312 101.329,97.5360031 101.329,96.92 C101.329,96.4213308 101.233668,95.9886685 101.043,95.622 C100.852332,95.2553315 100.606668,94.9473346 100.306,94.698 C100.005332,94.4486654 99.6606686,94.2470008 99.272,94.093 C98.8833314,93.9389992 98.491002,93.832667 98.095,93.774 L96.247,93.356 C96.0123322,93.297333 95.7556681,93.2203338 95.477,93.125 C95.1983319,93.0296662 94.9416678,92.9086674 94.707,92.762 C94.4723322,92.6153326 94.2780008,92.4356677 94.124,92.223 C93.9699992,92.0103323 93.893,91.7500015 93.893,91.442 C93.893,91.0753315 93.9736659,90.7673346 94.135,90.518 C94.2963341,90.2686654 94.5089987,90.0670008 94.773,89.913 C95.0370013,89.7589992 95.3266651,89.6490003 95.642,89.583 C95.9573349,89.5169997 96.2689985,89.484 96.577,89.484 C96.973002,89.484 97.3469982,89.5316662 97.699,89.627 C98.0510018,89.7223338 98.3626653,89.8726656 98.634,90.078 C98.9053347,90.2833344 99.1216659,90.5436651 99.283,90.859 C99.4443341,91.1743349 99.5323333,91.5446645 99.547,91.97 L99.547,91.97 Z M105.531,88.648 L105.531,85.238 L104.145,85.238 L104.145,88.648 L102.165,88.648 L102.165,89.814 L104.145,89.814 L104.145,97.58 C104.130333,98.5480048 104.306331,99.2116649 104.673,99.571 C105.039668,99.9303351 105.684995,100.11 106.609,100.11 C106.814334,100.11 107.019666,100.102667 107.225,100.088 C107.430334,100.073333 107.635666,100.066 107.841,100.066 L107.841,98.9 C107.444998,98.9440002 107.049002,98.966 106.653,98.966 C106.154331,98.9366665 105.842667,98.7936679 105.718,98.537 C105.593333,98.280332 105.531,97.9246689 105.531,97.47 L105.531,89.814 L107.841,89.814 L107.841,88.648 L105.531,88.648 Z M118.005,93.532 L110.657,93.532 C110.715667,93.0186641 110.836666,92.5163358 111.02,92.025 C111.203334,91.5336642 111.448998,91.1010019 111.757,90.727 C112.065002,90.3529981 112.438998,90.0523345 112.879,89.825 C113.319002,89.5976655 113.824997,89.484 114.397,89.484 C114.954336,89.484 115.452998,89.5976655 115.893,89.825 C116.333002,90.0523345 116.706998,90.3529981 117.015,90.727 C117.323002,91.1010019 117.561332,91.5299976 117.73,92.014 C117.898668,92.4980024 117.990333,93.0039974 118.005,93.532 L118.005,93.532 Z M110.657,94.698 L119.391,94.698 C119.420333,93.905996 119.347001,93.1250038 119.171,92.355 C118.994999,91.5849961 118.705335,90.903003 118.302,90.309 C117.898665,89.714997 117.374337,89.2346685 116.729,88.868 C116.083663,88.5013315 115.306338,88.318 114.397,88.318 C113.502329,88.318 112.72867,88.4903316 112.076,88.835 C111.42333,89.1796684 110.891669,89.6343305 110.481,90.199 C110.070331,90.7636695 109.766001,91.4053297 109.568,92.124 C109.369999,92.8426703 109.271,93.5759963 109.271,94.324 C109.271,95.1306707 109.369999,95.8969964 109.568,96.623 C109.766001,97.3490036 110.070331,97.9869972 110.481,98.537 C110.891669,99.0870027 111.42333,99.5196651 112.076,99.835 C112.72867,100.150335 113.502329,100.308 114.397,100.308 C115.834341,100.308 116.945329,99.9560035 117.73,99.252 C118.514671,98.5479965 119.053665,97.5506731 119.347,96.26 L117.961,96.26 C117.740999,97.1400044 117.345003,97.8439974 116.773,98.372 C116.200997,98.9000026 115.409005,99.164 114.397,99.164 C113.736997,99.164 113.172336,99.0246681 112.703,98.746 C112.233664,98.4673319 111.845002,98.1153355 111.537,97.69 C111.228998,97.2646645 111.005334,96.784336 110.866,96.249 C110.726666,95.713664 110.657,95.1966692 110.657,94.698 L110.657,94.698 Z M121.261,88.648 L121.261,100 L122.647,100 L122.647,93.664 C122.647,93.0626637 122.712999,92.5090025 122.845,92.003 C122.977001,91.4969975 123.178665,91.0570019 123.45,90.683 C123.721335,90.3089981 124.073331,90.0156677 124.506,89.803 C124.938669,89.5903323 125.44833,89.484 126.035,89.484 C126.475002,89.484 126.848998,89.5573326 127.157,89.704 C127.465002,89.8506674 127.710666,90.052332 127.894,90.309 C128.077334,90.5656679 128.209333,90.8663316 128.29,91.211 C128.370667,91.5556684 128.411,91.9186648 128.411,92.3 L128.411,100 L129.797,100 L129.797,93.576 C129.797,93.0479974 129.844666,92.5383358 129.94,92.047 C130.035334,91.5556642 130.200332,91.1193352 130.435,90.738 C130.669668,90.3566648 130.984998,90.0523345 131.381,89.825 C131.777002,89.5976655 132.275664,89.484 132.877,89.484 C133.874338,89.484 134.570998,89.7296642 134.967,90.221 C135.363002,90.7123358 135.561,91.4273286 135.561,92.366 L135.561,100 L136.947,100 L136.947,92.3 C136.947,89.6453201 135.693013,88.318 133.185,88.318 C132.436996,88.318 131.733003,88.5013315 131.073,88.868 C130.412997,89.2346685 129.914335,89.7919963 129.577,90.54 C129.371666,89.7919963 128.96467,89.2346685 128.356,88.868 C127.74733,88.5013315 127.069004,88.318 126.321,88.318 C125.396995,88.318 124.638003,88.515998 124.044,88.912 C123.449997,89.308002 122.969668,89.8579965 122.603,90.562 L122.537,90.562 L122.537,88.648 L121.261,88.648 Z" id="Selling-System" fill="#616D77" sketch:type="MSShapeGroup"></path>
            <path d="M11.831,119.004 L15.975,119.004 C16.7403372,119.004 17.4029972,119.134665 17.963,119.396 C18.5230028,119.657335 18.9803316,120.014331 19.335,120.467 C19.6896684,120.919669 19.9533325,121.44933 20.126,122.056 C20.2986675,122.66267 20.385,123.31133 20.385,124.002 C20.385,124.69267 20.2986675,125.34133 20.126,125.948 C19.9533325,126.55467 19.6896684,127.084331 19.335,127.537 C18.9803316,127.989669 18.5230028,128.346665 17.963,128.608 C17.4029972,128.869335 16.7403372,129 15.975,129 L11.831,129 L11.831,119.004 Z M13.581,127.572 L15.303,127.572 C15.9843367,127.572 16.5419978,127.481001 16.976,127.299 C17.4100022,127.116999 17.7506654,126.865002 17.998,126.543 C18.2453346,126.220998 18.4133329,125.843002 18.502,125.409 C18.5906671,124.974998 18.635,124.506003 18.635,124.002 C18.635,123.497997 18.5906671,123.029002 18.502,122.595 C18.4133329,122.160998 18.2453346,121.783002 17.998,121.461 C17.7506654,121.138998 17.4100022,120.887001 16.976,120.705 C16.5419978,120.522999 15.9843367,120.432 15.303,120.432 L13.581,120.432 L13.581,127.572 Z M26.685,124.744 C26.6663332,124.491999 26.6126671,124.249335 26.524,124.016 C26.4353329,123.782666 26.3140008,123.579668 26.16,123.407 C26.0059992,123.234332 25.8193344,123.094334 25.6,122.987 C25.3806656,122.879666 25.135668,122.826 24.865,122.826 C24.5849986,122.826 24.3306678,122.875 24.102,122.973 C23.8733322,123.071 23.6773342,123.206332 23.514,123.379 C23.3506659,123.551668 23.2200005,123.754666 23.122,123.988 C23.0239995,124.221335 22.9703334,124.473332 22.961,124.744 L26.685,124.744 Z M22.961,125.794 C22.961,126.074001 23.0006663,126.344665 23.08,126.606 C23.1593337,126.867335 23.2783325,127.095999 23.437,127.292 C23.5956675,127.488001 23.7963321,127.644333 24.039,127.761 C24.2816679,127.877667 24.5709983,127.936 24.907,127.936 C25.373669,127.936 25.7493319,127.835668 26.034,127.635 C26.3186681,127.434332 26.5309993,127.133335 26.671,126.732 L28.183,126.732 C28.0989996,127.124002 27.9543344,127.473998 27.749,127.782 C27.5436656,128.090002 27.2963348,128.348999 27.007,128.559 C26.7176652,128.769001 26.3933351,128.927666 26.034,129.035 C25.6746649,129.142334 25.299002,129.196 24.907,129.196 C24.3376638,129.196 23.8336689,129.102668 23.395,128.916 C22.9563311,128.729332 22.5853349,128.468002 22.282,128.132 C21.9786652,127.795998 21.7500008,127.394669 21.596,126.928 C21.4419992,126.461331 21.365,125.948003 21.365,125.388 C21.365,124.874664 21.4466659,124.387002 21.61,123.925 C21.7733342,123.462998 22.0066652,123.057002 22.31,122.707 C22.6133349,122.356998 22.9796645,122.079334 23.409,121.874 C23.8383355,121.668666 24.323664,121.566 24.865,121.566 C25.4343362,121.566 25.9453311,121.684999 26.398,121.923 C26.8506689,122.161001 27.2263318,122.475998 27.525,122.868 C27.8236682,123.260002 28.040666,123.710331 28.176,124.219 C28.311334,124.727669 28.3463337,125.252664 28.281,125.794 L22.961,125.794 Z M29.541,119.004 L31.137,119.004 L31.137,129 L29.541,129 L29.541,119.004 Z M32.915,119.004 L34.511,119.004 L34.511,120.516 L32.915,120.516 L32.915,119.004 Z M32.915,121.762 L34.511,121.762 L34.511,129 L32.915,129 L32.915,121.762 Z M35.533,121.762 L37.269,121.762 L39.103,127.32 L39.131,127.32 L40.895,121.762 L42.547,121.762 L39.957,129 L38.165,129 L35.533,121.762 Z M48.483,124.744 C48.4643332,124.491999 48.4106671,124.249335 48.322,124.016 C48.2333329,123.782666 48.1120008,123.579668 47.958,123.407 C47.8039992,123.234332 47.6173344,123.094334 47.398,122.987 C47.1786656,122.879666 46.933668,122.826 46.663,122.826 C46.3829986,122.826 46.1286678,122.875 45.9,122.973 C45.6713322,123.071 45.4753342,123.206332 45.312,123.379 C45.1486659,123.551668 45.0180005,123.754666 44.92,123.988 C44.8219995,124.221335 44.7683334,124.473332 44.759,124.744 L48.483,124.744 Z M44.759,125.794 C44.759,126.074001 44.7986663,126.344665 44.878,126.606 C44.9573337,126.867335 45.0763325,127.095999 45.235,127.292 C45.3936675,127.488001 45.5943321,127.644333 45.837,127.761 C46.0796679,127.877667 46.3689983,127.936 46.705,127.936 C47.171669,127.936 47.5473319,127.835668 47.832,127.635 C48.1166681,127.434332 48.3289993,127.133335 48.469,126.732 L49.981,126.732 C49.8969996,127.124002 49.7523344,127.473998 49.547,127.782 C49.3416656,128.090002 49.0943348,128.348999 48.805,128.559 C48.5156652,128.769001 48.1913351,128.927666 47.832,129.035 C47.4726649,129.142334 47.097002,129.196 46.705,129.196 C46.1356638,129.196 45.6316689,129.102668 45.193,128.916 C44.7543311,128.729332 44.3833349,128.468002 44.08,128.132 C43.7766652,127.795998 43.5480008,127.394669 43.394,126.928 C43.2399992,126.461331 43.163,125.948003 43.163,125.388 C43.163,124.874664 43.2446659,124.387002 43.408,123.925 C43.5713342,123.462998 43.8046652,123.057002 44.108,122.707 C44.4113349,122.356998 44.7776645,122.079334 45.207,121.874 C45.6363355,121.668666 46.121664,121.566 46.663,121.566 C47.2323362,121.566 47.7433311,121.684999 48.196,121.923 C48.6486689,122.161001 49.0243318,122.475998 49.323,122.868 C49.6216682,123.260002 49.838666,123.710331 49.974,124.219 C50.109334,124.727669 50.1443337,125.252664 50.079,125.794 L44.759,125.794 Z M51.297,121.762 L52.795,121.762 L52.795,123.162 L52.823,123.162 C52.8696669,122.965999 52.960666,122.774668 53.096,122.588 C53.231334,122.401332 53.3946657,122.231001 53.586,122.077 C53.7773343,121.922999 53.9896655,121.799334 54.223,121.706 C54.4563345,121.612666 54.6943321,121.566 54.937,121.566 C55.1236676,121.566 55.2519997,121.570667 55.322,121.58 C55.3920004,121.589333 55.464333,121.598667 55.539,121.608 L55.539,123.148 C55.4269994,123.129333 55.3126673,123.113 55.196,123.099 C55.0793328,123.085 54.9650006,123.078 54.853,123.078 C54.582332,123.078 54.3280012,123.131666 54.09,123.239 C53.8519988,123.346334 53.6443342,123.504999 53.467,123.715 C53.2896658,123.925001 53.1496672,124.183998 53.047,124.492 C52.9443328,124.800002 52.893,125.154665 52.893,125.556 L52.893,129 L51.297,129 L51.297,121.762 Z M56.267,119.004 L57.863,119.004 L57.863,120.516 L56.267,120.516 L56.267,119.004 Z M56.267,121.762 L57.863,121.762 L57.863,129 L56.267,129 L56.267,121.762 Z M59.599,121.762 L61.111,121.762 L61.111,122.826 L61.139,122.854 C61.3816679,122.452665 61.698998,122.137668 62.091,121.909 C62.483002,121.680332 62.9169976,121.566 63.393,121.566 C64.1863373,121.566 64.8116644,121.771331 65.269,122.182 C65.7263356,122.592669 65.955,123.208663 65.955,124.03 L65.955,129 L64.359,129 L64.359,124.45 C64.3403332,123.880664 64.2190011,123.467668 63.995,123.211 C63.7709989,122.954332 63.4210024,122.826 62.945,122.826 C62.674332,122.826 62.4316677,122.875 62.217,122.973 C62.0023323,123.071 61.8203341,123.206332 61.671,123.379 C61.5216659,123.551668 61.4050004,123.754666 61.321,123.988 C61.2369996,124.221335 61.195,124.468665 61.195,124.73 L61.195,129 L59.599,129 L59.599,121.762 Z M74.327,128.622 C74.327,129.714005 74.0213364,130.528331 73.41,131.065 C72.7986636,131.601669 71.9190057,131.87 70.771,131.87 C70.4069982,131.87 70.0406685,131.832667 69.672,131.758 C69.3033315,131.683333 68.9673349,131.557334 68.664,131.38 C68.3606652,131.202666 68.1063344,130.969335 67.901,130.68 C67.6956656,130.390665 67.5743335,130.036002 67.537,129.616 L69.133,129.616 C69.1796669,129.840001 69.2589994,130.021999 69.371,130.162 C69.4830006,130.302001 69.6159992,130.411666 69.77,130.491 C69.9240008,130.570334 70.0943324,130.621667 70.281,130.645 C70.4676676,130.668333 70.6636656,130.68 70.869,130.68 C71.5130032,130.68 71.9843318,130.521335 72.283,130.204 C72.5816682,129.886665 72.731,129.429336 72.731,128.832 L72.731,127.726 L72.703,127.726 C72.4789989,128.127335 72.1733353,128.439999 71.786,128.664 C71.3986647,128.888001 70.9810022,129 70.533,129 C69.9543304,129 69.462002,128.899668 69.056,128.699 C68.649998,128.498332 68.3140013,128.223002 68.048,127.873 C67.7819987,127.522998 67.5883339,127.119336 67.467,126.662 C67.3456661,126.204664 67.285,125.714669 67.285,125.192 C67.285,124.706664 67.3596659,124.244669 67.509,123.806 C67.6583341,123.367331 67.8729986,122.982335 68.153,122.651 C68.4330014,122.319665 68.775998,122.056001 69.182,121.86 C69.588002,121.663999 70.0476641,121.566 70.561,121.566 C71.0183356,121.566 71.4383314,121.661666 71.821,121.853 C72.2036686,122.044334 72.4976656,122.345331 72.703,122.756 L72.731,122.756 L72.731,121.762 L74.327,121.762 L74.327,128.622 Z M70.785,127.74 C71.1396684,127.74 71.4406654,127.667667 71.688,127.523 C71.9353346,127.378333 72.1359992,127.187001 72.29,126.949 C72.4440008,126.710999 72.5559997,126.440335 72.626,126.137 C72.6960004,125.833665 72.731,125.528002 72.731,125.22 C72.731,124.911998 72.693667,124.613335 72.619,124.324 C72.544333,124.034665 72.4300008,123.778001 72.276,123.554 C72.1219992,123.329999 71.9213346,123.152667 71.674,123.022 C71.4266654,122.891333 71.1303351,122.826 70.785,122.826 C70.4303316,122.826 70.1316679,122.900666 69.889,123.05 C69.6463321,123.199334 69.4503341,123.392999 69.301,123.631 C69.1516659,123.869001 69.0443337,124.139665 68.979,124.443 C68.9136663,124.746335 68.881,125.047332 68.881,125.346 C68.881,125.644668 68.918333,125.936332 68.993,126.221 C69.067667,126.505668 69.1819992,126.759999 69.336,126.984 C69.4900008,127.208001 69.6859988,127.389999 69.924,127.53 C70.1620012,127.670001 70.4489983,127.74 70.785,127.74 L70.785,127.74 Z M80.053,119.004 L84.827,119.004 C85.9283388,119.004 86.7543306,119.241998 87.305,119.718 C87.8556694,120.194002 88.131,120.856662 88.131,121.706 C88.131,122.182002 88.0610007,122.576332 87.921,122.889 C87.7809993,123.201668 87.6176676,123.453666 87.431,123.645 C87.2443324,123.836334 87.0600009,123.974 86.878,124.058 C86.6959991,124.142 86.5630004,124.198 86.479,124.226 L86.479,124.254 C86.6283341,124.272667 86.7893325,124.319333 86.962,124.394 C87.1346675,124.468667 87.2956659,124.587666 87.445,124.751 C87.5943341,124.914334 87.7179995,125.126665 87.816,125.388 C87.9140005,125.649335 87.963,125.975998 87.963,126.368 C87.963,126.956003 88.0073329,127.490331 88.096,127.971 C88.1846671,128.451669 88.3223324,128.794666 88.509,129 L86.633,129 C86.5023327,128.785332 86.4253335,128.547335 86.402,128.286 C86.3786666,128.024665 86.367,127.772668 86.367,127.53 C86.367,127.072664 86.3390003,126.678335 86.283,126.347 C86.2269997,126.015665 86.1243341,125.740334 85.975,125.521 C85.8256659,125.301666 85.622668,125.140667 85.366,125.038 C85.1093321,124.935333 84.7803353,124.884 84.379,124.884 L81.803,124.884 L81.803,129 L80.053,129 L80.053,119.004 Z M81.803,123.554 L84.673,123.554 C85.2330028,123.554 85.6576652,123.421001 85.947,123.155 C86.2363348,122.888999 86.381,122.490003 86.381,121.958 C86.381,121.640665 86.3343338,121.381668 86.241,121.181 C86.1476662,120.980332 86.0193342,120.824001 85.856,120.712 C85.6926659,120.599999 85.5060011,120.525334 85.296,120.488 C85.085999,120.450666 84.8690011,120.432 84.645,120.432 L81.803,120.432 L81.803,123.554 Z M94.655,124.744 C94.6363332,124.491999 94.5826671,124.249335 94.494,124.016 C94.4053329,123.782666 94.2840008,123.579668 94.13,123.407 C93.9759992,123.234332 93.7893344,123.094334 93.57,122.987 C93.3506656,122.879666 93.105668,122.826 92.835,122.826 C92.5549986,122.826 92.3006678,122.875 92.072,122.973 C91.8433322,123.071 91.6473342,123.206332 91.484,123.379 C91.3206659,123.551668 91.1900005,123.754666 91.092,123.988 C90.9939995,124.221335 90.9403334,124.473332 90.931,124.744 L94.655,124.744 Z M90.931,125.794 C90.931,126.074001 90.9706663,126.344665 91.05,126.606 C91.1293337,126.867335 91.2483325,127.095999 91.407,127.292 C91.5656675,127.488001 91.7663321,127.644333 92.009,127.761 C92.2516679,127.877667 92.5409983,127.936 92.877,127.936 C93.343669,127.936 93.7193319,127.835668 94.004,127.635 C94.2886681,127.434332 94.5009993,127.133335 94.641,126.732 L96.153,126.732 C96.0689996,127.124002 95.9243344,127.473998 95.719,127.782 C95.5136656,128.090002 95.2663348,128.348999 94.977,128.559 C94.6876652,128.769001 94.3633351,128.927666 94.004,129.035 C93.6446649,129.142334 93.269002,129.196 92.877,129.196 C92.3076638,129.196 91.8036689,129.102668 91.365,128.916 C90.9263311,128.729332 90.5553349,128.468002 90.252,128.132 C89.9486652,127.795998 89.7200008,127.394669 89.566,126.928 C89.4119992,126.461331 89.335,125.948003 89.335,125.388 C89.335,124.874664 89.4166659,124.387002 89.58,123.925 C89.7433342,123.462998 89.9766652,123.057002 90.28,122.707 C90.5833348,122.356998 90.9496645,122.079334 91.379,121.874 C91.8083355,121.668666 92.293664,121.566 92.835,121.566 C93.4043362,121.566 93.9153311,121.684999 94.368,121.923 C94.8206689,122.161001 95.1963318,122.475998 95.495,122.868 C95.7936682,123.260002 96.010666,123.710331 96.146,124.219 C96.281334,124.727669 96.3163337,125.252664 96.251,125.794 L90.931,125.794 Z M98.673,126.676 C98.7196669,127.142669 98.8969985,127.469332 99.205,127.656 C99.5130015,127.842668 99.8816645,127.936 100.311,127.936 C100.460334,127.936 100.630666,127.924333 100.822,127.901 C101.013334,127.877667 101.192999,127.833334 101.361,127.768 C101.529001,127.702666 101.666666,127.607001 101.774,127.481 C101.881334,127.354999 101.930333,127.189334 101.921,126.984 C101.911667,126.778666 101.837001,126.610667 101.697,126.48 C101.556999,126.349333 101.377334,126.244334 101.158,126.165 C100.938666,126.085666 100.689001,126.018 100.409,125.962 C100.128999,125.906 99.8443348,125.845334 99.555,125.78 C99.2563318,125.714666 98.9693347,125.635334 98.694,125.542 C98.4186653,125.448666 98.1713344,125.322667 97.952,125.164 C97.7326656,125.005333 97.5576673,124.802335 97.427,124.555 C97.2963327,124.307665 97.231,124.002002 97.231,123.638 C97.231,123.245998 97.3266657,122.917001 97.518,122.651 C97.7093343,122.384999 97.9519985,122.170334 98.246,122.007 C98.5400015,121.843666 98.8666649,121.729334 99.226,121.664 C99.5853351,121.598666 99.9283317,121.566 100.255,121.566 C100.628335,121.566 100.985332,121.605666 101.326,121.685 C101.666668,121.764334 101.974665,121.892666 102.25,122.07 C102.525335,122.247334 102.753999,122.478332 102.936,122.763 C103.118001,123.047668 103.232333,123.390665 103.279,123.792 L101.613,123.792 C101.538333,123.409331 101.363335,123.152667 101.088,123.022 C100.812665,122.891333 100.497668,122.826 100.143,122.826 C100.030999,122.826 99.8980008,122.835333 99.744,122.854 C99.5899992,122.872667 99.445334,122.907666 99.31,122.959 C99.174666,123.010334 99.0603338,123.085 98.967,123.183 C98.8736662,123.281 98.827,123.409333 98.827,123.568 C98.827,123.764001 98.894666,123.922666 99.03,124.044 C99.165334,124.165334 99.3426656,124.265666 99.562,124.345 C99.7813344,124.424334 100.030999,124.492 100.311,124.548 C100.591001,124.604 100.880332,124.664666 101.179,124.73 C101.468335,124.795334 101.752999,124.874666 102.033,124.968 C102.313001,125.061334 102.562666,125.187333 102.782,125.346 C103.001334,125.504667 103.178666,125.705332 103.314,125.948 C103.449334,126.190668 103.517,126.489332 103.517,126.844 C103.517,127.273335 103.419001,127.637332 103.223,127.936 C103.026999,128.234668 102.772668,128.477332 102.46,128.664 C102.147332,128.850668 101.799669,128.986 101.417,129.07 C101.034331,129.154 100.656335,129.196 100.283,129.196 C99.8256644,129.196 99.4033353,129.144667 99.016,129.042 C98.6286647,128.939333 98.2926681,128.783001 98.008,128.573 C97.7233319,128.362999 97.4993342,128.101668 97.336,127.789 C97.1726659,127.476332 97.0863334,127.105335 97.077,126.676 L98.673,126.676 Z M111.091,129 L109.523,129 L109.523,127.992 L109.495,127.992 C109.298999,128.356002 109.007335,128.647666 108.62,128.867 C108.232665,129.086334 107.838335,129.196 107.437,129.196 C106.484995,129.196 105.796669,128.960336 105.372,128.489 C104.947331,128.017664 104.735,127.306005 104.735,126.354 L104.735,121.762 L106.331,121.762 L106.331,126.2 C106.331,126.83467 106.452332,127.282665 106.695,127.544 C106.937668,127.805335 107.278331,127.936 107.717,127.936 C108.053002,127.936 108.332999,127.884667 108.557,127.782 C108.781001,127.679333 108.962999,127.541668 109.103,127.369 C109.243001,127.196332 109.343333,126.988668 109.404,126.746 C109.464667,126.503332 109.495,126.242001 109.495,125.962 L109.495,121.762 L111.091,121.762 L111.091,129 Z M112.813,119.004 L114.409,119.004 L114.409,129 L112.813,129 L112.813,119.004 Z M115.417,121.762 L116.621,121.762 L116.621,119.592 L118.217,119.592 L118.217,121.762 L119.659,121.762 L119.659,122.952 L118.217,122.952 L118.217,126.816 C118.217,126.984001 118.224,127.128666 118.238,127.25 C118.252,127.371334 118.284666,127.474 118.336,127.558 C118.387334,127.642 118.464333,127.705 118.567,127.747 C118.669667,127.789 118.809666,127.81 118.987,127.81 C119.099001,127.81 119.210999,127.807667 119.323,127.803 C119.435001,127.798333 119.546999,127.782 119.659,127.754 L119.659,128.986 C119.481666,129.004667 119.309001,129.023333 119.141,129.042 C118.972999,129.060667 118.800334,129.07 118.623,129.07 C118.202998,129.07 117.864668,129.030334 117.608,128.951 C117.351332,128.871666 117.150667,128.755001 117.006,128.601 C116.861333,128.446999 116.763334,128.253334 116.712,128.02 C116.660666,127.786666 116.630333,127.520668 116.621,127.222 L116.621,122.952 L115.417,122.952 L115.417,121.762 Z M122.011,126.676 C122.057667,127.142669 122.234998,127.469332 122.543,127.656 C122.851002,127.842668 123.219665,127.936 123.649,127.936 C123.798334,127.936 123.968666,127.924333 124.16,127.901 C124.351334,127.877667 124.530999,127.833334 124.699,127.768 C124.867001,127.702666 125.004666,127.607001 125.112,127.481 C125.219334,127.354999 125.268333,127.189334 125.259,126.984 C125.249667,126.778666 125.175001,126.610667 125.035,126.48 C124.894999,126.349333 124.715334,126.244334 124.496,126.165 C124.276666,126.085666 124.027001,126.018 123.747,125.962 C123.466999,125.906 123.182335,125.845334 122.893,125.78 C122.594332,125.714666 122.307335,125.635334 122.032,125.542 C121.756665,125.448666 121.509334,125.322667 121.29,125.164 C121.070666,125.005333 120.895667,124.802335 120.765,124.555 C120.634333,124.307665 120.569,124.002002 120.569,123.638 C120.569,123.245998 120.664666,122.917001 120.856,122.651 C121.047334,122.384999 121.289999,122.170334 121.584,122.007 C121.878001,121.843666 122.204665,121.729334 122.564,121.664 C122.923335,121.598666 123.266332,121.566 123.593,121.566 C123.966335,121.566 124.323332,121.605666 124.664,121.685 C125.004668,121.764334 125.312665,121.892666 125.588,122.07 C125.863335,122.247334 126.091999,122.478332 126.274,122.763 C126.456001,123.047668 126.570333,123.390665 126.617,123.792 L124.951,123.792 C124.876333,123.409331 124.701335,123.152667 124.426,123.022 C124.150665,122.891333 123.835668,122.826 123.481,122.826 C123.368999,122.826 123.236001,122.835333 123.082,122.854 C122.927999,122.872667 122.783334,122.907666 122.648,122.959 C122.512666,123.010334 122.398334,123.085 122.305,123.183 C122.211666,123.281 122.165,123.409333 122.165,123.568 C122.165,123.764001 122.232666,123.922666 122.368,124.044 C122.503334,124.165334 122.680666,124.265666 122.9,124.345 C123.119334,124.424334 123.368999,124.492 123.649,124.548 C123.929001,124.604 124.218332,124.664666 124.517,124.73 C124.806335,124.795334 125.090999,124.874666 125.371,124.968 C125.651001,125.061334 125.900666,125.187333 126.12,125.346 C126.339334,125.504667 126.516666,125.705332 126.652,125.948 C126.787334,126.190668 126.855,126.489332 126.855,126.844 C126.855,127.273335 126.757001,127.637332 126.561,127.936 C126.364999,128.234668 126.110668,128.477332 125.798,128.664 C125.485332,128.850668 125.137669,128.986 124.755,129.07 C124.372331,129.154 123.994335,129.196 123.621,129.196 C123.163664,129.196 122.741335,129.144667 122.354,129.042 C121.966665,128.939333 121.630668,128.783001 121.346,128.573 C121.061332,128.362999 120.837334,128.101668 120.674,127.789 C120.510666,127.476332 120.424333,127.105335 120.415,126.676 L122.011,126.676 Z" id="Delivering-Results" fill="#616D77" sketch:type="MSShapeGroup"></path>
        </g>
    </g>
</svg>