<?xml version="1.0" encoding="UTF-8" standalone="no"?>
<svg width="30px" height="30px" viewBox="0 0 30 30" version="1.1" xmlns="http://www.w3.org/2000/svg" xmlns:xlink="http://www.w3.org/1999/xlink" xmlns:sketch="http://www.bohemiancoding.com/sketch/ns">
    <!-- Generator: Sketch 3.3.2 (12043) - http://www.bohemiancoding.com/sketch -->
    <title>icons/ic-app-lca-inv</title>
    <desc>Created with Sketch.</desc>
    <defs></defs>
    <g id="ASSETS-+-SPECS" stroke="none" stroke-width="1" fill="none" fill-rule="evenodd" sketch:type="MSPage">
        <g id="artboard" sketch:type="MSArtboardGroup" transform="translate(-250.000000, -443.000000)" fill="#FFFFFF">
            <g id="icons/ic-app-lca-inv" sketch:type="MSLayerGroup" transform="translate(250.000000, 443.000000)">
                <path d="M23.2,12.7 L20,10.6 L10.8,5.6 C10.5,5.4 10.1,5.6 9.9,5.8 L6.7,11.3 C6.6,11.4 6.6,11.5 6.6,11.6 L6.6,18.9 C6.6,19.1 6.7,19.3 6.9,19.5 L16.1,24.7 C16.2,24.8 16.3,24.8 16.4,24.8 L16.5,24.8 L16.7,24.8 L23.1,21.1 C23.3,21 23.4,20.8 23.4,20.5 L23.4,13.2 C23.4,13 23.3,12.8 23.2,12.7 L23.2,12.7 Z M15.8,17.2 L15.8,23 L7.9,18.5 L7.9,12.7 L15.8,17.2 L15.8,17.2 Z M18.8,11.4 L16.2,16 L8.1,11.4 L10.6,7 L18.8,11.4 L18.8,11.4 Z M22.1,13.6 L22.1,20.2 L17.1,23.1 L17.1,17.1 L19.8,12.1 L22.1,13.6 L22.1,13.6 Z" id="Shape" sketch:type="MSShapeGroup"></path>
                <path d="M15,1.2 C22.6,1.2 28.8,7.4 28.8,15 C28.8,22.6 22.6,28.8 15,28.8 C7.4,28.8 1.2,22.6 1.2,15 C1.2,7.4 7.4,1.2 15,1.2 L15,1.2 Z M15,0 C6.7,0 0,6.7 0,15 C0,23.3 6.7,30 15,30 C23.3,30 30,23.3 30,15 C30,6.7 23.3,0 15,0 L15,0 L15,0 Z" id="Shape" sketch:type="MSShapeGroup"></path>
            </g>
        </g>
    </g>
</svg>