<?xml version="1.0" encoding="UTF-8" standalone="no"?>
<svg width="30px" height="30px" viewBox="0 0 30 30" version="1.1" xmlns="http://www.w3.org/2000/svg" xmlns:xlink="http://www.w3.org/1999/xlink" xmlns:sketch="http://www.bohemiancoding.com/sketch/ns">
    <!-- Generator: Sketch 3.3.2 (12043) - http://www.bohemiancoding.com/sketch -->
    <title>icons/ic-app-lcva-inv</title>
    <desc>Created with Sketch.</desc>
    <defs></defs>
    <g id="ASSETS-+-SPECS" stroke="none" stroke-width="1" fill="none" fill-rule="evenodd" sketch:type="MSPage">
        <g id="artboard" sketch:type="MSArtboardGroup" transform="translate(-346.000000, -443.000000)" fill="#FFFFFF">
            <g id="icons/ic-app-lcva-inv" sketch:type="MSLayerGroup" transform="translate(346.000000, 443.000000)">
                <path d="M15,1.2 C22.6,1.2 28.8,7.4 28.8,15 C28.8,22.6 22.6,28.8 15,28.8 C7.4,28.8 1.2,22.6 1.2,15 C1.2,7.4 7.4,1.2 15,1.2 L15,1.2 Z M15,0 C6.7,0 0,6.7 0,15 C0,23.3 6.7,30 15,30 C23.3,30 30,23.3 30,15 C30,6.7 23.3,0 15,0 L15,0 L15,0 Z" id="Shape" sketch:type="MSShapeGroup"></path>
                <g id="LCovA" transform="translate(6.000000, 4.000000)" sketch:type="MSShapeGroup">
                    <path d="M16.8,5.9 L7.9,0.8 C7.7,0.7 7.4,0.7 7.2,0.8 C7,0.9 6.9,1.1 6.9,1.4 L6.9,4.2 L4.7,2.9 C4.5,2.8 4.2,2.8 4,2.9 C3.8,3 3.7,3.2 3.7,3.5 L3.7,6.4 L1.6,5.2 C1.4,5.1 1.1,5.1 0.9,5.2 C0.7,5.3 0.6,5.5 0.6,5.8 L0.6,16.1 C0.6,16.3 0.7,16.5 0.9,16.7 L9.8,21.8 C9.9,21.9 10,21.9 10.1,21.9 C10.2,21.9 10.3,21.9 10.4,21.8 C10.6,21.7 10.7,21.5 10.7,21.2 L10.7,18.3 L12.8,19.5 C13,19.6 13.3,19.6 13.5,19.5 C13.7,19.4 13.8,19.2 13.8,18.9 L13.8,16 L16,17.3 C16.2,17.4 16.5,17.4 16.7,17.3 C16.9,17.2 17,17 17,16.7 L17,6.4 C17.2,6.2 17,6 16.8,5.9 L16.8,5.9 Z M9.6,11.1 L9.6,19.9 L2,15.5 L2,6.7 L9.6,11.1 L9.6,11.1 Z M10.5,10.2 L5.1,7.1 L5.1,4.6 L12.7,9 L12.7,17.8 L10.9,16.8 L10.9,10.9 C10.9,10.5 10.7,10.3 10.5,10.2 L10.5,10.2 Z M13.6,8 L8.3,4.9 L8.3,2.4 L15.9,6.8 L15.9,15.6 L14,14.5 L14,8.6 C14,8.3 13.8,8.1 13.6,8 L13.6,8 Z" id="Shape"></path>
                </g>
            </g>
        </g>
    </g>
</svg>