<?xml version="1.0" encoding="UTF-8" standalone="no"?>
<svg width="70px" height="70px" viewBox="0 0 70 70" version="1.1" xmlns="http://www.w3.org/2000/svg" xmlns:xlink="http://www.w3.org/1999/xlink" xmlns:sketch="http://www.bohemiancoding.com/sketch/ns">
    <!-- Generator: Sketch 3.3.2 (12043) - http://www.bohemiancoding.com/sketch -->
    <title>icons/ic-app-lcva</title>
    <desc>Created with Sketch.</desc>
    <defs></defs>
    <g id="ASSETS-+-SPECS" stroke="none" stroke-width="1" fill="none" fill-rule="evenodd" sketch:type="MSPage">
        <g id="ASSETS" sketch:type="MSArtboardGroup" transform="translate(-60.000000, -389.000000)" fill="#F1A51E">
            <g id="icons/ic-app-lcva" sketch:type="MSLayerGroup" transform="translate(60.000000, 389.000000)">
                <path d="M52.5178182,23.7541818 L32.2674545,12.0629091 C31.9849091,11.8987273 31.6361818,11.8987273 31.3536364,12.0629091 C31.0698182,12.2270909 30.8967273,12.5274545 30.8967273,12.8545455 L30.8967273,20.3407273 L24.9530909,16.9081818 C24.6705455,16.744 24.3218182,16.744 24.0392727,16.9081818 C23.7567273,17.0723636 23.5823636,17.374 23.5823636,17.6998182 L23.5823636,25.2305455 L17.8512727,21.9214545 C17.5674545,21.7572727 17.22,21.7572727 16.9374545,21.9214545 C16.6536364,22.0856364 16.4792727,22.3847273 16.4792727,22.7130909 L16.4792727,46.1605455 C16.4792727,46.4863636 16.6536364,46.788 16.9374545,46.9521818 L37.1903636,58.6409091 C37.3303636,58.7236364 37.4881818,58.7630909 37.646,58.7630909 C37.8050909,58.7630909 37.9629091,58.7236364 38.1029091,58.6409091 C38.3867273,58.478 38.5610909,58.1776364 38.5610909,57.8505455 L38.5610909,50.3261818 L44.2883636,53.6314545 C44.4283636,53.7141818 44.5861818,53.7536364 44.744,53.7536364 C44.9030909,53.7536364 45.0609091,53.7141818 45.2009091,53.6314545 C45.4847273,53.4685455 45.6590909,53.1681818 45.6590909,52.8410909 L45.6590909,45.3523636 L51.604,48.7849091 C51.744,48.8663636 51.9018182,48.9070909 52.0609091,48.9070909 C52.2187273,48.9070909 52.3765455,48.8663636 52.5178182,48.7849091 C52.8003636,48.6207273 52.9747273,48.3203636 52.9747273,47.9932727 L52.9747273,24.5458182 C52.9747273,24.2187273 52.8003636,23.9183636 52.5178182,23.7541818 L52.5178182,23.7541818 Z M36.7321818,56.2685455 L18.3081818,45.6323636 L18.3081818,24.2938182 L36.7321818,34.9287273 L36.7321818,56.2685455 L36.7321818,56.2685455 Z M43.8301818,51.2578182 L38.5610909,48.216 L38.5610909,34.4018182 C38.5610909,34.0747273 38.3867273,33.7743636 38.1029091,33.6101818 L25.41,26.2843636 L25.41,19.2818182 L43.8301818,29.9205455 L43.8301818,51.2578182 L43.8301818,51.2578182 Z M51.1458182,46.41 L45.6590909,43.2421818 L45.6590909,29.3936364 C45.6590909,29.0652727 45.4847273,28.7649091 45.2009091,28.602 L32.7243636,21.3970909 L32.7243636,14.4378182 L51.1458182,25.0727273 L51.1458182,46.41 L51.1458182,46.41 Z" id="art" sketch:type="MSShapeGroup"></path>
                <path d="M35.1465359,0.711454545 C16.0962683,0.711454545 0.647818182,16.1573402 0.647818182,35.2127368 C0.647818182,54.2642866 16.0962683,69.7114545 35.1465359,69.7114545 C54.2006503,69.7114545 69.6491004,54.2642866 69.6491004,35.2127368 C69.6491004,16.1573402 54.2006503,0.711454545 35.1465359,0.711454545 L35.1465359,0.711454545 Z M35.1465359,67.7983497 C17.1784805,67.7983497 2.56092307,53.17951 2.56092307,35.2127368 C2.56092307,17.2421169 17.1784805,2.62584167 35.1465359,2.62584167 C53.1158736,2.62584167 67.7359955,17.2421169 67.7359955,35.2127368 C67.7359955,53.17951 53.1158736,67.7983497 35.1465359,67.7983497 L35.1465359,67.7983497 Z" id="circle" sketch:type="MSShapeGroup"></path>
            </g>
        </g>
    </g>
</svg>