<?xml version="1.0" encoding="UTF-8" standalone="no"?>
<svg width="70px" height="70px" viewBox="0 0 70 70" version="1.1" xmlns="http://www.w3.org/2000/svg" xmlns:xlink="http://www.w3.org/1999/xlink" xmlns:sketch="http://www.bohemiancoding.com/sketch/ns">
    <!-- Generator: Sketch 3.3.2 (12043) - http://www.bohemiancoding.com/sketch -->
    <title>icons/ic-app-lqa</title>
    <desc>Created with Sketch.</desc>
    <defs></defs>
    <g id="ASSETS-+-SPECS" stroke="none" stroke-width="1" fill="none" fill-rule="evenodd" sketch:type="MSPage">
        <g id="ASSETS" sketch:type="MSArtboardGroup" transform="translate(-60.000000, -260.000000)" fill="#B76EAC">
            <g id="icons/ic-app-lqa" sketch:type="MSLayerGroup" transform="translate(60.000000, 260.000000)">
                <path d="M58.1801818,38.6349091 L50.4636364,34.1803636 L48.6716364,35.2150909 L55.9401818,39.41 L35.1489091,51.4143636 L14.2112727,39.3285455 L21.4632727,35.14 L19.6725455,34.1065455 L11.9712727,38.5534545 C11.6950909,38.7138182 11.5232727,39.0090909 11.5232727,39.3285455 C11.5232727,39.6492727 11.6950909,39.9445455 11.9712727,40.1049091 L34.7009091,53.2254545 C34.8396364,53.3043636 34.9936364,53.3450909 35.1489091,53.3450909 C35.3029091,53.3450909 35.4581818,53.3043636 35.5969091,53.2241818 L58.1801818,40.1863636 C58.4576364,40.026 58.6281818,39.7307273 58.6281818,39.41 C58.6281818,39.0905455 58.4576364,38.794 58.1801818,38.6349091" id="art-3" sketch:type="MSShapeGroup"></path>
                <path d="M52.9530909,31.1907273 L46.4545455,27.44 L44.6612727,28.4734545 L50.7130909,31.9670909 L35.1336364,40.9614545 L19.4409091,31.9034545 L25.4787273,28.4174545 L23.6867273,27.3827273 L17.2021818,31.1283636 C16.9247273,31.2887273 16.7541818,31.584 16.7541818,31.9034545 C16.7541818,32.2241818 16.9247273,32.5194545 17.2021818,32.6798182 L34.6856364,42.7725455 C34.8243636,42.8527273 34.9796364,42.8921818 35.1336364,42.8921818 C35.2876364,42.8921818 35.4429091,42.8527273 35.5816364,42.7725455 L48.6716364,35.2150909 L50.4636364,34.1803636 L52.9530909,32.7421818 C53.2305455,32.5818182 53.4010909,32.2865455 53.4010909,31.9670909 C53.4010909,31.6463636 53.2305455,31.3510909 52.9530909,31.1907273" id="art-2" sketch:type="MSShapeGroup"></path>
                <path d="M48.9325455,24.4567273 L35.4823636,16.6930909 C35.2036364,16.5327273 34.8625455,16.5327273 34.5863636,16.6930909 L21.224,24.4083636 C20.9465455,24.5687273 20.776,24.864 20.776,25.1847273 C20.776,25.5041818 20.9465455,25.7994545 21.224,25.9598182 L34.6690909,33.7247273 C34.8078182,33.8049091 34.9630909,33.8443636 35.1170909,33.8443636 C35.2723636,33.8443636 35.4263636,33.8049091 35.5650909,33.7247273 L42.6198182,29.6532727 L44.6612727,28.4734545 L46.4545455,27.44 L48.9325455,26.0081818 C49.2087273,25.8490909 49.3805455,25.5525455 49.3805455,25.2330909 C49.3805455,24.9123636 49.2087273,24.6170909 48.9325455,24.4567273 L48.9325455,24.4567273 Z M35.1170909,31.9149091 L23.464,25.1847273 L35.0343636,18.5041818 L46.6912727,25.2330909 L35.1170909,31.9149091 L35.1170909,31.9149091 Z" id="art-1" sketch:type="MSShapeGroup"></path>
                <path d="M35.2566316,0.142545455 C16.2021632,0.142545455 0.757272727,15.5900004 0.757272727,34.6444689 C0.757272727,53.6989373 16.2021632,69.1425455 35.2566316,69.1425455 C54.3123823,69.1425455 69.7559905,53.6989373 69.7559905,34.6444689 C69.7559905,15.5900004 54.3123823,0.142545455 35.2566316,0.142545455 L35.2566316,0.142545455 Z M35.2566316,67.2319695 C17.2895245,67.2319695 2.67041316,52.611576 2.67041316,34.6444689 C2.67041316,16.6747972 17.2895245,2.05440362 35.2566316,2.05440362 C53.225021,2.05440362 67.8441323,16.6747972 67.8441323,34.6444689 C67.8441323,52.611576 53.225021,67.2319695 35.2566316,67.2319695 L35.2566316,67.2319695 Z" id="circle" sketch:type="MSShapeGroup"></path>
            </g>
        </g>
    </g>
</svg>