<?xml version="1.0" encoding="UTF-8" standalone="no"?>
<svg width="30px" height="30px" viewBox="0 0 30 30" version="1.1" xmlns="http://www.w3.org/2000/svg" xmlns:xlink="http://www.w3.org/1999/xlink" xmlns:sketch="http://www.bohemiancoding.com/sketch/ns">
    <!-- Generator: Sketch 3.3.2 (12043) - http://www.bohemiancoding.com/sketch -->
    <title>icons/ic-app-lqa-inv</title>
    <desc>Created with Sketch.</desc>
    <defs></defs>
    <g id="ASSETS-+-SPECS" stroke="none" stroke-width="1" fill="none" fill-rule="evenodd" sketch:type="MSPage">
        <g id="artboard" sketch:type="MSArtboardGroup" transform="translate(-298.000000, -487.000000)" fill="#FFFFFF">
            <g id="icons/ic-app-lqa-inv" sketch:type="MSLayerGroup" transform="translate(298.000000, 487.000000)">
                <path d="M15,1.2 C22.6,1.2 28.8,7.4 28.8,15 C28.8,22.6 22.6,28.8 15,28.8 C7.4,28.8 1.2,22.6 1.2,15 C1.2,7.4 7.4,1.2 15,1.2 L15,1.2 Z M15,0 C6.7,0 0,6.7 0,15 C0,23.3 6.7,30 15,30 C23.3,30 30,23.3 30,15 C30,6.7 23.3,0 15,0 L15,0 L15,0 Z" id="Shape" sketch:type="MSShapeGroup"></path>
                <path d="M25.3,16.6 L22.3,14.9 L23,14.5 C23.2,14.4 23.3,14.2 23.3,13.9 C23.3,13.6 23.2,13.5 23,13.3 L20.5,11.9 L21.2,11.5 C21.4,11.4 21.5,11.2 21.5,10.9 C21.5,10.7 21.4,10.5 21.2,10.3 L15.3,6.9 C15.1,6.8 14.9,6.8 14.7,6.9 L8.8,10.3 C8.6,10.4 8.5,10.6 8.5,10.9 C8.5,11.1 8.6,11.3 8.8,11.5 L9.5,11.9 L7,13.3 C6.8,13.4 6.7,13.6 6.7,13.9 C6.7,14.1 6.8,14.3 7,14.5 L7.7,14.9 L4.7,16.6 C4.5,16.7 4.4,16.9 4.4,17.2 C4.4,17.5 4.5,17.6 4.7,17.8 L14.7,23.6 C14.8,23.7 14.9,23.7 15,23.7 C15.1,23.7 15.2,23.7 15.3,23.6 L25.2,17.9 C25.4,17.8 25.5,17.6 25.5,17.3 C25.5,17 25.5,16.7 25.3,16.6 L25.3,16.6 Z M19.7,10.9 L15.1,13.5 L10.5,10.8 L15.1,8.2 L19.7,10.9 L19.7,10.9 Z M9.1,15.6 L14.8,18.9 C14.9,19 15,19 15.1,19 C15.2,19 15.3,19 15.4,18.9 L21,15.7 L23.7,17.3 L15.1,22.3 L6.4,17.3 L9.1,15.6 L9.1,15.6 Z M14.8,14.9 C14.9,15 15,15 15.1,15 C15.2,15 15.3,15 15.4,14.9 L19.3,12.7 L21.5,13.9 L15.2,17.6 L8.8,13.9 L10.9,12.7 L14.8,14.9 L14.8,14.9 Z" id="Shape" sketch:type="MSShapeGroup"></path>
            </g>
        </g>
    </g>
</svg>