<?xml version="1.0" encoding="utf-8"?>
<!-- Generator: Adobe Illustrator 19.1.0, SVG Export Plug-In . SVG Version: 6.00 Build 0)  -->
<!DOCTYPE svg PUBLIC "-//W3C//DTD SVG 1.1//EN" "http://www.w3.org/Graphics/SVG/1.1/DTD/svg11.dtd">
<svg version="1.1" id="Layer_1" xmlns="http://www.w3.org/2000/svg" xmlns:xlink="http://www.w3.org/1999/xlink" x="0px" y="0px"
	 viewBox="0 0 191.96 43.66" style="enable-background:new 0 0 191.96 43.66;" xml:space="preserve">
<style type="text/css">
	.Drop_x0020_Shadow{fill:none;}
	.Outer_x0020_Glow_x0020_5_x0020_pt{fill:none;}
	.Blue_x0020_Neon{fill:none;stroke:#8AACDA;stroke-width:7;stroke-linecap:round;stroke-linejoin:round;}
	.Chrome_x0020_Highlight{fill:url(#SVGID_1_);stroke:#FFFFFF;stroke-width:0.3629;stroke-miterlimit:1;}
	.Jive_GS{fill:#FFDD00;}
	.Alyssa_GS{fill:#A6D0E4;}
	.st0{fill:#12A5DF;}
	.st1{fill:#88BD45;}
</style>
<linearGradient id="SVGID_1_" gradientUnits="userSpaceOnUse" x1="-544.6728" y1="-3.0229" x2="-544.6728" y2="-4.0229">
	<stop  offset="0" style="stop-color:#656565"/>
	<stop  offset="0.618" style="stop-color:#1B1B1B"/>
	<stop  offset="0.6292" style="stop-color:#545454"/>
	<stop  offset="0.9831" style="stop-color:#3E3E3E"/>
</linearGradient>
<g>
	<g>
		<path id="XMLID_103_" class="st0" d="M0,16.79h17.01v4.09H4.69v7.22H16.3v3.95H4.69v11.09H0V16.79z"/>
		<path id="XMLID_101_" class="st0" d="M18.87,25.27h4.28v2.98h0.07c0.5-1.04,1.19-1.89,2.08-2.53c0.89-0.65,1.94-0.97,3.13-0.97
			c0.17,0,0.36,0.01,0.56,0.02c0.2,0.01,0.37,0.04,0.52,0.09v4.09c-0.3-0.07-0.55-0.12-0.76-0.15c-0.21-0.02-0.42-0.04-0.61-0.04
			c-1.02,0-1.84,0.19-2.46,0.56c-0.62,0.37-1.1,0.82-1.45,1.34c-0.35,0.52-0.58,1.05-0.71,1.6c-0.12,0.55-0.19,0.98-0.19,1.3v9.57
			h-4.47V25.27z"/>
		<path id="XMLID_98_" class="st0" d="M47.79,34.43c0,0.2,0,0.4,0,0.6c0,0.2-0.01,0.4-0.04,0.6H34.17c0.05,0.65,0.22,1.23,0.5,1.77
			c0.28,0.53,0.66,0.99,1.13,1.38c0.47,0.38,1,0.69,1.6,0.91c0.6,0.22,1.22,0.34,1.86,0.34c1.12,0,2.06-0.2,2.83-0.61
			c0.77-0.41,1.4-0.97,1.9-1.69l2.98,2.38c-1.76,2.38-4.32,3.57-7.67,3.57c-1.39,0-2.67-0.22-3.83-0.65
			c-1.17-0.43-2.18-1.05-3.03-1.84c-0.86-0.79-1.53-1.77-2.01-2.92c-0.48-1.15-0.73-2.46-0.73-3.93c0-1.44,0.24-2.75,0.73-3.93
			c0.48-1.18,1.15-2.18,1.99-3.01c0.84-0.83,1.84-1.48,3-1.94c1.15-0.46,2.4-0.69,3.74-0.69c1.24,0,2.39,0.2,3.44,0.61
			c1.05,0.41,1.97,1.02,2.74,1.82C46.1,28,46.7,29,47.14,30.2C47.57,31.41,47.79,32.82,47.79,34.43z M43.32,32.42
			c0-0.57-0.08-1.12-0.24-1.64s-0.42-0.98-0.76-1.38c-0.35-0.4-0.79-0.71-1.32-0.95c-0.53-0.24-1.16-0.35-1.88-0.35
			c-1.34,0-2.48,0.4-3.41,1.21c-0.93,0.81-1.45,1.84-1.54,3.11H43.32z"/>
		<path id="XMLID_95_" class="st0" d="M68.97,43.14h-4.24v-2.68h-0.07c-0.62,1.04-1.48,1.84-2.59,2.38
			c-1.1,0.55-2.29,0.82-3.55,0.82c-1.37,0-2.59-0.25-3.67-0.76c-1.08-0.51-2-1.19-2.75-2.05c-0.76-0.86-1.34-1.86-1.75-3.01
			c-0.41-1.15-0.61-2.39-0.61-3.7c0-1.31,0.21-2.54,0.63-3.68c0.42-1.14,1.02-2.13,1.79-2.98c0.77-0.84,1.69-1.51,2.75-1.99
			c1.07-0.48,2.23-0.73,3.5-0.73c0.82,0,1.55,0.09,2.2,0.28c0.64,0.19,1.21,0.42,1.69,0.69c0.48,0.27,0.9,0.57,1.25,0.89
			c0.35,0.32,0.63,0.63,0.86,0.93h0.11V16.87h4.47V43.14z M54.26,34.13c0,0.69,0.11,1.39,0.32,2.08c0.21,0.7,0.53,1.32,0.95,1.86
			c0.42,0.55,0.95,0.99,1.6,1.34c0.65,0.35,1.4,0.52,2.27,0.52c0.82,0,1.55-0.17,2.2-0.5c0.65-0.33,1.2-0.78,1.66-1.32
			c0.46-0.55,0.81-1.16,1.04-1.84c0.24-0.68,0.35-1.37,0.35-2.07c0-0.69-0.12-1.39-0.35-2.08c-0.24-0.69-0.58-1.31-1.04-1.86
			c-0.46-0.55-1.01-0.99-1.66-1.34c-0.65-0.35-1.38-0.52-2.2-0.52c-0.87,0-1.63,0.17-2.27,0.5c-0.65,0.34-1.18,0.78-1.6,1.32
			c-0.42,0.55-0.74,1.16-0.95,1.84C54.37,32.75,54.26,33.44,54.26,34.13z"/>
		<path id="XMLID_92_" class="st0" d="M90.33,43.14h-4.24v-2.68h-0.07c-0.62,1.04-1.48,1.84-2.59,2.38
			c-1.1,0.55-2.29,0.82-3.55,0.82c-1.37,0-2.59-0.25-3.67-0.76c-1.08-0.51-2-1.19-2.75-2.05c-0.76-0.86-1.34-1.86-1.75-3.01
			c-0.41-1.15-0.61-2.39-0.61-3.7c0-1.31,0.21-2.54,0.63-3.68c0.42-1.14,1.02-2.13,1.79-2.98c0.77-0.84,1.69-1.51,2.75-1.99
			c1.07-0.48,2.23-0.73,3.5-0.73c0.82,0,1.55,0.09,2.2,0.28c0.64,0.19,1.21,0.42,1.69,0.69c0.48,0.27,0.9,0.57,1.25,0.89
			c0.35,0.32,0.63,0.63,0.86,0.93h0.11V16.87h4.47V43.14z M75.63,34.13c0,0.69,0.11,1.39,0.32,2.08c0.21,0.7,0.53,1.32,0.95,1.86
			c0.42,0.55,0.95,0.99,1.6,1.34c0.65,0.35,1.4,0.52,2.27,0.52c0.82,0,1.55-0.17,2.2-0.5c0.65-0.33,1.2-0.78,1.66-1.32
			c0.46-0.55,0.81-1.16,1.04-1.84c0.24-0.68,0.35-1.37,0.35-2.07c0-0.69-0.12-1.39-0.35-2.08c-0.24-0.69-0.58-1.31-1.04-1.86
			c-0.46-0.55-1.01-0.99-1.66-1.34c-0.65-0.35-1.38-0.52-2.2-0.52c-0.87,0-1.63,0.17-2.27,0.5c-0.65,0.34-1.18,0.78-1.6,1.32
			c-0.42,0.55-0.74,1.16-0.95,1.84C75.73,32.75,75.63,33.44,75.63,34.13z"/>
		<path id="XMLID_89_" class="st0" d="M93.55,19.21c0-0.72,0.27-1.35,0.8-1.88c0.53-0.53,1.21-0.8,2.03-0.8s1.51,0.25,2.07,0.76
			c0.56,0.51,0.84,1.15,0.84,1.92c0,0.77-0.28,1.41-0.84,1.92c-0.56,0.51-1.25,0.76-2.07,0.76s-1.5-0.27-2.03-0.8
			C93.82,20.55,93.55,19.93,93.55,19.21z M94.18,25.27h4.47v17.86h-4.47V25.27z"/>
		<path id="XMLID_86_" class="st0" d="M119.48,34.43c0,0.2,0,0.4,0,0.6c0,0.2-0.01,0.4-0.04,0.6h-13.58
			c0.05,0.65,0.22,1.23,0.5,1.77c0.29,0.53,0.66,0.99,1.14,1.38c0.47,0.38,1,0.69,1.6,0.91c0.6,0.22,1.22,0.34,1.86,0.34
			c1.12,0,2.06-0.2,2.83-0.61c0.77-0.41,1.4-0.97,1.9-1.69l2.98,2.38c-1.76,2.38-4.32,3.57-7.67,3.57c-1.39,0-2.67-0.22-3.83-0.65
			c-1.17-0.43-2.18-1.05-3.03-1.84c-0.86-0.79-1.53-1.77-2.01-2.92c-0.48-1.15-0.73-2.46-0.73-3.93c0-1.44,0.24-2.75,0.73-3.93
			c0.48-1.18,1.15-2.18,1.99-3.01c0.84-0.83,1.84-1.48,3-1.94c1.15-0.46,2.4-0.69,3.74-0.69c1.24,0,2.39,0.2,3.44,0.61
			c1.05,0.41,1.97,1.02,2.74,1.82c0.77,0.81,1.37,1.81,1.81,3.01C119.26,31.41,119.48,32.82,119.48,34.43z M115.01,32.42
			c0-0.57-0.08-1.12-0.24-1.64c-0.16-0.52-0.42-0.98-0.76-1.38c-0.35-0.4-0.79-0.71-1.32-0.95c-0.53-0.24-1.16-0.35-1.88-0.35
			c-1.34,0-2.48,0.4-3.41,1.21c-0.93,0.81-1.45,1.84-1.54,3.11H115.01z"/>
	</g>
	<g>
		<path id="XMLID_84_" class="st1" d="M125.51,16.79h7.33l6.85,18.72h0.11l6.77-18.72h7.37v26.35h-4.65V21.96h-0.07l-8,21.18h-3.28
			l-7.89-21.18h-0.07v21.18h-4.47V16.79z"/>
		<path id="XMLID_81_" class="st1" d="M168.97,40.87h-0.11c-0.45,0.79-1.17,1.45-2.16,1.95c-0.99,0.51-2.12,0.76-3.39,0.76
			c-0.72,0-1.47-0.09-2.25-0.28c-0.78-0.19-1.5-0.5-2.16-0.93c-0.66-0.43-1.2-1.01-1.64-1.71c-0.43-0.71-0.65-1.58-0.65-2.62
			c0-1.34,0.38-2.41,1.13-3.2c0.76-0.79,1.73-1.4,2.92-1.82c1.19-0.42,2.51-0.7,3.96-0.84c1.45-0.14,2.87-0.2,4.26-0.2v-0.45
			c0-1.12-0.4-1.94-1.21-2.47c-0.81-0.53-1.77-0.8-2.88-0.8c-0.94,0-1.85,0.2-2.72,0.6c-0.87,0.4-1.59,0.88-2.16,1.45l-2.31-2.72
			c1.02-0.94,2.19-1.65,3.52-2.12c1.33-0.47,2.67-0.71,4.04-0.71c1.59,0,2.9,0.22,3.93,0.67c1.03,0.45,1.84,1.03,2.44,1.75
			c0.6,0.72,1.01,1.53,1.25,2.42c0.24,0.89,0.35,1.79,0.35,2.68v10.87h-4.17V40.87z M168.9,34.99h-1.01c-0.72,0-1.48,0.03-2.27,0.09
			c-0.79,0.06-1.53,0.2-2.2,0.41c-0.67,0.21-1.23,0.51-1.67,0.89c-0.45,0.38-0.67,0.91-0.67,1.58c0,0.42,0.09,0.78,0.28,1.06
			c0.19,0.29,0.43,0.52,0.73,0.69c0.3,0.17,0.63,0.3,1,0.37c0.37,0.07,0.74,0.11,1.12,0.11c1.54,0,2.7-0.41,3.5-1.23
			c0.79-0.82,1.19-1.94,1.19-3.35V34.99z"/>
		<path id="XMLID_79_" class="st1" d="M188.9,30.22c-0.35-0.5-0.87-0.91-1.56-1.25c-0.69-0.34-1.4-0.5-2.12-0.5
			c-0.82,0-1.54,0.17-2.16,0.5c-0.62,0.33-1.13,0.78-1.54,1.32c-0.41,0.55-0.71,1.16-0.91,1.84c-0.2,0.68-0.3,1.37-0.3,2.07
			c0,0.7,0.11,1.38,0.32,2.07c0.21,0.68,0.53,1.3,0.95,1.84c0.42,0.55,0.95,0.99,1.58,1.32c0.63,0.34,1.37,0.5,2.21,0.5
			c0.69,0,1.39-0.14,2.08-0.41c0.69-0.27,1.25-0.67,1.67-1.19l2.79,2.83c-0.74,0.79-1.69,1.41-2.85,1.84
			c-1.15,0.43-2.4,0.65-3.74,0.65c-1.32,0-2.56-0.21-3.74-0.63c-1.18-0.42-2.21-1.04-3.09-1.86c-0.88-0.82-1.58-1.81-2.08-2.98
			c-0.51-1.17-0.76-2.49-0.76-3.98c0-1.44,0.25-2.74,0.76-3.91c0.51-1.17,1.2-2.16,2.07-2.98c0.87-0.82,1.88-1.45,3.03-1.9
			c1.15-0.45,2.39-0.67,3.7-0.67c1.31,0,2.59,0.25,3.81,0.74c1.23,0.5,2.2,1.18,2.92,2.05L188.9,30.22z"/>
	</g>
	<g>
		<polygon class="st1" points="58.14,16.87 58.14,11.3 40.77,0 23.4,11.3 23.4,16.87 40.77,5.52 		"/>
		<polygon class="st1" points="53.37,6.77 53.37,0 48.61,0 48.61,3.67 		"/>
	</g>
</g>
<g>
</g>
<g>
</g>
<g>
</g>
<g>
</g>
<g>
</g>
<g>
</g>
<g>
</g>
<g>
</g>
<g>
</g>
<g>
</g>
<g>
</g>
<g>
</g>
<g>
</g>
<g>
</g>
<g>
</g>
</svg>
