﻿{
	"aHExp" : [{
			"Key" : 0,
			"Value" : {
				"__type" : "HazardExpense:#DataAccess",
				"hAnnAmtCalcBaseT" : 0,
				"hAnnAmtCalcP" : 0.0,
				"hAnnAmtCalcT" : 0,
				"hCusLineNum" : 0,
				"hDisbList" : [],
				"hDisbRepI" : 0,
				"hEscClosing" : 1,
				"hExpDesc" : "Hazard Insurance",
				"hExpT" : 0,
				"hIsPrep" : false,
				"hMnthAmtF" : 100.0000,
				"hPaidTo" : 0,
				"hPolicyActD" : "/Date(-62135568000000-0800)/",
				"hPrePMnth" : 0,
				"hResMnthLckd" : false,
				"hResMon" : 3,
				"hTaxT" : 0,
				"hdisbMonSched" : [2, 0, 0, 0, 0, 0, 12, 0, 0, 0, 0, 0, 0]
			}
		}, {
			"Key" : 4,
			"Value" : {
				"__type" : "RealEstateTaxExpense:#DataAccess",
				"hAnnAmtCalcBaseT" : 0,
				"hAnnAmtCalcP" : 0.0,
				"hAnnAmtCalcT" : 0,
				"hCusLineNum" : 0,
				"hDisbList" : [],
				"hDisbRepI" : 0,
				"hEscClosing" : 1,
				"hExpDesc" : "Property Taxes",
				"hExpT" : 4,
				"hIsPrep" : false,
				"hMnthAmtF" : 200.00,
				"hPaidTo" : 0,
				"hPolicyActD" : "/Date(-62135568000000-0800)/",
				"hPrePMnth" : 0,
				"hResMnthLckd" : false,
				"hResMon" : 5,
				"hTaxT" : 0,
				"hdisbMonSched" : [2, 0, 0, 0, 6, 0, 0, 0, 0, 0, 0, 6, 0]
			}
		}, {
			"Key" : 1,
			"Value" : {
				"__type" : "FloodExpense:#DataAccess",
				"hAnnAmtCalcBaseT" : 0,
				"hAnnAmtCalcP" : 0.0,
				"hAnnAmtCalcT" : 0,
				"hCusLineNum" : 0,
				"hDisbList" : [],
				"hDisbRepI" : 0,
				"hEscClosing" : 1,
				"hExpDesc" : "Flood Insurance",
				"hExpT" : 1,
				"hIsPrep" : false,
				"hMnthAmtF" : 75.00,
				"hPaidTo" : 0,
				"hPolicyActD" : "/Date(-62135568000000-0800)/",
				"hPrePMnth" : 0,
				"hResMnthLckd" : false,
				"hResMon" : 13,
				"hTaxT" : 0,
				"hdisbMonSched" : [2, 0, 0, 0, 0, 0, 0, 0, 12, 0, 0, 0, 0]
			}
		}, {
			"Key" : 5,
			"Value" : {
				"__type" : "SchoolTaxExpense:#DataAccess",
				"hAnnAmtCalcBaseT" : 0,
				"hAnnAmtCalcP" : 0.0,
				"hAnnAmtCalcT" : 0,
				"hCusLineNum" : 0,
				"hDisbList" : [],
				"hDisbRepI" : 0,
				"hEscClosing" : 1,
				"hExpDesc" : "School Taxes",
				"hExpT" : 5,
				"hIsPrep" : false,
				"hMnthAmtF" : 50.00,
				"hPaidTo" : 0,
				"hPolicyActD" : "/Date(-62135568000000-0800)/",
				"hPrePMnth" : 0,
				"hResMnthLckd" : false,
				"hResMon" : 11,
				"hTaxT" : 0,
				"hdisbMonSched" : [2, 0, 0, 0, 0, 0, 0, 0, 0, 0, 12, 0, 0]
			}
		}, {
			"Key" : 3,
			"Value" : {
				"__type" : "CustomExpense:#DataAccess",
				"hAnnAmtCalcBaseT" : 0,
				"hAnnAmtCalcP" : 0.0,
				"hAnnAmtCalcT" : 0,
				"hCusLineNum" : 0,
				"hDisbList" : [],
				"hDisbRepI" : 0,
				"hEscClosing" : 2,
				"hExpDesc" : "Condo HO-6 Insurance",
				"hExpT" : 3,
				"hIsPrep" : false,
				"hMnthAmtF" : 0,
				"hPaidTo" : 0,
				"hPolicyActD" : "/Date(-62135568000000-0800)/",
				"hPrePMnth" : 0,
				"hResMnthLckd" : false,
				"hResMon" : 0,
				"hTaxT" : 0,
				"hdisbMonSched" : [2, 0, 0, 0, 0, 0, 12, 0, 0, 0, 0, 0, 0]
			}
		}, {
			"Key" : 2,
			"Value" : {
				"__type" : "CustomExpense:#DataAccess",
				"hAnnAmtCalcBaseT" : 0,
				"hAnnAmtCalcP" : 0.0,
				"hAnnAmtCalcT" : 0,
				"hCusLineNum" : 0,
				"hDisbList" : [],
				"hDisbRepI" : 0,
				"hEscClosing" : 2,
				"hExpDesc" : "Windstorm Insurance",
				"hExpT" : 2,
				"hIsPrep" : false,
				"hMnthAmtF" : 0,
				"hPaidTo" : 0,
				"hPolicyActD" : "/Date(-62135568000000-0800)/",
				"hPrePMnth" : 0,
				"hResMnthLckd" : false,
				"hResMon" : 0,
				"hTaxT" : 0,
				"hdisbMonSched" : [2, 0, 0, 0, 0, 0, 12, 0, 0, 0, 0, 0, 0]
			}
		}, {
			"Key" : 6,
			"Value" : {
				"__type" : "CustomExpense:#DataAccess",
				"hAnnAmtCalcBaseT" : 0,
				"hAnnAmtCalcP" : 0.0,
				"hAnnAmtCalcT" : 0,
				"hCusLineNum" : 0,
				"hDisbList" : [],
				"hDisbRepI" : 0,
				"hEscClosing" : 2,
				"hExpDesc" : "Other Tax Expense 1",
				"hExpT" : 6,
				"hIsPrep" : false,
				"hMnthAmtF" : 0,
				"hPaidTo" : 0,
				"hPolicyActD" : "/Date(-62135568000000-0800)/",
				"hPrePMnth" : 0,
				"hResMnthLckd" : false,
				"hResMon" : 0,
				"hTaxT" : 0,
				"hdisbMonSched" : [2, 0, 0, 0, 0, 0, 12, 0, 0, 0, 0, 0, 0]
			}
		}, {
			"Key" : 7,
			"Value" : {
				"__type" : "CustomExpense:#DataAccess",
				"hAnnAmtCalcBaseT" : 0,
				"hAnnAmtCalcP" : 0.0,
				"hAnnAmtCalcT" : 0,
				"hCusLineNum" : 0,
				"hDisbList" : [],
				"hDisbRepI" : 0,
				"hEscClosing" : 2,
				"hExpDesc" : "Other Tax Expense 2",
				"hExpT" : 7,
				"hIsPrep" : false,
				"hMnthAmtF" : 0,
				"hPaidTo" : 0,
				"hPolicyActD" : "/Date(-62135568000000-0800)/",
				"hPrePMnth" : 0,
				"hResMnthLckd" : false,
				"hResMon" : 0,
				"hTaxT" : 0,
				"hdisbMonSched" : [2, 0, 0, 0, 0, 0, 12, 0, 0, 0, 0, 0, 0]
			}
		}, {
			"Key" : 8,
			"Value" : {
				"__type" : "CustomExpense:#DataAccess",
				"hAnnAmtCalcBaseT" : 0,
				"hAnnAmtCalcP" : 0.0,
				"hAnnAmtCalcT" : 0,
				"hCusLineNum" : 0,
				"hDisbList" : [],
				"hDisbRepI" : 0,
				"hEscClosing" : 2,
				"hExpDesc" : "Other Tax Expense 3",
				"hExpT" : 8,
				"hIsPrep" : false,
				"hMnthAmtF" : 0,
				"hPaidTo" : 0,
				"hPolicyActD" : "/Date(-62135568000000-0800)/",
				"hPrePMnth" : 0,
				"hResMnthLckd" : false,
				"hResMon" : 0,
				"hTaxT" : 0,
				"hdisbMonSched" : [2, 0, 0, 0, 0, 0, 12, 0, 0, 0, 0, 0, 0]
			}
		}, {
			"Key" : 9,
			"Value" : {
				"__type" : "CustomExpense:#DataAccess",
				"hAnnAmtCalcBaseT" : 0,
				"hAnnAmtCalcP" : 0.0,
				"hAnnAmtCalcT" : 0,
				"hCusLineNum" : 0,
				"hDisbList" : [],
				"hDisbRepI" : 0,
				"hEscClosing" : 2,
				"hExpDesc" : "Other Tax Expense 4",
				"hExpT" : 9,
				"hIsPrep" : false,
				"hMnthAmtF" : 0,
				"hPaidTo" : 0,
				"hPolicyActD" : "/Date(-62135568000000-0800)/",
				"hPrePMnth" : 0,
				"hResMnthLckd" : false,
				"hResMon" : 0,
				"hTaxT" : 0,
				"hdisbMonSched" : [2, 0, 0, 0, 0, 0, 12, 0, 0, 0, 0, 0, 0]
			}
		}, {
			"Key" : 10,
			"Value" : {
				"__type" : "HOADuesExpense:#DataAccess",
				"hAnnAmtCalcBaseT" : 0,
				"hAnnAmtCalcP" : 0.0,
				"hAnnAmtCalcT" : 0,
				"hCusLineNum" : 5,
				"hDisbList" : [],
				"hDisbRepI" : 1,
				"hEscClosing" : 1,
				"hExpDesc" : "Homeowner's Association Dues",
				"hExpT" : 10,
				"hIsPrep" : false,
				"hMnthAmtF" : 250.00,
				"hPaidTo" : 0,
				"hPolicyActD" : "/Date(-62135568000000-0800)/",
				"hPrePMnth" : 0,
				"hResMnthLckd" : false,
				"hResMon" : 1,
				"hTaxT" : 0,
				"hdisbMonSched" : [1, 1, 1, 1, 1, 1, 1, 1, 1, 1, 1, 1, 1]
			}
		}, {
			"Key" : 11,
			"Value" : {
				"__type" : "GroundRentExpense:#DataAccess",
				"hAnnAmtCalcBaseT" : 0,
				"hAnnAmtCalcP" : 0.0,
				"hAnnAmtCalcT" : 0,
				"hCusLineNum" : 0,
				"hDisbList" : [],
				"hDisbRepI" : 1,
				"hEscClosing" : 2,
				"hExpDesc" : "Ground Rent",
				"hExpT" : 11,
				"hIsPrep" : false,
				"hMnthAmtF" : 0,
				"hPaidTo" : 0,
				"hPolicyActD" : "/Date(-62135568000000-0800)/",
				"hPrePMnth" : 0,
				"hResMnthLckd" : false,
				"hResMon" : 0,
				"hTaxT" : 0,
				"hdisbMonSched" : [1, 1, 1, 1, 1, 1, 1, 1, 1, 1, 1, 1, 1],
				"grFHATot" : 0,
				"grVATot" : 0
			}
		}
	],
	"miRep" : 0,
	"miSched" : [1, 1, 1, 1, 1, 1, 1, 1, 1, 1, 1, 1, 1],
	"uHExp" : [{
			"Key" : 1,
			"Value" : {
				"__type" : "CustomExpense:#DataAccess",
				"hAnnAmtCalcBaseT" : 0,
				"hAnnAmtCalcP" : 0,
				"hAnnAmtCalcT" : 0,
				"hCusLineNum" : 1,
				"hDisbList" : [],
				"hDisbRepI" : 0,
				"hEscClosing" : 2,
				"hExpDesc" : "Line 1008 Housing Expense",
				"hExpT" : 13,
				"hIsPrep" : false,
				"hMnthAmtF" : 0,
				"hPaidTo" : 0,
				"hPolicyActD" : "/Date(-62135568000000-0800)/",
				"hPrePMnth" : 0,
				"hResMnthLckd" : false,
				"hResMon" : 0,
				"hTaxT" : 0,
				"hdisbMonSched" : [2, 0, 0, 0, 0, 0, 12, 0, 0, 0, 0, 0, 0]
			}
		}, {
			"Key" : 2,
			"Value" : {
				"__type" : "CustomExpense:#DataAccess",
				"hAnnAmtCalcBaseT" : 0,
				"hAnnAmtCalcP" : 0,
				"hAnnAmtCalcT" : 0,
				"hCusLineNum" : 2,
				"hDisbList" : [],
				"hDisbRepI" : 0,
				"hEscClosing" : 2,
				"hExpDesc" : "Line 1009 Housing Expense",
				"hExpT" : 13,
				"hIsPrep" : false,
				"hMnthAmtF" : 0,
				"hPaidTo" : 0,
				"hPolicyActD" : "/Date(-62135568000000-0800)/",
				"hPrePMnth" : 0,
				"hResMnthLckd" : false,
				"hResMon" : 0,
				"hTaxT" : 0,
				"hdisbMonSched" : [2, 0, 0, 0, 0, 0, 12, 0, 0, 0, 0, 0, 0]
			}
		}, {
			"Key" : 3,
			"Value" : {
				"__type" : "CustomExpense:#DataAccess",
				"hAnnAmtCalcBaseT" : 0,
				"hAnnAmtCalcP" : 0,
				"hAnnAmtCalcT" : 0,
				"hCusLineNum" : 3,
				"hDisbList" : [],
				"hDisbRepI" : 0,
				"hEscClosing" : 2,
				"hExpDesc" : "Line 1010 Housing Expense",
				"hExpT" : 13,
				"hIsPrep" : false,
				"hMnthAmtF" : 0,
				"hPaidTo" : 0,
				"hPolicyActD" : "/Date(-62135568000000-0800)/",
				"hPrePMnth" : 0,
				"hResMnthLckd" : false,
				"hResMon" : 0,
				"hTaxT" : 0,
				"hdisbMonSched" : [0, 0, 0, 0, 0, 0, 0, 0, 0, 0, 0, 0, 0]
			}
		}, {
			"Key" : 4,
			"Value" : {
				"__type" : "CustomExpense:#DataAccess",
				"hAnnAmtCalcBaseT" : 0,
				"hAnnAmtCalcP" : 0,
				"hAnnAmtCalcT" : 0,
				"hCusLineNum" : 4,
				"hDisbList" : [],
				"hDisbRepI" : 0,
				"hEscClosing" : 2,
				"hExpDesc" : "Line 1011 Housing Expense",
				"hExpT" : 13,
				"hIsPrep" : false,
				"hMnthAmtF" : 0,
				"hPaidTo" : 0,
				"hPolicyActD" : "/Date(-62135568000000-0800)/",
				"hPrePMnth" : 0,
				"hResMnthLckd" : false,
				"hResMon" : 0,
				"hTaxT" : 0,
				"hdisbMonSched" : [0, 0, 0, 0, 0, 0, 0, 0, 0, 0, 0, 0, 0]
			}
		}
	]
}
 