Policy Id,11112222-3333-4444-5555-666677778888,Policy Name,TestOldFileFormat
Rule Id,29468520-ae9465bb2-9465-bbb888435126,Rule Name,"LTV 90.01-95, SCORE >=720",0.000,0.75,0.000,0.000,0.000
Rule Id,82174928-ffeb-1948-aa33-2389438fadd3,Rule Name,"LTV 90.01-95, SCORE 680 - 719",0.000,1.125,0.000,0.000,0.000
Rule Id,6135873f-eeab-ccdd-1111-30948ddcf031,Rule Name,"LTV 90.01-95, SCORE 660 - 679",0.000,1.5,0.000,0.000,0.000