<?xml version="1.0" encoding="utf-8"?>
<!-- Generator: Adobe Illustrator 19.2.1, SVG Export Plug-In . SVG Version: 6.00 Build 0)  -->
<svg version="1.1" id="Layer_1" xmlns="http://www.w3.org/2000/svg" xmlns:xlink="http://www.w3.org/1999/xlink" x="0px" y="0px"
	 viewBox="0 0 102.25 24.91" style="enable-background:new 0 0 102.25 24.91;" xml:space="preserve">
<style type="text/css">
	.st0{fill:#FFFFFF;}
</style>
<g>
	<path id="XMLID_103_" class="st0" d="M1.12,9.75h8.86v2.13H3.57v3.76h6.05v2.06H3.57v5.78H1.12V9.75z"/>
	<path id="XMLID_101_" class="st0" d="M10.96,14.17h2.23v1.55h0.04c0.26-0.54,0.62-0.98,1.09-1.32c0.47-0.34,1.01-0.5,1.63-0.5
		c0.09,0,0.19,0,0.29,0.01c0.1,0.01,0.19,0.02,0.27,0.05v2.13c-0.16-0.04-0.29-0.06-0.4-0.08C16,16,15.89,15.99,15.79,15.99
		c-0.53,0-0.96,0.1-1.28,0.29c-0.32,0.19-0.58,0.43-0.76,0.7c-0.18,0.27-0.3,0.55-0.37,0.83c-0.06,0.28-0.1,0.51-0.1,0.68v4.98
		h-2.33V14.17z"/>
	<path id="XMLID_98_" class="st0" d="M26.03,18.94c0,0.1,0,0.21,0,0.31c0,0.1-0.01,0.21-0.02,0.31h-7.08
		c0.03,0.34,0.11,0.64,0.26,0.92c0.15,0.28,0.35,0.52,0.59,0.72c0.25,0.2,0.52,0.36,0.83,0.48s0.63,0.17,0.97,0.17
		c0.58,0,1.07-0.11,1.47-0.32c0.4-0.21,0.73-0.51,0.99-0.88l1.55,1.24c-0.92,1.24-2.25,1.86-4,1.86c-0.72,0-1.39-0.11-2-0.34
		c-0.61-0.23-1.13-0.55-1.58-0.96c-0.45-0.41-0.8-0.92-1.05-1.52c-0.25-0.6-0.38-1.28-0.38-2.05c0-0.75,0.13-1.43,0.38-2.05
		c0.25-0.61,0.6-1.14,1.04-1.57c0.44-0.43,0.96-0.77,1.56-1.01c0.6-0.24,1.25-0.36,1.95-0.36c0.65,0,1.24,0.11,1.79,0.32
		c0.55,0.21,1.02,0.53,1.43,0.95c0.4,0.42,0.71,0.94,0.94,1.57C25.91,17.37,26.03,18.1,26.03,18.94z M23.7,17.89
		c0-0.3-0.04-0.58-0.13-0.85s-0.22-0.51-0.4-0.72c-0.18-0.21-0.41-0.37-0.69-0.49c-0.28-0.12-0.6-0.18-0.98-0.18
		c-0.7,0-1.29,0.21-1.77,0.63c-0.48,0.42-0.75,0.96-0.8,1.62H23.7z"/>
	<path id="XMLID_95_" class="st0" d="M37.06,23.48h-2.21v-1.4h-0.04c-0.32,0.54-0.77,0.96-1.35,1.24c-0.58,0.28-1.19,0.43-1.85,0.43
		c-0.71,0-1.35-0.13-1.91-0.4c-0.56-0.26-1.04-0.62-1.44-1.07c-0.39-0.45-0.7-0.97-0.91-1.57c-0.21-0.6-0.32-1.24-0.32-1.93
		c0-0.69,0.11-1.33,0.33-1.92c0.22-0.59,0.53-1.11,0.93-1.55c0.4-0.44,0.88-0.79,1.44-1.04c0.56-0.25,1.16-0.38,1.82-0.38
		c0.43,0,0.81,0.05,1.14,0.15c0.34,0.1,0.63,0.22,0.88,0.36c0.25,0.14,0.47,0.3,0.65,0.47c0.18,0.17,0.33,0.33,0.45,0.48h0.06V9.79
		h2.33V23.48z M29.4,18.79c0,0.36,0.05,0.72,0.16,1.09c0.11,0.36,0.27,0.69,0.49,0.97c0.22,0.28,0.5,0.52,0.83,0.7
		c0.34,0.18,0.73,0.27,1.18,0.27c0.43,0,0.81-0.09,1.14-0.26c0.34-0.17,0.62-0.4,0.86-0.69c0.24-0.28,0.42-0.6,0.54-0.96
		c0.12-0.36,0.18-0.71,0.18-1.08c0-0.36-0.06-0.72-0.18-1.09c-0.12-0.36-0.3-0.69-0.54-0.97c-0.24-0.28-0.53-0.52-0.86-0.7
		c-0.34-0.18-0.72-0.27-1.14-0.27c-0.45,0-0.85,0.09-1.18,0.26c-0.34,0.17-0.61,0.4-0.83,0.69c-0.22,0.28-0.38,0.6-0.49,0.96
		C29.46,18.07,29.4,18.42,29.4,18.79z"/>
	<path id="XMLID_92_" class="st0" d="M48.2,23.48h-2.21v-1.4h-0.04c-0.32,0.54-0.77,0.96-1.35,1.24c-0.58,0.28-1.19,0.43-1.85,0.43
		c-0.71,0-1.35-0.13-1.91-0.4c-0.56-0.26-1.04-0.62-1.44-1.07c-0.39-0.45-0.7-0.97-0.91-1.57c-0.21-0.6-0.32-1.24-0.32-1.93
		c0-0.69,0.11-1.33,0.33-1.92c0.22-0.59,0.53-1.11,0.93-1.55c0.4-0.44,0.88-0.79,1.44-1.04c0.56-0.25,1.16-0.38,1.82-0.38
		c0.43,0,0.81,0.05,1.14,0.15c0.34,0.1,0.63,0.22,0.88,0.36c0.25,0.14,0.47,0.3,0.65,0.47c0.18,0.17,0.33,0.33,0.45,0.48h0.06V9.79
		h2.33V23.48z M40.53,18.79c0,0.36,0.05,0.72,0.16,1.09c0.11,0.36,0.27,0.69,0.49,0.97c0.22,0.28,0.5,0.52,0.83,0.7
		c0.34,0.18,0.73,0.27,1.18,0.27c0.43,0,0.81-0.09,1.14-0.26c0.34-0.17,0.62-0.4,0.86-0.69c0.24-0.28,0.42-0.6,0.54-0.96
		c0.12-0.36,0.18-0.71,0.18-1.08c0-0.36-0.06-0.72-0.18-1.09c-0.12-0.36-0.3-0.69-0.54-0.97c-0.24-0.28-0.53-0.52-0.86-0.7
		c-0.34-0.18-0.72-0.27-1.14-0.27c-0.45,0-0.85,0.09-1.18,0.26c-0.34,0.17-0.61,0.4-0.83,0.69c-0.22,0.28-0.38,0.6-0.49,0.96
		C40.59,18.07,40.53,18.42,40.53,18.79z"/>
	<path id="XMLID_89_" class="st0" d="M49.88,11.01c0-0.37,0.14-0.7,0.42-0.98c0.28-0.28,0.63-0.42,1.06-0.42s0.79,0.13,1.08,0.4
		c0.29,0.27,0.44,0.6,0.44,1c0,0.4-0.15,0.73-0.44,1c-0.29,0.27-0.65,0.4-1.08,0.4s-0.78-0.14-1.06-0.42
		C50.01,11.71,49.88,11.38,49.88,11.01z M50.2,14.17h2.33v9.31H50.2V14.17z"/>
	<path id="XMLID_86_" class="st0" d="M63.39,18.94c0,0.1,0,0.21,0,0.31c0,0.1-0.01,0.21-0.02,0.31h-7.08
		c0.03,0.34,0.11,0.64,0.26,0.92c0.15,0.28,0.35,0.52,0.59,0.72c0.25,0.2,0.52,0.36,0.83,0.48s0.63,0.17,0.97,0.17
		c0.58,0,1.07-0.11,1.47-0.32c0.4-0.21,0.73-0.51,0.99-0.88l1.55,1.24c-0.92,1.24-2.25,1.86-4,1.86c-0.72,0-1.39-0.11-2-0.34
		c-0.61-0.23-1.13-0.55-1.58-0.96c-0.45-0.41-0.8-0.92-1.05-1.52c-0.25-0.6-0.38-1.28-0.38-2.05c0-0.75,0.13-1.43,0.38-2.05
		c0.25-0.61,0.6-1.14,1.04-1.57c0.44-0.43,0.96-0.77,1.56-1.01c0.6-0.24,1.25-0.36,1.95-0.36c0.65,0,1.24,0.11,1.79,0.32
		c0.55,0.21,1.02,0.53,1.43,0.95c0.4,0.42,0.71,0.94,0.94,1.57C63.27,17.37,63.39,18.1,63.39,18.94z M61.06,17.89
		c0-0.3-0.04-0.58-0.13-0.85c-0.08-0.27-0.22-0.51-0.4-0.72c-0.18-0.21-0.41-0.37-0.69-0.49c-0.28-0.12-0.6-0.18-0.98-0.18
		c-0.7,0-1.29,0.21-1.77,0.63c-0.48,0.42-0.75,0.96-0.8,1.62H61.06z"/>
</g>
<g>
	<path id="XMLID_84_" class="st0" d="M66.53,9.75h3.82l3.57,9.76h0.06l3.53-9.76h3.84v13.73h-2.42V12.44h-0.04l-4.17,11.04h-1.71
		L68.9,12.44h-0.04v11.04h-2.33V9.75z"/>
	<path id="XMLID_81_" class="st0" d="M89.18,22.3h-0.06c-0.23,0.41-0.61,0.75-1.13,1.02c-0.52,0.26-1.11,0.4-1.76,0.4
		c-0.38,0-0.77-0.05-1.17-0.15c-0.41-0.1-0.78-0.26-1.12-0.48c-0.34-0.23-0.63-0.52-0.85-0.89c-0.23-0.37-0.34-0.82-0.34-1.37
		c0-0.7,0.2-1.25,0.59-1.67c0.39-0.41,0.9-0.73,1.52-0.95c0.62-0.22,1.31-0.37,2.07-0.44c0.76-0.07,1.5-0.11,2.22-0.11v-0.23
		c0-0.58-0.21-1.01-0.63-1.29c-0.42-0.28-0.92-0.42-1.5-0.42c-0.49,0-0.96,0.1-1.42,0.31c-0.45,0.21-0.83,0.46-1.12,0.76l-1.2-1.42
		c0.53-0.49,1.14-0.86,1.83-1.11c0.69-0.25,1.39-0.37,2.1-0.37c0.83,0,1.51,0.12,2.05,0.35c0.54,0.23,0.96,0.54,1.27,0.91
		c0.31,0.38,0.53,0.8,0.65,1.26c0.12,0.47,0.18,0.93,0.18,1.4v5.66h-2.17V22.3z M89.14,19.23h-0.52c-0.37,0-0.77,0.02-1.18,0.05
		c-0.41,0.03-0.8,0.1-1.14,0.21c-0.35,0.11-0.64,0.27-0.87,0.47c-0.23,0.2-0.35,0.48-0.35,0.82c0,0.22,0.05,0.4,0.15,0.55
		c0.1,0.15,0.22,0.27,0.38,0.36c0.16,0.09,0.33,0.16,0.52,0.19s0.39,0.06,0.58,0.06c0.8,0,1.41-0.21,1.82-0.64
		c0.41-0.43,0.62-1.01,0.62-1.75V19.23z"/>
	<path id="XMLID_79_" class="st0" d="M99.56,16.75c-0.18-0.26-0.45-0.48-0.81-0.65c-0.36-0.17-0.73-0.26-1.11-0.26
		c-0.43,0-0.8,0.09-1.13,0.26c-0.32,0.17-0.59,0.4-0.8,0.69c-0.21,0.28-0.37,0.6-0.48,0.96c-0.1,0.36-0.16,0.71-0.16,1.08
		c0,0.36,0.05,0.72,0.16,1.08c0.11,0.36,0.27,0.68,0.49,0.96c0.22,0.28,0.49,0.51,0.82,0.69c0.33,0.17,0.71,0.26,1.15,0.26
		c0.36,0,0.72-0.07,1.09-0.21c0.36-0.14,0.65-0.35,0.87-0.62l1.45,1.47c-0.39,0.41-0.88,0.73-1.48,0.96
		c-0.6,0.23-1.25,0.34-1.95,0.34c-0.69,0-1.33-0.11-1.95-0.33c-0.61-0.22-1.15-0.54-1.61-0.97c-0.46-0.43-0.82-0.94-1.09-1.55
		c-0.27-0.61-0.4-1.3-0.4-2.08c0-0.75,0.13-1.43,0.4-2.04c0.26-0.61,0.62-1.12,1.08-1.55c0.45-0.43,0.98-0.76,1.58-0.99
		c0.6-0.23,1.24-0.35,1.93-0.35c0.69,0,1.35,0.13,1.99,0.39c0.64,0.26,1.15,0.61,1.52,1.07L99.56,16.75z"/>
</g>
<g>
	<polygon class="st0" points="31.42,9.79 31.42,6.89 22.37,1 13.32,6.89 13.32,9.79 22.37,3.88 	"/>
	<polygon class="st0" points="28.94,4.53 28.94,1 26.46,1 26.46,2.91 	"/>
</g>
</svg>
