Product Name,NCONF30PI,
Program Id,test program id 0,
IO,0,0,
LOCK,0,15,
7.625,-1.048,0.000,7.625,0.000,
7.5,-0.781000000000006,0.000,7.5,0.000,
7.375,-0.534999999999997,0.000,7.375,0.000,
7.25,-0.277000000000001,0.000,7.25,0.000,
7.125,-0.0520000000000067,0.000,7.125,0.000,
7,0.188999999999993,0.000,7,0.000,
6.875,0.481999999999999,0.000,6.875,0.000,
6.75,0.763999999999996,0.000,6.75,0.000,
6.625,1.05,0.000,6.625,0.000,
6.5,1.29900000000001,0.000,6.5,0.000,
6.375,1.595,0.000,6.375,0.000,
6.25,1.95099999999999,0.000,6.25,0.000,
6.125,2.34099999999999,0.000,6.125,0.000,
6,2.71299999999999,0.000,6,0.000,
5.875,3.202,0.000,5.875,0.000,
5.75,3.8,0.000,5.75,0.000,
IO,0,0,
LOCK,16,30,
7.625,-0.923000000000002,0.000,7.625,0.000,
7.5,-0.656000000000006,0.000,7.5,0.000,
7.375,-0.409999999999997,0.000,7.375,0.000,
7.25,-0.152000000000001,0.000,7.25,0.000,
7.125,0.0729999999999933,0.000,7.125,0.000,
7,0.313999999999993,0.000,7,0.000,
6.875,0.606999999999999,0.000,6.875,0.000,
6.75,0.888999999999996,0.000,6.75,0.000,
6.625,1.175,0.000,6.625,0.000,
6.5,1.42400000000001,0.000,6.5,0.000,
6.375,1.72,0.000,6.375,0.000,
6.25,2.07599999999999,0.000,6.25,0.000,
6.125,2.46599999999999,0.000,6.125,0.000,
6,2.83799999999999,0.000,6,0.000,
5.875,3.327,0.000,5.875,0.000,
5.75,3.925,0.000,5.75,0.000,
IO,0,0,
LOCK,31,45,
7.625,-0.798000000000002,0.000,7.625,0.000,
7.5,-0.531000000000006,0.000,7.5,0.000,
7.375,-0.284999999999997,0.000,7.375,0.000,
7.25,-0.027000000000001,0.000,7.25,0.000,
7.125,0.197999999999993,0.000,7.125,0.000,
7,0.438999999999993,0.000,7,0.000,
6.875,0.731999999999999,0.000,6.875,0.000,
6.75,1.014,0.000,6.75,0.000,
6.625,1.3,0.000,6.625,0.000,
6.5,1.54900000000001,0.000,6.5,0.000,
6.375,1.845,0.000,6.375,0.000,
6.25,2.20099999999999,0.000,6.25,0.000,
6.125,2.59099999999999,0.000,6.125,0.000,
6,2.96299999999999,0.000,6,0.000,
5.875,3.452,0.000,5.875,0.000,
5.75,4.05,0.000,5.75,0.000,
IO,0,0,
LOCK,46,60,
7.625,-0.673000000000002,0.000,7.625,0.000,
7.5,-0.406000000000006,0.000,7.5,0.000,
7.375,-0.159999999999997,0.000,7.375,0.000,
7.25,0.097999999999999,0.000,7.25,0.000,
7.125,0.322999999999993,0.000,7.125,0.000,
7,0.563999999999993,0.000,7,0.000,
6.875,0.856999999999999,0.000,6.875,0.000,
6.75,1.139,0.000,6.75,0.000,
6.625,1.425,0.000,6.625,0.000,
6.5,1.67400000000001,0.000,6.5,0.000,
6.375,1.97,0.000,6.375,0.000,
6.25,2.32599999999999,0.000,6.25,0.000,
6.125,2.71599999999999,0.000,6.125,0.000,
6,3.08799999999999,0.000,6,0.000,
5.875,3.577,0.000,5.875,0.000,
5.75,4.175,0.000,5.75,0.000,
IO,0,0,
LOCK,61,75,
7.625,-0.548000000000002,0.000,7.625,0.000,
7.5,-0.281000000000006,0.000,7.5,0.000,
7.375,-0.0349999999999966,0.000,7.375,0.000,
7.25,0.222999999999999,0.000,7.25,0.000,
7.125,0.447999999999993,0.000,7.125,0.000,
7,0.688999999999993,0.000,7,0.000,
6.875,0.981999999999999,0.000,6.875,0.000,
6.75,1.264,0.000,6.75,0.000,
6.625,1.55,0.000,6.625,0.000,
6.5,1.79900000000001,0.000,6.5,0.000,
6.375,2.095,0.000,6.375,0.000,
6.25,2.45099999999999,0.000,6.25,0.000,
6.125,2.84099999999999,0.000,6.125,0.000,
6,3.21299999999999,0.000,6,0.000,
5.875,3.702,0.000,5.875,0.000,
5.75,4.3,0.000,5.75,0.000,
IO,1,120,
LOCK,0,15,
7.625,-0.548000000000002,0.000,7.625,0.000,
7.5,-0.281000000000006,0.000,7.5,0.000,
7.375,-0.0349999999999966,0.000,7.375,0.000,
7.25,0.222999999999999,0.000,7.25,0.000,
7.125,0.447999999999993,0.000,7.125,0.000,
7,0.688999999999993,0.000,7,0.000,
6.875,0.981999999999999,0.000,6.875,0.000,
6.75,1.264,0.000,6.75,0.000,
6.625,1.55,0.000,6.625,0.000,
6.5,1.79900000000001,0.000,6.5,0.000,
6.375,2.095,0.000,6.375,0.000,
6.25,2.45099999999999,0.000,6.25,0.000,
6.125,2.84099999999999,0.000,6.125,0.000,
6,3.21299999999999,0.000,6,0.000,
5.875,3.702,0.000,5.875,0.000,
5.75,4.3,0.000,5.75,0.000,
IO,1,120,
LOCK,16,30,
7.625,-0.423000000000002,0.000,7.625,0.000,
7.5,-0.156000000000006,0.000,7.5,0.000,
7.375,0.0900000000000034,0.000,7.375,0.000,
7.25,0.347999999999999,0.000,7.25,0.000,
7.125,0.572999999999993,0.000,7.125,0.000,
7,0.813999999999993,0.000,7,0.000,
6.875,1.107,0.000,6.875,0.000,
6.75,1.389,0.000,6.75,0.000,
6.625,1.675,0.000,6.625,0.000,
6.5,1.92400000000001,0.000,6.5,0.000,
6.375,2.22,0.000,6.375,0.000,
6.25,2.57599999999999,0.000,6.25,0.000,
6.125,2.96599999999999,0.000,6.125,0.000,
6,3.33799999999999,0.000,6,0.000,
5.875,3.827,0.000,5.875,0.000,
5.75,4.425,0.000,5.75,0.000,
IO,1,120,
LOCK,31,45,
7.625,-0.298000000000002,0.000,7.625,0.000,
7.5,-0.0310000000000059,0.000,7.5,0.000,
7.375,0.215000000000003,0.000,7.375,0.000,
7.25,0.472999999999999,0.000,7.25,0.000,
7.125,0.697999999999993,0.000,7.125,0.000,
7,0.938999999999993,0.000,7,0.000,
6.875,1.232,0.000,6.875,0.000,
6.75,1.514,0.000,6.75,0.000,
6.625,1.8,0.000,6.625,0.000,
6.5,2.04900000000001,0.000,6.5,0.000,
6.375,2.345,0.000,6.375,0.000,
6.25,2.70099999999999,0.000,6.25,0.000,
6.125,3.09099999999999,0.000,6.125,0.000,
6,3.46299999999999,0.000,6,0.000,
5.875,3.952,0.000,5.875,0.000,
5.75,4.55,0.000,5.75,0.000,
IO,1,120,
LOCK,46,60,
7.625,-0.173000000000002,0.000,7.625,0.000,
7.5,0.0939999999999941,0.000,7.5,0.000,
7.375,0.340000000000003,0.000,7.375,0.000,
7.25,0.597999999999999,0.000,7.25,0.000,
7.125,0.822999999999993,0.000,7.125,0.000,
7,1.06399999999999,0.000,7,0.000,
6.875,1.357,0.000,6.875,0.000,
6.75,1.639,0.000,6.75,0.000,
6.625,1.925,0.000,6.625,0.000,
6.5,2.17400000000001,0.000,6.5,0.000,
6.375,2.47,0.000,6.375,0.000,
6.25,2.82599999999999,0.000,6.25,0.000,
6.125,3.21599999999999,0.000,6.125,0.000,
6,3.58799999999999,0.000,6,0.000,
5.875,4.077,0.000,5.875,0.000,
5.75,4.675,0.000,5.75,0.000,
IO,1,120,
LOCK,61,75,
7.625,-0.0480000000000018,0.000,7.625,0.000,
7.5,0.218999999999994,0.000,7.5,0.000,
7.375,0.465000000000003,0.000,7.375,0.000,
7.25,0.722999999999999,0.000,7.25,0.000,
7.125,0.947999999999993,0.000,7.125,0.000,
7,1.18899999999999,0.000,7,0.000,
6.875,1.482,0.000,6.875,0.000,
6.75,1.764,0.000,6.75,0.000,
6.625,2.05,0.000,6.625,0.000,
6.5,2.29900000000001,0.000,6.5,0.000,
6.375,2.595,0.000,6.375,0.000,
6.25,2.95099999999999,0.000,6.25,0.000,
6.125,3.34099999999999,0.000,6.125,0.000,
6,3.71299999999999,0.000,6,0.000,
5.875,4.202,0.000,5.875,0.000,
5.75,4.8,0.000,5.75,0.000,
