<?xml version="1.0" encoding="utf-8"?>
<!-- Generator: Adobe Illustrator 18.1.1, SVG Export Plug-In . SVG Version: 6.00 Build 0)  -->
<svg version="1.1" id="Layer_1" xmlns="http://www.w3.org/2000/svg" xmlns:xlink="http://www.w3.org/1999/xlink" x="0px" y="0px"
	 viewBox="409.764 -1192.354 1083.108 1080.108" style="enable-background:new 409.764 -1192.354 1083.108 1080.108;"
	 xml:space="preserve">
<style type="text/css">
	.st0{fill:#FF0000;}
	.st1{fill:#FFFFFF;}
	.st2{fill:#F0AD4E;}
</style>
<circle class="st2" cx="952.205" cy="-649.704" r="536.398"/>
<g>
	<path class="st1" d="M992.766-964.272h-81.121c-13.289,0-24.163,10.873-24.163,24.163v378.091
		c0,13.289,10.873,24.163,24.163,24.163h81.121c13.289,0,24.163-10.873,24.163-24.163v-378.091
		C1016.928-953.399,1006.055-964.272,992.766-964.272z"/>
	<path class="st1" d="M954.342-460.517h-4.274c-33.892,0-61.622,27.73-61.622,61.622v4.274c0,33.892,27.73,61.622,61.622,61.622
		h4.274c33.892,0,61.622-27.73,61.622-61.622v-4.274C1015.964-432.787,988.234-460.517,954.342-460.517z"/>
</g>
</svg>
