<?xml version="1.0" encoding="utf-8"?>
<!-- Generator: Adobe Illustrator 14.0.0, SVG Export Plug-In . SVG Version: 6.00 Build 43363)  -->
<!DOCTYPE svg PUBLIC "-//W3C//DTD SVG 1.1//EN" "http://www.w3.org/Graphics/SVG/1.1/DTD/svg11.dtd">
<svg version="1.1" id="Layer_1" xmlns="http://www.w3.org/2000/svg" xmlns:xlink="http://www.w3.org/1999/xlink" x="0px" y="0px"
	 width="23px" height="23px" viewBox="0 0 23 23" enable-background="new 0 0 23 23" xml:space="preserve">
<g>
	<path fill="#3EAEDC" d="M11.5,0C5.159,0,0,5.159,0,11.5C0,17.843,5.159,23,11.5,23S23,17.843,23,11.5C22.999,5.159,17.841,0,11.5,0
		z M11.5,22.019c-5.8,0-10.519-4.719-10.519-10.52C0.981,5.699,5.7,0.98,11.5,0.98s10.519,4.719,10.519,10.519
		C22.019,17.3,17.3,22.019,11.5,22.019z"/>
	<path fill="#3EAEDC" d="M16.545,7.312c-0.036-0.043-0.078-0.079-0.136-0.115c-0.046-0.024-0.097-0.042-0.16-0.052l-0.021,0.131
		L16.214,7.14l-9.39-0.005l-0.076,0.01C6.626,7.163,6.518,7.228,6.45,7.313l-2.098,2.7c-0.015,0.019-0.024,0.037-0.034,0.057
		l-0.029,0.053c-0.01,0.022-0.016,0.045-0.025,0.085l-0.011,0.05c-0.002,0.021-0.002,0.043,0,0.083l0.003,0.054
		c0.004,0.021,0.01,0.041,0.022,0.078c0.004,0.017,0.012,0.042,0.009,0.024L4.3,10.533c0.008,0.017,0.019,0.031,0.041,0.063
		l6.794,7.836l0.007,0.007c0.036,0.038,0.079,0.069,0.132,0.098l0.042,0.021c0.063,0.024,0.125,0.038,0.183,0.038
		s0.119-0.014,0.183-0.039l0.041-0.02c0.06-0.029,0.106-0.065,0.146-0.11l6.743-7.771c0.038-0.04,0.066-0.08,0.09-0.125
		c0.081-0.167,0.061-0.37-0.054-0.517L16.545,7.312z M17.259,9.824h-1.529l0.559-1.251L17.259,9.824z M17.183,10.806l-3.892,4.484
		l2-4.484H17.183z M12.934,8.116h2.482l-0.637,1.428L12.934,8.116z M14.217,10.806l-2.718,6.094L8.78,10.806H14.217z M9.459,9.824
		l2.04-1.578l2.039,1.578H9.459z M7.706,10.806l2,4.484l-3.892-4.484H7.706z M7.58,8.116h2.483L8.217,9.544L7.58,8.116z
		 M7.268,9.824H5.741l0.97-1.249L7.268,9.824z M4.386,10.364L4.386,10.364L4.386,10.364L4.386,10.364z"/>
</g>
</svg>
