<?xml version="1.0" encoding="utf-8"?>
<!-- Generator: Adobe Illustrator 19.1.0, SVG Export Plug-In . SVG Version: 6.00 Build 0)  -->
<!DOCTYPE svg PUBLIC "-//W3C//DTD SVG 1.1//EN" "http://www.w3.org/Graphics/SVG/1.1/DTD/svg11.dtd">
<svg version="1.1" id="Layer_1" xmlns:sketch="http://www.bohemiancoding.com/sketch/ns"
	 xmlns="http://www.w3.org/2000/svg" xmlns:xlink="http://www.w3.org/1999/xlink" x="0px" y="0px"
	 viewBox="-282.6 234.7 229.6 132.2" style="enable-background:new -282.6 234.7 229.6 132.2;" xml:space="preserve">
<style type="text/css">
	.st0{fill:#F1A51E;}
	.st1{fill:#616D77;}
</style>
<title>LCVA</title>
<desc>Created with Sketch.</desc>
<g id="Page-1" sketch:type="MSPage">
	<g id="LCVA" sketch:type="MSLayerGroup">
		<g id="icons_x2F_ic-app-bi" transform="translate(74.000000, 0.000000)" sketch:type="MSShapeGroup">
			<path id="art" class="st0" d="M-230.5,257.8l-20.3-11.7c-0.3-0.2-0.6-0.2-0.9,0c-0.3,0.2-0.5,0.5-0.5,0.8v7.5l-5.9-3.4
				c-0.3-0.2-0.6-0.2-0.9,0c-0.3,0.2-0.5,0.5-0.5,0.8v7.5l-5.7-3.3c-0.3-0.2-0.6-0.2-0.9,0c-0.3,0.2-0.5,0.5-0.5,0.8v23.4
				c0,0.3,0.2,0.6,0.5,0.8l20.3,11.7c0.1,0.1,0.3,0.1,0.5,0.1c0.2,0,0.3,0,0.5-0.1c0.3-0.2,0.5-0.5,0.5-0.8v-7.5l5.7,3.3
				c0.1,0.1,0.3,0.1,0.5,0.1c0.2,0,0.3,0,0.5-0.1c0.3-0.2,0.5-0.5,0.5-0.8v-7.5l5.9,3.4c0.1,0.1,0.3,0.1,0.5,0.1
				c0.2,0,0.3,0,0.5-0.1c0.3-0.2,0.5-0.5,0.5-0.8v-23.4C-230,258.2-230.2,257.9-230.5,257.8L-230.5,257.8z M-246.3,290.3l-18.4-10.6
				v-21.3l18.4,10.6V290.3L-246.3,290.3z M-239.2,285.3l-5.3-3v-13.8c0-0.3-0.2-0.6-0.5-0.8l-12.7-7.3v-7l18.4,10.6V285.3
				L-239.2,285.3z M-231.9,280.4l-5.5-3.2v-13.8c0-0.3-0.2-0.6-0.5-0.8l-12.5-7.2v-7l18.4,10.6V280.4L-231.9,280.4z"/>
			<path id="circle" class="st0" d="M-247.9,234.7c-19.1,0-34.5,15.4-34.5,34.5c0,19.1,15.4,34.5,34.5,34.5
				c19.1,0,34.5-15.4,34.5-34.5C-213.4,250.2-228.8,234.7-247.9,234.7L-247.9,234.7z M-247.9,301.8c-18,0-32.6-14.6-32.6-32.6
				c0-18,14.6-32.6,32.6-32.6c18,0,32.6,14.6,32.6,32.6C-215.3,287.2-229.9,301.8-247.9,301.8L-247.9,301.8z"/>
		</g>
		<path id="Loan-Coverage-Adviso" sketch:type="MSShapeGroup" class="st1" d="M-282.6,319.3V335h10.3v-1.3h-8.8v-14.4H-282.6z
			 M-266.2,324.5c0.7,0,1.2,0.1,1.7,0.4c0.5,0.3,0.9,0.6,1.2,1.1c0.3,0.5,0.6,1,0.7,1.6c0.2,0.6,0.3,1.2,0.3,1.8s-0.1,1.2-0.3,1.8
			c-0.2,0.6-0.4,1.1-0.7,1.6c-0.3,0.5-0.7,0.8-1.2,1.1c-0.5,0.3-1.1,0.4-1.7,0.4s-1.2-0.1-1.7-0.4s-0.9-0.6-1.2-1.1
			c-0.3-0.5-0.6-1-0.7-1.6s-0.3-1.2-0.3-1.8s0.1-1.2,0.3-1.8s0.4-1.1,0.7-1.6c0.3-0.5,0.7-0.8,1.2-1.1
			C-267.5,324.6-266.9,324.5-266.2,324.5L-266.2,324.5z M-266.2,323.3c-0.9,0-1.6,0.2-2.3,0.5s-1.2,0.8-1.7,1.3
			c-0.5,0.5-0.8,1.2-1,1.9c-0.2,0.7-0.4,1.5-0.4,2.3s0.1,1.6,0.4,2.3c0.2,0.7,0.6,1.4,1,1.9c0.5,0.5,1,1,1.7,1.3
			c0.7,0.3,1.4,0.5,2.3,0.5c0.9,0,1.6-0.2,2.3-0.5c0.7-0.3,1.2-0.7,1.7-1.3c0.5-0.5,0.8-1.2,1-1.9c0.2-0.7,0.4-1.5,0.4-2.3
			s-0.1-1.6-0.4-2.3c-0.2-0.7-0.6-1.4-1-1.9c-0.5-0.5-1-1-1.7-1.3C-264.6,323.5-265.4,323.3-266.2,323.3L-266.2,323.3z
			 M-258.9,327.1h1.4c0-0.9,0.3-1.6,0.9-2c0.6-0.4,1.3-0.6,2.2-0.6c0.4,0,0.8,0,1.2,0.1c0.4,0.1,0.7,0.2,0.9,0.4
			c0.3,0.2,0.5,0.4,0.6,0.7c0.2,0.3,0.2,0.7,0.2,1.2c0,0.3,0,0.6-0.1,0.7c-0.1,0.2-0.2,0.3-0.3,0.5c-0.1,0.1-0.3,0.2-0.6,0.2
			s-0.5,0.1-0.8,0.1c-0.7,0.1-1.5,0.2-2.2,0.3c-0.7,0.1-1.4,0.3-2,0.5c-0.6,0.2-1,0.6-1.4,1c-0.4,0.4-0.5,1.1-0.5,1.9
			c0,0.6,0.1,1.1,0.3,1.5c0.2,0.4,0.5,0.8,0.8,1s0.7,0.5,1.2,0.6s1,0.2,1.5,0.2c0.6,0,1-0.1,1.4-0.2c0.4-0.1,0.8-0.2,1.1-0.4
			c0.3-0.2,0.6-0.4,0.9-0.7c0.3-0.3,0.5-0.6,0.8-1h0c0,0.3,0,0.6,0.1,0.8s0.1,0.5,0.2,0.6c0.1,0.2,0.3,0.3,0.5,0.4s0.5,0.1,0.8,0.1
			c0.2,0,0.3,0,0.5,0c0.1,0,0.3,0,0.4-0.1v-1.2c-0.1,0.1-0.3,0.1-0.4,0.1c-0.5,0-0.8-0.3-0.8-0.8v-6c0-0.8-0.1-1.4-0.4-1.9
			c-0.2-0.5-0.6-0.8-1-1.1s-0.8-0.4-1.3-0.5s-1-0.1-1.5-0.1c-0.7,0-1.3,0.1-1.8,0.2s-1,0.4-1.4,0.7c-0.4,0.3-0.7,0.7-1,1.2
			C-258.7,325.9-258.9,326.5-258.9,327.1L-258.9,327.1z M-251.5,328.8v1.8c0,0.6-0.1,1.1-0.3,1.5c-0.2,0.4-0.5,0.8-0.9,1.1
			c-0.4,0.3-0.8,0.5-1.3,0.7c-0.5,0.2-1,0.2-1.5,0.2c-0.3,0-0.6-0.1-0.9-0.2c-0.3-0.1-0.6-0.3-0.8-0.5c-0.2-0.2-0.4-0.4-0.6-0.7
			c-0.1-0.3-0.2-0.6-0.2-0.9c0-0.6,0.2-1,0.5-1.3c0.3-0.3,0.8-0.5,1.3-0.7c0.5-0.2,1.1-0.3,1.7-0.4c0.6-0.1,1.2-0.2,1.8-0.3
			c0.2,0,0.4-0.1,0.7-0.2C-251.8,329.1-251.7,329-251.5,328.8L-251.5,328.8z M-247.4,323.6V335h1.4v-6.6c0-0.6,0.1-1.1,0.3-1.6
			c0.2-0.5,0.4-0.9,0.7-1.2s0.7-0.6,1.1-0.8c0.4-0.2,0.9-0.3,1.5-0.3c0.6,0,1,0.1,1.4,0.3c0.4,0.2,0.7,0.4,0.9,0.7
			c0.2,0.3,0.4,0.7,0.5,1.1c0.1,0.4,0.1,0.9,0.1,1.4v7.1h1.4v-7.3c0-0.7-0.1-1.3-0.2-1.8s-0.4-1-0.7-1.4c-0.3-0.4-0.8-0.7-1.3-0.9
			c-0.5-0.2-1.2-0.3-2-0.3c-0.8,0-1.5,0.2-2.2,0.6c-0.7,0.4-1.1,1-1.4,1.7h0v-2H-247.4z M-217.7,324h1.5c-0.1-0.8-0.3-1.5-0.7-2.2
			c-0.4-0.6-0.9-1.2-1.5-1.6c-0.6-0.4-1.2-0.8-1.9-1c-0.7-0.2-1.4-0.3-2.2-0.3c-1.2,0-2.3,0.2-3.2,0.7c-0.9,0.4-1.7,1-2.3,1.8
			c-0.6,0.8-1.1,1.6-1.4,2.6s-0.5,2-0.5,3.1c0,1.1,0.2,2.1,0.5,3.1c0.3,1,0.8,1.8,1.4,2.6c0.6,0.7,1.4,1.3,2.3,1.8
			c0.9,0.4,2,0.7,3.2,0.7c0.9,0,1.8-0.1,2.5-0.4s1.4-0.7,2-1.3c0.6-0.5,1-1.2,1.4-2s0.6-1.6,0.7-2.6h-1.5c-0.1,0.7-0.2,1.4-0.5,2
			c-0.3,0.6-0.6,1.1-1,1.6c-0.4,0.5-0.9,0.8-1.5,1.1c-0.6,0.3-1.2,0.4-2,0.4c-1,0-1.9-0.2-2.7-0.6c-0.7-0.4-1.4-0.9-1.8-1.6
			c-0.5-0.7-0.8-1.4-1.1-2.2c-0.2-0.8-0.3-1.7-0.3-2.5c0-0.9,0.1-1.7,0.3-2.5c0.2-0.8,0.6-1.6,1.1-2.2s1.1-1.2,1.8-1.6
			c0.7-0.4,1.6-0.6,2.7-0.6c0.6,0,1.1,0.1,1.6,0.3c0.5,0.2,1,0.4,1.4,0.7s0.8,0.7,1.1,1.2C-218,322.9-217.8,323.4-217.7,324
			L-217.7,324z M-209.2,324.5c0.7,0,1.2,0.1,1.7,0.4c0.5,0.3,0.9,0.6,1.2,1.1c0.3,0.5,0.6,1,0.7,1.6c0.2,0.6,0.3,1.2,0.3,1.8
			s-0.1,1.2-0.3,1.8c-0.2,0.6-0.4,1.1-0.7,1.6c-0.3,0.5-0.7,0.8-1.2,1.1c-0.5,0.3-1.1,0.4-1.7,0.4s-1.2-0.1-1.7-0.4
			c-0.5-0.3-0.9-0.6-1.2-1.1c-0.3-0.5-0.6-1-0.7-1.6s-0.3-1.2-0.3-1.8s0.1-1.2,0.3-1.8s0.4-1.1,0.7-1.6c0.3-0.5,0.7-0.8,1.2-1.1
			C-210.4,324.6-209.8,324.5-209.2,324.5L-209.2,324.5z M-209.2,323.3c-0.9,0-1.6,0.2-2.3,0.5c-0.7,0.3-1.2,0.8-1.7,1.3
			c-0.5,0.5-0.8,1.2-1,1.9c-0.2,0.7-0.4,1.5-0.4,2.3s0.1,1.6,0.4,2.3c0.2,0.7,0.6,1.4,1,1.9c0.5,0.5,1,1,1.7,1.3
			c0.7,0.3,1.4,0.5,2.3,0.5s1.6-0.2,2.3-0.5c0.7-0.3,1.2-0.7,1.7-1.3s0.8-1.2,1-1.9c0.2-0.7,0.4-1.5,0.4-2.3s-0.1-1.6-0.4-2.3
			c-0.2-0.7-0.6-1.4-1-1.9s-1-1-1.7-1.3C-207.5,323.5-208.3,323.3-209.2,323.3L-209.2,323.3z M-203,323.6l4.4,11.4h1.5l4.2-11.4
			h-1.4l-3.5,10h0l-3.6-10H-203z M-183.4,328.5h-7.3c0.1-0.5,0.2-1,0.4-1.5s0.4-0.9,0.7-1.3c0.3-0.4,0.7-0.7,1.1-0.9
			c0.4-0.2,0.9-0.3,1.5-0.3c0.6,0,1.1,0.1,1.5,0.3c0.4,0.2,0.8,0.5,1.1,0.9c0.3,0.4,0.5,0.8,0.7,1.3S-183.4,328-183.4,328.5
			L-183.4,328.5z M-190.7,329.7h8.7c0-0.8,0-1.6-0.2-2.3c-0.2-0.8-0.5-1.5-0.9-2c-0.4-0.6-0.9-1.1-1.6-1.4s-1.4-0.6-2.3-0.6
			c-0.9,0-1.7,0.2-2.3,0.5c-0.7,0.3-1.2,0.8-1.6,1.4c-0.4,0.6-0.7,1.2-0.9,1.9c-0.2,0.7-0.3,1.5-0.3,2.2c0,0.8,0.1,1.6,0.3,2.3
			c0.2,0.7,0.5,1.4,0.9,1.9c0.4,0.5,0.9,1,1.6,1.3c0.7,0.3,1.4,0.5,2.3,0.5c1.4,0,2.5-0.4,3.3-1.1c0.8-0.7,1.3-1.7,1.6-3h-1.4
			c-0.2,0.9-0.6,1.6-1.2,2.1c-0.6,0.5-1.4,0.8-2.4,0.8c-0.7,0-1.2-0.1-1.7-0.4c-0.5-0.3-0.9-0.6-1.2-1.1s-0.5-0.9-0.7-1.4
			C-190.7,330.7-190.7,330.2-190.7,329.7L-190.7,329.7z M-180.1,323.6V335h1.4v-6c0-0.6,0.1-1.2,0.3-1.7c0.2-0.5,0.5-0.9,0.9-1.3
			c0.4-0.4,0.8-0.6,1.3-0.8s1.1-0.3,1.7-0.3v-1.4c-1,0-1.9,0.2-2.7,0.7c-0.7,0.5-1.3,1.2-1.6,2.1h0v-2.7H-180.1z M-173.3,327.1h1.4
			c0-0.9,0.3-1.6,0.9-2c0.6-0.4,1.3-0.6,2.2-0.6c0.4,0,0.8,0,1.2,0.1c0.4,0.1,0.7,0.2,0.9,0.4c0.3,0.2,0.5,0.4,0.6,0.7
			c0.2,0.3,0.2,0.7,0.2,1.2c0,0.3,0,0.6-0.1,0.7c-0.1,0.2-0.2,0.3-0.3,0.5c-0.1,0.1-0.3,0.2-0.6,0.2s-0.5,0.1-0.8,0.1
			c-0.7,0.1-1.5,0.2-2.2,0.3s-1.4,0.3-2,0.5c-0.6,0.2-1,0.6-1.4,1c-0.4,0.4-0.5,1.1-0.5,1.9c0,0.6,0.1,1.1,0.3,1.5s0.5,0.8,0.8,1
			s0.7,0.5,1.2,0.6c0.5,0.1,1,0.2,1.5,0.2c0.6,0,1-0.1,1.4-0.2c0.4-0.1,0.8-0.2,1.1-0.4c0.3-0.2,0.6-0.4,0.9-0.7
			c0.3-0.3,0.5-0.6,0.8-1h0c0,0.3,0,0.6,0.1,0.8s0.1,0.5,0.2,0.6c0.1,0.2,0.3,0.3,0.5,0.4c0.2,0.1,0.5,0.1,0.8,0.1
			c0.2,0,0.3,0,0.5,0c0.1,0,0.3,0,0.4-0.1v-1.2c-0.1,0.1-0.3,0.1-0.4,0.1c-0.5,0-0.8-0.3-0.8-0.8v-6c0-0.8-0.1-1.4-0.4-1.9
			c-0.2-0.5-0.6-0.8-1-1.1c-0.4-0.3-0.8-0.4-1.3-0.5c-0.5-0.1-1-0.1-1.5-0.1c-0.7,0-1.3,0.1-1.8,0.2c-0.5,0.1-1,0.4-1.4,0.7
			s-0.7,0.7-1,1.2C-173.1,325.9-173.3,326.5-173.3,327.1L-173.3,327.1z M-165.9,328.8v1.8c0,0.6-0.1,1.1-0.3,1.5
			c-0.2,0.4-0.5,0.8-0.9,1.1c-0.4,0.3-0.8,0.5-1.3,0.7c-0.5,0.2-1,0.2-1.5,0.2c-0.3,0-0.6-0.1-0.9-0.2c-0.3-0.1-0.6-0.3-0.8-0.5
			c-0.2-0.2-0.4-0.4-0.6-0.7c-0.1-0.3-0.2-0.6-0.2-0.9c0-0.6,0.2-1,0.5-1.3c0.3-0.3,0.8-0.5,1.3-0.7s1.1-0.3,1.7-0.4
			c0.6-0.1,1.2-0.2,1.8-0.3c0.2,0,0.4-0.1,0.7-0.2C-166.2,329.1-166.1,329-165.9,328.8L-165.9,328.8z M-152.2,334.1v-10.4h-1.4v2h0
			c-0.1-0.3-0.3-0.6-0.6-0.9c-0.2-0.3-0.5-0.5-0.8-0.7c-0.3-0.2-0.6-0.4-1-0.5c-0.4-0.1-0.8-0.2-1.2-0.2c-0.8,0-1.6,0.2-2.2,0.5
			c-0.6,0.3-1.2,0.7-1.6,1.2c-0.4,0.5-0.8,1.1-1,1.8c-0.2,0.7-0.3,1.4-0.3,2.2c0,0.8,0.1,1.6,0.3,2.3c0.2,0.7,0.5,1.3,0.9,1.9
			c0.4,0.5,0.9,0.9,1.6,1.2c0.6,0.3,1.4,0.5,2.3,0.5c0.8,0,1.6-0.2,2.2-0.6c0.6-0.4,1.1-1,1.4-1.7h0v1.5c0,1.4-0.3,2.4-0.9,3.2
			c-0.6,0.7-1.5,1.1-2.8,1.1c-0.4,0-0.8,0-1.1-0.1c-0.4-0.1-0.7-0.2-1-0.4c-0.3-0.2-0.6-0.4-0.8-0.7c-0.2-0.3-0.4-0.6-0.4-1.1h-1.4
			c0,0.6,0.2,1.1,0.5,1.6c0.3,0.4,0.6,0.8,1.1,1.1c0.4,0.3,0.9,0.5,1.5,0.6c0.5,0.1,1.1,0.2,1.7,0.2c0.9,0,1.7-0.1,2.3-0.4
			c0.6-0.2,1.2-0.6,1.6-1.1c0.4-0.5,0.7-1,0.9-1.7C-152.3,335.7-152.2,334.9-152.2,334.1L-152.2,334.1z M-157.2,333.7
			c-0.6,0-1.2-0.1-1.7-0.4c-0.5-0.3-0.9-0.6-1.2-1c-0.3-0.4-0.5-0.9-0.7-1.4c-0.1-0.5-0.2-1.1-0.2-1.7c0-0.6,0.1-1.2,0.2-1.7
			c0.1-0.6,0.4-1.1,0.7-1.5s0.7-0.8,1.2-1.1c0.5-0.3,1-0.4,1.7-0.4s1.2,0.1,1.7,0.4c0.5,0.3,0.8,0.6,1.1,1.1c0.3,0.5,0.5,1,0.6,1.5
			c0.1,0.6,0.2,1.1,0.2,1.7c0,0.6-0.1,1.1-0.2,1.7c-0.2,0.5-0.4,1-0.7,1.4c-0.3,0.4-0.7,0.8-1.1,1
			C-156.1,333.6-156.6,333.7-157.2,333.7L-157.2,333.7z M-141.4,328.5h-7.3c0.1-0.5,0.2-1,0.4-1.5s0.4-0.9,0.7-1.3
			c0.3-0.4,0.7-0.7,1.1-0.9c0.4-0.2,0.9-0.3,1.5-0.3c0.6,0,1.1,0.1,1.5,0.3c0.4,0.2,0.8,0.5,1.1,0.9c0.3,0.4,0.5,0.8,0.7,1.3
			S-141.4,328-141.4,328.5L-141.4,328.5z M-148.7,329.7h8.7c0-0.8,0-1.6-0.2-2.3c-0.2-0.8-0.5-1.5-0.9-2c-0.4-0.6-0.9-1.1-1.6-1.4
			c-0.6-0.4-1.4-0.6-2.3-0.6c-0.9,0-1.7,0.2-2.3,0.5c-0.7,0.3-1.2,0.8-1.6,1.4c-0.4,0.6-0.7,1.2-0.9,1.9c-0.2,0.7-0.3,1.5-0.3,2.2
			c0,0.8,0.1,1.6,0.3,2.3c0.2,0.7,0.5,1.4,0.9,1.9c0.4,0.5,0.9,1,1.6,1.3c0.7,0.3,1.4,0.5,2.3,0.5c1.4,0,2.5-0.4,3.3-1.1
			c0.8-0.7,1.3-1.7,1.6-3h-1.4c-0.2,0.9-0.6,1.6-1.2,2.1c-0.6,0.5-1.4,0.8-2.4,0.8c-0.7,0-1.2-0.1-1.7-0.4c-0.5-0.3-0.9-0.6-1.2-1.1
			c-0.3-0.4-0.5-0.9-0.7-1.4C-148.7,330.7-148.7,330.2-148.7,329.7L-148.7,329.7z M-129.5,328.8l3.1-8.1l3,8.1H-129.5z
			 M-127.1,319.3l-6.3,15.7h1.6l1.9-4.9h7.1l1.9,4.9h1.6l-6.2-15.7H-127.1z M-108.2,335v-15.7h-1.4v6.5h0c-0.1-0.4-0.4-0.8-0.6-1.1
			c-0.3-0.3-0.6-0.6-0.9-0.8c-0.4-0.2-0.7-0.4-1.1-0.5c-0.4-0.1-0.8-0.2-1.2-0.2c-0.9,0-1.6,0.2-2.3,0.5s-1.2,0.8-1.6,1.3
			c-0.4,0.6-0.7,1.2-0.9,1.9c-0.2,0.7-0.3,1.5-0.3,2.3s0.1,1.6,0.3,2.3c0.2,0.7,0.5,1.4,0.9,1.9c0.4,0.5,1,1,1.6,1.3
			c0.6,0.3,1.4,0.5,2.3,0.5c0.4,0,0.8-0.1,1.2-0.2c0.4-0.1,0.8-0.3,1.2-0.5c0.4-0.2,0.7-0.5,1-0.8c0.3-0.3,0.5-0.6,0.6-1h0v2.2
			H-108.2z M-117.2,329.3c0-0.6,0.1-1.2,0.2-1.7c0.1-0.6,0.4-1.1,0.7-1.6c0.3-0.5,0.7-0.8,1.2-1.1c0.5-0.3,1-0.4,1.7-0.4
			c0.7,0,1.4,0.1,1.9,0.4c0.5,0.3,0.9,0.7,1.2,1.1c0.3,0.5,0.5,1,0.7,1.6c0.1,0.6,0.2,1.2,0.2,1.7s-0.1,1.2-0.2,1.7
			c-0.1,0.6-0.4,1.1-0.7,1.6c-0.3,0.5-0.7,0.8-1.2,1.1c-0.5,0.3-1.1,0.4-1.9,0.4c-0.7,0-1.2-0.1-1.7-0.4c-0.5-0.3-0.9-0.7-1.2-1.1
			c-0.3-0.5-0.5-1-0.7-1.6C-117.2,330.5-117.2,329.9-117.2,329.3L-117.2,329.3z M-106.8,323.6l4.4,11.4h1.5l4.2-11.4h-1.4l-3.5,10h0
			l-3.6-10H-106.8z M-95.3,319.3v2.2h1.4v-2.2H-95.3z M-95.3,323.6V335h1.4v-11.4H-95.3z M-84.5,327h1.4c0-0.6-0.2-1.2-0.4-1.6
			c-0.2-0.5-0.5-0.8-0.9-1.1s-0.8-0.5-1.3-0.7c-0.5-0.1-1-0.2-1.6-0.2c-0.5,0-1,0.1-1.5,0.2c-0.5,0.1-1,0.3-1.4,0.5
			c-0.4,0.2-0.7,0.6-1,1s-0.4,0.9-0.4,1.5c0,0.5,0.1,0.9,0.2,1.2c0.2,0.3,0.4,0.6,0.7,0.8c0.3,0.2,0.6,0.4,1,0.6
			c0.4,0.2,0.8,0.3,1.3,0.4l1.8,0.4c0.3,0.1,0.6,0.2,0.9,0.3c0.3,0.1,0.6,0.2,0.8,0.4c0.2,0.2,0.4,0.3,0.6,0.6
			c0.1,0.2,0.2,0.5,0.2,0.8c0,0.4-0.1,0.7-0.3,1s-0.5,0.5-0.8,0.7c-0.3,0.2-0.6,0.3-1,0.4s-0.7,0.1-1,0.1c-0.9,0-1.7-0.2-2.3-0.7
			c-0.6-0.5-1-1.2-1-2.1h-1.4c0.1,1.4,0.6,2.4,1.4,3s1.9,0.9,3.2,0.9c0.5,0,1.1-0.1,1.6-0.2c0.5-0.1,1-0.3,1.5-0.6
			c0.4-0.3,0.8-0.6,1.1-1.1c0.3-0.4,0.4-1,0.4-1.6c0-0.5-0.1-0.9-0.3-1.3s-0.4-0.7-0.7-0.9s-0.6-0.5-1-0.6c-0.4-0.2-0.8-0.3-1.2-0.3
			l-1.8-0.4c-0.2-0.1-0.5-0.1-0.8-0.2c-0.3-0.1-0.5-0.2-0.8-0.4s-0.4-0.3-0.6-0.5c-0.2-0.2-0.2-0.5-0.2-0.8c0-0.4,0.1-0.7,0.2-0.9
			c0.2-0.2,0.4-0.5,0.6-0.6c0.3-0.2,0.6-0.3,0.9-0.3s0.6-0.1,0.9-0.1c0.4,0,0.8,0,1.1,0.1c0.4,0.1,0.7,0.2,0.9,0.5s0.5,0.5,0.6,0.8
			S-84.5,326.5-84.5,327L-84.5,327z M-75.9,324.5c0.7,0,1.2,0.1,1.7,0.4c0.5,0.3,0.9,0.6,1.2,1.1c0.3,0.5,0.6,1,0.7,1.6
			s0.3,1.2,0.3,1.8s-0.1,1.2-0.3,1.8s-0.4,1.1-0.7,1.6c-0.3,0.5-0.7,0.8-1.2,1.1c-0.5,0.3-1.1,0.4-1.7,0.4s-1.2-0.1-1.7-0.4
			c-0.5-0.3-0.9-0.6-1.2-1.1c-0.3-0.5-0.6-1-0.7-1.6c-0.2-0.6-0.3-1.2-0.3-1.8s0.1-1.2,0.3-1.8c0.2-0.6,0.4-1.1,0.7-1.6
			c0.3-0.5,0.7-0.8,1.2-1.1C-77.1,324.6-76.5,324.5-75.9,324.5L-75.9,324.5z M-75.9,323.3c-0.9,0-1.6,0.2-2.3,0.5
			c-0.7,0.3-1.2,0.8-1.7,1.3s-0.8,1.2-1,1.9c-0.2,0.7-0.4,1.5-0.4,2.3s0.1,1.6,0.4,2.3c0.2,0.7,0.6,1.4,1,1.9s1,1,1.7,1.3
			c0.7,0.3,1.4,0.5,2.3,0.5s1.6-0.2,2.3-0.5c0.7-0.3,1.2-0.7,1.7-1.3c0.5-0.5,0.8-1.2,1-1.9c0.2-0.7,0.4-1.5,0.4-2.3
			s-0.1-1.6-0.4-2.3c-0.2-0.7-0.6-1.4-1-1.9c-0.5-0.5-1-1-1.7-1.3C-74.3,323.5-75,323.3-75.9,323.3L-75.9,323.3z M-68.4,323.6V335
			h1.4v-6c0-0.6,0.1-1.2,0.3-1.7s0.5-0.9,0.9-1.3c0.4-0.4,0.8-0.6,1.3-0.8s1.1-0.3,1.7-0.3v-1.4c-1,0-1.9,0.2-2.7,0.7
			c-0.7,0.5-1.3,1.2-1.6,2.1h0v-2.7H-68.4z"/>
		<path id="Complete-Loan-Manage" sketch:type="MSShapeGroup" class="st1" d="M-259.4,357.2c-0.1-0.3-0.2-0.6-0.3-0.8
			s-0.3-0.5-0.5-0.6s-0.4-0.3-0.7-0.4s-0.6-0.1-1-0.1c-0.5,0-1,0.1-1.4,0.3c-0.4,0.2-0.7,0.5-0.9,0.9c-0.2,0.4-0.4,0.8-0.5,1.2
			s-0.2,0.9-0.2,1.4c0,0.5,0.1,0.9,0.2,1.4s0.3,0.9,0.5,1.2c0.2,0.4,0.6,0.6,0.9,0.9c0.4,0.2,0.8,0.3,1.4,0.3c0.4,0,0.7-0.1,1-0.2
			c0.3-0.1,0.6-0.3,0.8-0.6c0.2-0.2,0.4-0.5,0.5-0.8c0.1-0.3,0.2-0.7,0.2-1h1.7c0,0.6-0.2,1.1-0.4,1.6c-0.2,0.5-0.5,0.9-0.9,1.3
			c-0.4,0.4-0.8,0.6-1.3,0.8c-0.5,0.2-1.1,0.3-1.7,0.3c-0.7,0-1.4-0.1-2-0.4c-0.6-0.3-1.1-0.7-1.5-1.1c-0.4-0.5-0.7-1-0.9-1.7
			s-0.3-1.3-0.3-2c0-0.7,0.1-1.4,0.3-2c0.2-0.6,0.5-1.2,0.9-1.7s0.9-0.9,1.5-1.1c0.6-0.3,1.3-0.4,2-0.4c0.6,0,1.1,0.1,1.6,0.2
			c0.5,0.2,0.9,0.4,1.3,0.7s0.7,0.7,0.9,1.1c0.2,0.4,0.4,0.9,0.4,1.4H-259.4z M-253,364.2c-0.6,0-1.1-0.1-1.5-0.3
			c-0.5-0.2-0.8-0.5-1.1-0.8s-0.6-0.7-0.7-1.2s-0.2-1-0.2-1.5c0-0.6,0.1-1.1,0.2-1.5c0.2-0.5,0.4-0.9,0.7-1.2s0.7-0.6,1.1-0.8
			c0.5-0.2,1-0.3,1.5-0.3c0.6,0,1.1,0.1,1.5,0.3c0.5,0.2,0.8,0.5,1.1,0.8s0.6,0.7,0.7,1.2c0.2,0.5,0.2,1,0.2,1.5
			c0,0.6-0.1,1.1-0.2,1.5c-0.2,0.5-0.4,0.9-0.7,1.2s-0.7,0.6-1.1,0.8C-251.9,364.1-252.4,364.2-253,364.2L-253,364.2z M-253,362.9
			c0.4,0,0.7-0.1,0.9-0.2s0.5-0.3,0.6-0.6c0.2-0.2,0.3-0.5,0.4-0.8c0.1-0.3,0.1-0.6,0.1-0.9c0-0.3,0-0.6-0.1-0.9
			c-0.1-0.3-0.2-0.6-0.4-0.8s-0.4-0.4-0.6-0.6c-0.3-0.1-0.6-0.2-0.9-0.2c-0.4,0-0.7,0.1-0.9,0.2c-0.3,0.1-0.5,0.3-0.6,0.6
			s-0.3,0.5-0.4,0.8c-0.1,0.3-0.1,0.6-0.1,0.9c0,0.3,0,0.6,0.1,0.9c0.1,0.3,0.2,0.6,0.4,0.8c0.2,0.2,0.4,0.4,0.6,0.6
			S-253.3,362.9-253,362.9L-253,362.9z M-248,356.8h1.5v1h0c0.1-0.2,0.3-0.3,0.4-0.5c0.1-0.1,0.3-0.3,0.5-0.4s0.4-0.2,0.6-0.2
			s0.5-0.1,0.8-0.1c0.4,0,0.8,0.1,1.2,0.3c0.4,0.2,0.6,0.5,0.8,0.9c0.3-0.4,0.6-0.7,0.9-0.9c0.4-0.2,0.8-0.3,1.3-0.3
			c0.8,0,1.4,0.2,1.8,0.6c0.4,0.4,0.6,1,0.6,1.9v5h-1.6v-4.2c0-0.3,0-0.6,0-0.8c0-0.2-0.1-0.4-0.2-0.6s-0.2-0.3-0.4-0.4
			s-0.4-0.1-0.7-0.1c-0.5,0-0.9,0.2-1.2,0.5c-0.2,0.3-0.4,0.8-0.4,1.4v4.2h-1.6v-4.6c0-0.5-0.1-0.9-0.3-1.1c-0.2-0.3-0.5-0.4-1-0.4
			c-0.2,0-0.4,0-0.6,0.1c-0.2,0.1-0.4,0.2-0.5,0.4s-0.3,0.4-0.3,0.6c-0.1,0.2-0.1,0.5-0.1,0.8v4.3h-1.6V356.8z M-235.8,356.8h1.5v1
			h0c0.2-0.4,0.5-0.7,0.9-0.9c0.4-0.2,0.8-0.3,1.3-0.3c0.6,0,1.1,0.1,1.5,0.3c0.4,0.2,0.8,0.5,1.1,0.8c0.3,0.4,0.5,0.8,0.6,1.2
			s0.2,1,0.2,1.5c0,0.5-0.1,1-0.2,1.4c-0.1,0.5-0.3,0.9-0.6,1.2s-0.6,0.6-1,0.8c-0.4,0.2-0.9,0.3-1.4,0.3c-0.2,0-0.5,0-0.7-0.1
			c-0.2,0-0.5-0.1-0.7-0.2c-0.2-0.1-0.4-0.2-0.6-0.4c-0.2-0.1-0.3-0.3-0.5-0.5h0v3.6h-1.6V356.8z M-230.2,360.4c0-0.3,0-0.6-0.1-1
			s-0.2-0.6-0.4-0.8s-0.4-0.4-0.6-0.6c-0.3-0.1-0.5-0.2-0.9-0.2c-0.7,0-1.2,0.2-1.5,0.7s-0.5,1.1-0.5,1.9c0,0.4,0,0.7,0.1,1
			c0.1,0.3,0.2,0.6,0.4,0.8c0.2,0.2,0.4,0.4,0.6,0.5c0.2,0.1,0.5,0.2,0.9,0.2c0.4,0,0.7-0.1,0.9-0.2c0.3-0.1,0.5-0.3,0.6-0.6
			c0.2-0.2,0.3-0.5,0.3-0.8C-230.2,361-230.2,360.7-230.2,360.4L-230.2,360.4z M-227.2,354h1.6v10h-1.6V354z M-218.9,359.7
			c0-0.3-0.1-0.5-0.2-0.7c-0.1-0.2-0.2-0.4-0.4-0.6c-0.2-0.2-0.3-0.3-0.6-0.4s-0.5-0.2-0.7-0.2c-0.3,0-0.5,0-0.8,0.1
			c-0.2,0.1-0.4,0.2-0.6,0.4s-0.3,0.4-0.4,0.6c-0.1,0.2-0.2,0.5-0.2,0.8H-218.9z M-222.6,360.8c0,0.3,0,0.6,0.1,0.8
			c0.1,0.3,0.2,0.5,0.4,0.7c0.2,0.2,0.4,0.4,0.6,0.5c0.2,0.1,0.5,0.2,0.9,0.2c0.5,0,0.8-0.1,1.1-0.3c0.3-0.2,0.5-0.5,0.6-0.9h1.5
			c-0.1,0.4-0.2,0.7-0.4,1.1c-0.2,0.3-0.5,0.6-0.7,0.8c-0.3,0.2-0.6,0.4-1,0.5c-0.4,0.1-0.7,0.2-1.1,0.2c-0.6,0-1.1-0.1-1.5-0.3
			c-0.4-0.2-0.8-0.4-1.1-0.8c-0.3-0.3-0.5-0.7-0.7-1.2s-0.2-1-0.2-1.5c0-0.5,0.1-1,0.2-1.5c0.2-0.5,0.4-0.9,0.7-1.2
			c0.3-0.4,0.7-0.6,1.1-0.8c0.4-0.2,0.9-0.3,1.5-0.3c0.6,0,1.1,0.1,1.5,0.4s0.8,0.6,1.1,0.9s0.5,0.8,0.7,1.4s0.2,1,0.1,1.6H-222.6z
			 M-216.8,356.8h1.2v-2.2h1.6v2.2h1.4v1.2h-1.4v3.9c0,0.2,0,0.3,0,0.4c0,0.1,0,0.2,0.1,0.3c0.1,0.1,0.1,0.1,0.2,0.2
			c0.1,0,0.2,0.1,0.4,0.1c0.1,0,0.2,0,0.3,0c0.1,0,0.2,0,0.3,0v1.2c-0.2,0-0.4,0-0.5,0.1c-0.2,0-0.3,0-0.5,0c-0.4,0-0.8,0-1-0.1
			c-0.3-0.1-0.5-0.2-0.6-0.4c-0.1-0.2-0.2-0.3-0.3-0.6c-0.1-0.2-0.1-0.5-0.1-0.8V358h-1.2V356.8z M-206.5,359.7
			c0-0.3-0.1-0.5-0.2-0.7c-0.1-0.2-0.2-0.4-0.4-0.6c-0.2-0.2-0.3-0.3-0.6-0.4c-0.2-0.1-0.5-0.2-0.7-0.2c-0.3,0-0.5,0-0.8,0.1
			c-0.2,0.1-0.4,0.2-0.6,0.4s-0.3,0.4-0.4,0.6c-0.1,0.2-0.2,0.5-0.2,0.8H-206.5z M-210.2,360.8c0,0.3,0,0.6,0.1,0.8
			c0.1,0.3,0.2,0.5,0.4,0.7c0.2,0.2,0.4,0.4,0.6,0.5c0.2,0.1,0.5,0.2,0.9,0.2c0.5,0,0.8-0.1,1.1-0.3c0.3-0.2,0.5-0.5,0.6-0.9h1.5
			c-0.1,0.4-0.2,0.7-0.4,1.1c-0.2,0.3-0.5,0.6-0.7,0.8c-0.3,0.2-0.6,0.4-1,0.5s-0.7,0.2-1.1,0.2c-0.6,0-1.1-0.1-1.5-0.3
			c-0.4-0.2-0.8-0.4-1.1-0.8c-0.3-0.3-0.5-0.7-0.7-1.2c-0.2-0.5-0.2-1-0.2-1.5c0-0.5,0.1-1,0.2-1.5c0.2-0.5,0.4-0.9,0.7-1.2
			c0.3-0.4,0.7-0.6,1.1-0.8c0.4-0.2,0.9-0.3,1.5-0.3c0.6,0,1.1,0.1,1.5,0.4s0.8,0.6,1.1,0.9c0.3,0.4,0.5,0.8,0.7,1.4s0.2,1,0.1,1.6
			H-210.2z M-199.5,354h1.8v8.5h5.1v1.5h-6.8V354z M-188.4,364.2c-0.6,0-1.1-0.1-1.5-0.3c-0.5-0.2-0.8-0.5-1.1-0.8s-0.6-0.7-0.7-1.2
			s-0.2-1-0.2-1.5c0-0.6,0.1-1.1,0.2-1.5c0.2-0.5,0.4-0.9,0.7-1.2s0.7-0.6,1.1-0.8c0.5-0.2,1-0.3,1.5-0.3s1.1,0.1,1.5,0.3
			c0.5,0.2,0.8,0.5,1.1,0.8c0.3,0.3,0.6,0.7,0.7,1.2c0.2,0.5,0.2,1,0.2,1.5c0,0.6-0.1,1.1-0.2,1.5s-0.4,0.9-0.7,1.2
			c-0.3,0.3-0.7,0.6-1.1,0.8C-187.3,364.1-187.8,364.2-188.4,364.2L-188.4,364.2z M-188.4,362.9c0.4,0,0.7-0.1,0.9-0.2
			s0.5-0.3,0.6-0.6c0.2-0.2,0.3-0.5,0.4-0.8c0.1-0.3,0.1-0.6,0.1-0.9c0-0.3,0-0.6-0.1-0.9c-0.1-0.3-0.2-0.6-0.4-0.8
			c-0.2-0.2-0.4-0.4-0.6-0.6c-0.3-0.1-0.6-0.2-0.9-0.2s-0.7,0.1-0.9,0.2c-0.3,0.1-0.5,0.3-0.6,0.6c-0.2,0.2-0.3,0.5-0.4,0.8
			c-0.1,0.3-0.1,0.6-0.1,0.9c0,0.3,0,0.6,0.1,0.9c0.1,0.3,0.2,0.6,0.4,0.8c0.2,0.2,0.4,0.4,0.6,0.6S-188.8,362.9-188.4,362.9
			L-188.4,362.9z M-177.4,362.4c0,0.2,0,0.3,0.1,0.4c0.1,0.1,0.2,0.1,0.3,0.1h0.2c0.1,0,0.1,0,0.2,0v1.1c-0.1,0-0.1,0-0.2,0.1
			c-0.1,0-0.2,0-0.3,0.1c-0.1,0-0.2,0-0.3,0c-0.1,0-0.2,0-0.2,0c-0.3,0-0.6-0.1-0.8-0.2c-0.2-0.1-0.4-0.4-0.4-0.7
			c-0.3,0.3-0.7,0.5-1.2,0.7c-0.5,0.1-0.9,0.2-1.3,0.2c-0.3,0-0.6,0-0.9-0.1c-0.3-0.1-0.6-0.2-0.8-0.4s-0.4-0.4-0.5-0.7
			c-0.1-0.3-0.2-0.6-0.2-0.9c0-0.4,0.1-0.8,0.2-1.1c0.2-0.3,0.4-0.5,0.6-0.7c0.3-0.2,0.6-0.3,0.9-0.3c0.3-0.1,0.7-0.1,1-0.2
			c0.3-0.1,0.6-0.1,0.8-0.1c0.3,0,0.5-0.1,0.7-0.1s0.4-0.1,0.5-0.3s0.2-0.3,0.2-0.5c0-0.2,0-0.4-0.1-0.5c-0.1-0.1-0.2-0.2-0.4-0.3
			s-0.3-0.1-0.5-0.1c-0.2,0-0.3,0-0.5,0c-0.4,0-0.8,0.1-1.1,0.3c-0.3,0.2-0.5,0.5-0.5,0.9h-1.6c0-0.5,0.1-0.9,0.3-1.2
			c0.2-0.3,0.4-0.6,0.7-0.7c0.3-0.2,0.6-0.3,1-0.4s0.8-0.1,1.2-0.1c0.4,0,0.7,0,1.1,0.1s0.7,0.2,0.9,0.4s0.5,0.4,0.7,0.7
			c0.2,0.3,0.3,0.6,0.3,1V362.4z M-179,360.4c-0.2,0.2-0.5,0.3-0.9,0.3c-0.4,0-0.7,0.1-1.1,0.1c-0.2,0-0.3,0.1-0.5,0.1
			s-0.3,0.1-0.4,0.2c-0.1,0.1-0.2,0.2-0.3,0.4c-0.1,0.1-0.1,0.3-0.1,0.5c0,0.2,0.1,0.3,0.2,0.4c0.1,0.1,0.2,0.2,0.4,0.3
			s0.3,0.1,0.5,0.1c0.2,0,0.3,0,0.5,0c0.2,0,0.4,0,0.6-0.1c0.2,0,0.4-0.1,0.6-0.2c0.2-0.1,0.3-0.3,0.5-0.4c0.1-0.2,0.2-0.4,0.2-0.6
			V360.4z M-175.6,356.8h1.5v1.1l0,0c0.2-0.4,0.6-0.7,1-0.9c0.4-0.2,0.8-0.3,1.3-0.3c0.8,0,1.4,0.2,1.9,0.6s0.7,1,0.7,1.8v5h-1.6
			v-4.5c0-0.6-0.1-1-0.4-1.2c-0.2-0.3-0.6-0.4-1.1-0.4c-0.3,0-0.5,0-0.7,0.1c-0.2,0.1-0.4,0.2-0.5,0.4s-0.3,0.4-0.3,0.6
			s-0.1,0.5-0.1,0.7v4.3h-1.6V356.8z M-163.5,354h2.5l2.8,7.8h0l2.7-7.8h2.4v10h-1.7v-7.7h0l-2.8,7.7h-1.4l-2.8-7.7h0v7.7h-1.7V354z
			 M-145.2,362.4c0,0.2,0,0.3,0.1,0.4c0.1,0.1,0.2,0.1,0.3,0.1h0.2c0.1,0,0.1,0,0.2,0v1.1c-0.1,0-0.1,0-0.2,0.1
			c-0.1,0-0.2,0-0.3,0.1c-0.1,0-0.2,0-0.3,0c-0.1,0-0.2,0-0.2,0c-0.3,0-0.6-0.1-0.8-0.2c-0.2-0.1-0.4-0.4-0.4-0.7
			c-0.3,0.3-0.7,0.5-1.2,0.7c-0.5,0.1-0.9,0.2-1.3,0.2c-0.3,0-0.6,0-0.9-0.1c-0.3-0.1-0.6-0.2-0.8-0.4s-0.4-0.4-0.5-0.7
			c-0.1-0.3-0.2-0.6-0.2-0.9c0-0.4,0.1-0.8,0.2-1.1c0.2-0.3,0.4-0.5,0.6-0.7c0.3-0.2,0.6-0.3,0.9-0.3c0.3-0.1,0.7-0.1,1-0.2
			c0.3-0.1,0.6-0.1,0.8-0.1c0.3,0,0.5-0.1,0.7-0.1s0.4-0.1,0.5-0.3s0.2-0.3,0.2-0.5c0-0.2,0-0.4-0.1-0.5c-0.1-0.1-0.2-0.2-0.4-0.3
			s-0.3-0.1-0.5-0.1c-0.2,0-0.3,0-0.5,0c-0.4,0-0.8,0.1-1.1,0.3c-0.3,0.2-0.5,0.5-0.5,0.9h-1.6c0-0.5,0.1-0.9,0.3-1.2
			c0.2-0.3,0.4-0.6,0.7-0.7c0.3-0.2,0.6-0.3,1-0.4s0.8-0.1,1.2-0.1c0.4,0,0.7,0,1.1,0.1s0.7,0.2,0.9,0.4s0.5,0.4,0.7,0.7
			c0.2,0.3,0.3,0.6,0.3,1V362.4z M-146.8,360.4c-0.2,0.2-0.5,0.3-0.9,0.3c-0.4,0-0.7,0.1-1.1,0.1c-0.2,0-0.3,0.1-0.5,0.1
			s-0.3,0.1-0.4,0.2c-0.1,0.1-0.2,0.2-0.3,0.4c-0.1,0.1-0.1,0.3-0.1,0.5c0,0.2,0.1,0.3,0.2,0.4c0.1,0.1,0.2,0.2,0.4,0.3
			s0.3,0.1,0.5,0.1c0.2,0,0.3,0,0.5,0c0.2,0,0.4,0,0.6-0.1c0.2,0,0.4-0.1,0.6-0.2c0.2-0.1,0.3-0.3,0.5-0.4c0.1-0.2,0.2-0.4,0.2-0.6
			V360.4z M-143.5,356.8h1.5v1.1l0,0c0.2-0.4,0.6-0.7,1-0.9c0.4-0.2,0.8-0.3,1.3-0.3c0.8,0,1.4,0.2,1.9,0.6s0.7,1,0.7,1.8v5h-1.6
			v-4.5c0-0.6-0.1-1-0.4-1.2c-0.2-0.3-0.6-0.4-1.1-0.4c-0.3,0-0.5,0-0.7,0.1c-0.2,0.1-0.4,0.2-0.5,0.4s-0.3,0.4-0.3,0.6
			s-0.1,0.5-0.1,0.7v4.3h-1.6V356.8z M-129.4,362.4c0,0.2,0,0.3,0.1,0.4c0.1,0.1,0.2,0.1,0.3,0.1h0.2c0.1,0,0.1,0,0.2,0v1.1
			c-0.1,0-0.1,0-0.2,0.1c-0.1,0-0.2,0-0.3,0.1c-0.1,0-0.2,0-0.3,0s-0.2,0-0.2,0c-0.3,0-0.6-0.1-0.8-0.2c-0.2-0.1-0.4-0.4-0.4-0.7
			c-0.3,0.3-0.7,0.5-1.2,0.7c-0.5,0.1-0.9,0.2-1.3,0.2c-0.3,0-0.6,0-0.9-0.1c-0.3-0.1-0.6-0.2-0.8-0.4s-0.4-0.4-0.5-0.7
			c-0.1-0.3-0.2-0.6-0.2-0.9c0-0.4,0.1-0.8,0.2-1.1c0.2-0.3,0.4-0.5,0.6-0.7c0.3-0.2,0.6-0.3,0.9-0.3c0.3-0.1,0.7-0.1,1-0.2
			c0.3-0.1,0.6-0.1,0.8-0.1c0.3,0,0.5-0.1,0.7-0.1s0.4-0.1,0.5-0.3s0.2-0.3,0.2-0.5c0-0.2,0-0.4-0.1-0.5c-0.1-0.1-0.2-0.2-0.4-0.3
			s-0.3-0.1-0.5-0.1c-0.2,0-0.3,0-0.5,0c-0.4,0-0.8,0.1-1.1,0.3c-0.3,0.2-0.5,0.5-0.5,0.9h-1.6c0-0.5,0.1-0.9,0.3-1.2
			c0.2-0.3,0.4-0.6,0.7-0.7s0.6-0.3,1-0.4c0.4-0.1,0.8-0.1,1.2-0.1c0.4,0,0.7,0,1.1,0.1c0.3,0.1,0.7,0.2,0.9,0.4
			c0.3,0.2,0.5,0.4,0.7,0.7c0.2,0.3,0.3,0.6,0.3,1V362.4z M-131,360.4c-0.2,0.2-0.5,0.3-0.9,0.3c-0.4,0-0.7,0.1-1.1,0.1
			c-0.2,0-0.3,0.1-0.5,0.1c-0.2,0.1-0.3,0.1-0.4,0.2c-0.1,0.1-0.2,0.2-0.3,0.4c-0.1,0.1-0.1,0.3-0.1,0.5c0,0.2,0.1,0.3,0.2,0.4
			c0.1,0.1,0.2,0.2,0.4,0.3s0.3,0.1,0.5,0.1c0.2,0,0.3,0,0.5,0c0.2,0,0.4,0,0.6-0.1c0.2,0,0.4-0.1,0.6-0.2c0.2-0.1,0.3-0.3,0.5-0.4
			s0.2-0.4,0.2-0.6V360.4z M-121,363.6c0,1.1-0.3,1.9-0.9,2.4c-0.6,0.5-1.5,0.8-2.6,0.8c-0.4,0-0.7,0-1.1-0.1
			c-0.4-0.1-0.7-0.2-1-0.4c-0.3-0.2-0.6-0.4-0.8-0.7c-0.2-0.3-0.3-0.6-0.4-1.1h1.6c0,0.2,0.1,0.4,0.2,0.5c0.1,0.1,0.2,0.2,0.4,0.3
			c0.2,0.1,0.3,0.1,0.5,0.2c0.2,0,0.4,0,0.6,0c0.6,0,1.1-0.2,1.4-0.5c0.3-0.3,0.4-0.8,0.4-1.4v-1.1h0c-0.2,0.4-0.5,0.7-0.9,0.9
			s-0.8,0.3-1.3,0.3c-0.6,0-1.1-0.1-1.5-0.3c-0.4-0.2-0.7-0.5-1-0.8c-0.3-0.4-0.5-0.8-0.6-1.2s-0.2-0.9-0.2-1.5
			c0-0.5,0.1-0.9,0.2-1.4c0.1-0.4,0.4-0.8,0.6-1.2s0.6-0.6,1-0.8c0.4-0.2,0.9-0.3,1.4-0.3c0.5,0,0.9,0.1,1.3,0.3
			c0.4,0.2,0.7,0.5,0.9,0.9h0v-1h1.6V363.6z M-124.5,362.7c0.4,0,0.7-0.1,0.9-0.2c0.2-0.1,0.4-0.3,0.6-0.6c0.2-0.2,0.3-0.5,0.3-0.8
			c0.1-0.3,0.1-0.6,0.1-0.9s0-0.6-0.1-0.9c-0.1-0.3-0.2-0.5-0.3-0.8c-0.2-0.2-0.4-0.4-0.6-0.5s-0.5-0.2-0.9-0.2
			c-0.4,0-0.7,0.1-0.9,0.2c-0.2,0.1-0.4,0.3-0.6,0.6s-0.3,0.5-0.3,0.8c-0.1,0.3-0.1,0.6-0.1,0.9s0,0.6,0.1,0.9s0.2,0.5,0.3,0.8
			c0.2,0.2,0.3,0.4,0.6,0.5C-125.1,362.7-124.8,362.7-124.5,362.7L-124.5,362.7z M-114.4,359.7c0-0.3-0.1-0.5-0.2-0.7
			c-0.1-0.2-0.2-0.4-0.4-0.6c-0.2-0.2-0.3-0.3-0.6-0.4c-0.2-0.1-0.5-0.2-0.7-0.2c-0.3,0-0.5,0-0.8,0.1c-0.2,0.1-0.4,0.2-0.6,0.4
			s-0.3,0.4-0.4,0.6c-0.1,0.2-0.2,0.5-0.2,0.8H-114.4z M-118.1,360.8c0,0.3,0,0.6,0.1,0.8c0.1,0.3,0.2,0.5,0.4,0.7
			c0.2,0.2,0.4,0.4,0.6,0.5c0.2,0.1,0.5,0.2,0.9,0.2c0.5,0,0.8-0.1,1.1-0.3c0.3-0.2,0.5-0.5,0.6-0.9h1.5c-0.1,0.4-0.2,0.7-0.4,1.1
			c-0.2,0.3-0.5,0.6-0.7,0.8c-0.3,0.2-0.6,0.4-1,0.5s-0.7,0.2-1.1,0.2c-0.6,0-1.1-0.1-1.5-0.3c-0.4-0.2-0.8-0.4-1.1-0.8
			s-0.5-0.7-0.7-1.2c-0.2-0.5-0.2-1-0.2-1.5c0-0.5,0.1-1,0.2-1.5c0.2-0.5,0.4-0.9,0.7-1.2s0.7-0.6,1.1-0.8c0.4-0.2,0.9-0.3,1.5-0.3
			c0.6,0,1.1,0.1,1.5,0.4s0.8,0.6,1.1,0.9c0.3,0.4,0.5,0.8,0.7,1.4s0.2,1,0.1,1.6H-118.1z M-111.6,356.8h1.5v1h0
			c0.1-0.2,0.3-0.3,0.4-0.5c0.1-0.1,0.3-0.3,0.5-0.4s0.4-0.2,0.6-0.2c0.2-0.1,0.5-0.1,0.8-0.1c0.4,0,0.8,0.1,1.2,0.3
			c0.4,0.2,0.6,0.5,0.8,0.9c0.3-0.4,0.6-0.7,0.9-0.9c0.4-0.2,0.8-0.3,1.3-0.3c0.8,0,1.4,0.2,1.8,0.6c0.4,0.4,0.6,1,0.6,1.9v5h-1.6
			v-4.2c0-0.3,0-0.6,0-0.8c0-0.2-0.1-0.4-0.2-0.6c-0.1-0.2-0.2-0.3-0.4-0.4c-0.2-0.1-0.4-0.1-0.7-0.1c-0.5,0-0.9,0.2-1.2,0.5
			c-0.2,0.3-0.4,0.8-0.4,1.4v4.2h-1.6v-4.6c0-0.5-0.1-0.9-0.3-1.1c-0.2-0.3-0.5-0.4-1-0.4c-0.2,0-0.4,0-0.6,0.1
			c-0.2,0.1-0.4,0.2-0.5,0.4c-0.1,0.2-0.3,0.4-0.4,0.6c-0.1,0.2-0.1,0.5-0.1,0.8v4.3h-1.6V356.8z M-94.4,359.7
			c0-0.3-0.1-0.5-0.2-0.7c-0.1-0.2-0.2-0.4-0.4-0.6c-0.2-0.2-0.3-0.3-0.6-0.4s-0.5-0.2-0.7-0.2c-0.3,0-0.5,0-0.8,0.1
			c-0.2,0.1-0.4,0.2-0.6,0.4s-0.3,0.4-0.4,0.6c-0.1,0.2-0.2,0.5-0.2,0.8H-94.4z M-98.2,360.8c0,0.3,0,0.6,0.1,0.8
			c0.1,0.3,0.2,0.5,0.4,0.7c0.2,0.2,0.4,0.4,0.6,0.5c0.2,0.1,0.5,0.2,0.9,0.2c0.5,0,0.8-0.1,1.1-0.3c0.3-0.2,0.5-0.5,0.6-0.9h1.5
			c-0.1,0.4-0.2,0.7-0.4,1.1c-0.2,0.3-0.5,0.6-0.7,0.8c-0.3,0.2-0.6,0.4-1,0.5c-0.4,0.1-0.7,0.2-1.1,0.2c-0.6,0-1.1-0.1-1.5-0.3
			c-0.4-0.2-0.8-0.4-1.1-0.8c-0.3-0.3-0.5-0.7-0.7-1.2c-0.2-0.5-0.2-1-0.2-1.5c0-0.5,0.1-1,0.2-1.5c0.2-0.5,0.4-0.9,0.7-1.2
			c0.3-0.4,0.7-0.6,1.1-0.8c0.4-0.2,0.9-0.3,1.5-0.3c0.6,0,1.1,0.1,1.5,0.4s0.8,0.6,1.1,0.9c0.3,0.4,0.5,0.8,0.7,1.4s0.2,1,0.1,1.6
			H-98.2z M-91.6,356.8h1.5v1.1l0,0c0.2-0.4,0.6-0.7,1-0.9c0.4-0.2,0.8-0.3,1.3-0.3c0.8,0,1.4,0.2,1.9,0.6s0.7,1,0.7,1.8v5h-1.6
			v-4.5c0-0.6-0.1-1-0.4-1.2c-0.2-0.3-0.6-0.4-1.1-0.4c-0.3,0-0.5,0-0.7,0.1c-0.2,0.1-0.4,0.2-0.5,0.4c-0.1,0.2-0.3,0.4-0.3,0.6
			s-0.1,0.5-0.1,0.7v4.3h-1.6V356.8z M-84.3,356.8h1.2v-2.2h1.6v2.2h1.4v1.2h-1.4v3.9c0,0.2,0,0.3,0,0.4c0,0.1,0,0.2,0.1,0.3
			c0.1,0.1,0.1,0.1,0.2,0.2c0.1,0,0.2,0.1,0.4,0.1c0.1,0,0.2,0,0.3,0s0.2,0,0.3,0v1.2c-0.2,0-0.4,0-0.5,0.1c-0.2,0-0.3,0-0.5,0
			c-0.4,0-0.8,0-1-0.1c-0.3-0.1-0.5-0.2-0.6-0.4s-0.2-0.3-0.3-0.6c-0.1-0.2-0.1-0.5-0.1-0.8V358h-1.2V356.8z"/>
		<path id="_xAE_-copy" sketch:type="MSShapeGroup" class="st1" d="M-57.1,320.5v-1.3h0.8c0.1,0,0.2,0,0.3,0c0.1,0,0.2,0,0.3,0.1
			c0.1,0,0.1,0.1,0.2,0.2s0.1,0.2,0.1,0.3c0,0.2,0,0.3-0.1,0.4c-0.1,0.1-0.1,0.2-0.2,0.2c-0.1,0-0.2,0.1-0.3,0.1s-0.3,0-0.4,0H-57.1
			z M-57.7,318.7v3.9h0.6V321h0.6l1.1,1.7h0.7l-1.1-1.7c0.3,0,0.5-0.1,0.7-0.3s0.3-0.4,0.3-0.8c0-0.4-0.1-0.7-0.3-0.8
			c-0.2-0.2-0.6-0.3-1-0.3H-57.7z M-59.2,320.7c0-0.4,0.1-0.8,0.2-1.1c0.1-0.3,0.3-0.6,0.6-0.9c0.2-0.3,0.5-0.5,0.9-0.6
			c0.3-0.1,0.7-0.2,1.1-0.2c0.4,0,0.8,0.1,1.1,0.2c0.3,0.1,0.6,0.3,0.9,0.6c0.2,0.3,0.4,0.6,0.6,0.9c0.1,0.3,0.2,0.7,0.2,1.1
			c0,0.4-0.1,0.8-0.2,1.1c-0.1,0.4-0.3,0.7-0.6,0.9c-0.2,0.3-0.5,0.5-0.9,0.6s-0.7,0.2-1.1,0.2c-0.4,0-0.8-0.1-1.1-0.2
			s-0.6-0.3-0.9-0.6c-0.2-0.3-0.4-0.6-0.6-0.9C-59.1,321.5-59.2,321.1-59.2,320.7L-59.2,320.7z M-59.8,320.7c0,0.5,0.1,0.9,0.3,1.3
			c0.2,0.4,0.4,0.8,0.7,1.1s0.7,0.5,1.1,0.7s0.8,0.3,1.3,0.3c0.5,0,0.9-0.1,1.3-0.3s0.8-0.4,1.1-0.7s0.5-0.7,0.7-1.1
			c0.2-0.4,0.3-0.9,0.3-1.3c0-0.5-0.1-0.9-0.3-1.3c-0.2-0.4-0.4-0.8-0.7-1.1c-0.3-0.3-0.7-0.5-1.1-0.7s-0.8-0.3-1.3-0.3
			c-0.5,0-0.9,0.1-1.3,0.3s-0.8,0.4-1.1,0.7c-0.3,0.3-0.6,0.7-0.7,1.1C-59.7,319.8-59.8,320.2-59.8,320.7L-59.8,320.7z"/>
	</g>
</g>
</svg>
