<?xml version="1.0" encoding="utf-8"?>
<!-- Generator: Adobe Illustrator 19.0.1, SVG Export Plug-In . SVG Version: 6.00 Build 0)  -->
<!DOCTYPE svg PUBLIC "-//W3C//DTD SVG 1.1//EN" "http://www.w3.org/Graphics/SVG/1.1/DTD/svg11.dtd">
<svg version="1.1" id="Layer_1" xmlns="http://www.w3.org/2000/svg" xmlns:xlink="http://www.w3.org/1999/xlink" x="0px" y="0px"
	 width="216.12px" height="131px" viewBox="-450.52 242.24 216.12 131" style="enable-background:new -450.52 242.24 216.12 131;"
	 xml:space="preserve">
<style type="text/css">
	.st0{clip-path:url(#SVGID_2_);}
	.st1{clip-path:url(#SVGID_4_);fill:#616D77;}
	.st2{clip-path:url(#SVGID_6_);}
	.st3{clip-path:url(#SVGID_8_);fill:#616D77;}
	.st4{fill:#5373B7;}
	.st5{fill:#616D77;}
</style>
<g>
	<g>
		<g>
			<defs>
				<path id="SVGID_1_" d="M-238.79,327.21h1.04l1.17,3.31h0.01l1.14-3.31h1.03v4.23h-0.7v-3.26h-0.01l-1.17,3.26h-0.61l-1.17-3.26
					h-0.01v3.26h-0.71V327.21z M-242.13,330.03c0,0.16,0.03,0.3,0.08,0.41c0.06,0.11,0.13,0.21,0.23,0.28
					c0.1,0.07,0.21,0.13,0.34,0.16s0.27,0.05,0.42,0.05c0.16,0,0.3-0.02,0.41-0.06c0.11-0.04,0.21-0.09,0.28-0.15
					c0.07-0.06,0.12-0.13,0.15-0.2c0.03-0.08,0.05-0.15,0.05-0.23c0-0.16-0.04-0.28-0.11-0.36c-0.07-0.08-0.15-0.13-0.24-0.16
					c-0.15-0.06-0.32-0.11-0.52-0.16c-0.2-0.05-0.45-0.11-0.74-0.19c-0.18-0.05-0.33-0.11-0.45-0.19s-0.22-0.16-0.29-0.26
					c-0.07-0.09-0.12-0.2-0.15-0.3c-0.03-0.11-0.04-0.22-0.04-0.33c0-0.21,0.04-0.4,0.13-0.55c0.09-0.16,0.21-0.29,0.35-0.39
					s0.31-0.18,0.5-0.23c0.19-0.05,0.37-0.07,0.56-0.07c0.22,0,0.43,0.03,0.62,0.09c0.2,0.06,0.37,0.14,0.52,0.26
					c0.15,0.11,0.27,0.26,0.35,0.42c0.09,0.17,0.13,0.36,0.13,0.58h-0.74c-0.02-0.27-0.11-0.47-0.28-0.58
					c-0.17-0.11-0.38-0.17-0.63-0.17c-0.09,0-0.18,0.01-0.27,0.03c-0.09,0.02-0.17,0.05-0.25,0.09c-0.08,0.04-0.14,0.1-0.19,0.17
					c-0.05,0.07-0.07,0.16-0.07,0.27c0,0.15,0.05,0.27,0.14,0.35c0.09,0.08,0.21,0.15,0.36,0.19c0.02,0,0.08,0.02,0.19,0.05
					c0.11,0.03,0.23,0.06,0.36,0.1c0.13,0.04,0.27,0.07,0.39,0.1c0.13,0.03,0.22,0.06,0.28,0.07c0.14,0.04,0.26,0.1,0.36,0.18
					c0.1,0.08,0.19,0.16,0.26,0.26c0.07,0.1,0.12,0.2,0.15,0.31c0.03,0.11,0.05,0.22,0.05,0.33c0,0.24-0.05,0.44-0.15,0.61
					c-0.1,0.17-0.22,0.31-0.38,0.41c-0.16,0.11-0.34,0.18-0.54,0.23c-0.2,0.05-0.41,0.07-0.62,0.07c-0.24,0-0.47-0.03-0.68-0.09
					c-0.21-0.06-0.4-0.15-0.56-0.27c-0.16-0.12-0.28-0.28-0.38-0.47c-0.09-0.19-0.14-0.42-0.15-0.68H-242.13z"/>
			</defs>
			<clipPath id="SVGID_2_">
				<use xlink:href="#SVGID_1_"  style="overflow:visible;"/>
			</clipPath>
			<g class="st0">
				<defs>
					<rect id="SVGID_3_" x="-879.89" y="-583.81" width="1263.78" height="1778.17"/>
				</defs>
				<clipPath id="SVGID_4_">
					<use xlink:href="#SVGID_3_"  style="overflow:visible;"/>
				</clipPath>
				<rect x="-247.81" y="322.17" class="st1" width="18.34" height="14.3"/>
			</g>
		</g>
	</g>
	<g>
		<defs>
			<path id="SVGID_5_" d="M-250.3,331.27v11.21h1.37v-5.97c0-0.59,0.1-1.14,0.3-1.64c0.2-0.5,0.49-0.93,0.86-1.29
				c0.37-0.36,0.81-0.64,1.31-0.84c0.51-0.2,1.07-0.28,1.69-0.25v-1.37c-1.01-0.04-1.89,0.18-2.62,0.67
				c-0.73,0.49-1.27,1.19-1.62,2.11h-0.04v-2.63H-250.3z M-257.64,330.94c-0.85,0-1.61,0.16-2.27,0.48s-1.21,0.75-1.66,1.28
				c-0.45,0.54-0.79,1.16-1.02,1.88c-0.23,0.72-0.35,1.48-0.35,2.29c0,0.81,0.12,1.57,0.35,2.29c0.23,0.72,0.57,1.34,1.02,1.88
				c0.45,0.54,1,0.96,1.66,1.27c0.66,0.31,1.42,0.47,2.27,0.47c0.85,0,1.61-0.16,2.27-0.47c0.66-0.31,1.21-0.73,1.66-1.27
				c0.45-0.54,0.79-1.16,1.02-1.88c0.23-0.72,0.35-1.48,0.35-2.29c0-0.81-0.12-1.57-0.35-2.29c-0.23-0.72-0.57-1.34-1.02-1.88
				c-0.45-0.54-1-0.96-1.66-1.28C-256.03,331.1-256.79,330.94-257.64,330.94z M-257.64,332.09c0.65,0,1.22,0.14,1.72,0.41
				c0.49,0.28,0.9,0.64,1.23,1.09c0.33,0.45,0.57,0.96,0.74,1.53c0.17,0.57,0.25,1.15,0.25,1.75c0,0.59-0.08,1.18-0.25,1.75
				c-0.17,0.57-0.41,1.08-0.74,1.53c-0.33,0.45-0.73,0.81-1.23,1.09c-0.49,0.28-1.06,0.41-1.72,0.41c-0.65,0-1.22-0.14-1.72-0.41
				c-0.49-0.28-0.9-0.64-1.23-1.09s-0.57-0.96-0.74-1.53c-0.17-0.57-0.25-1.15-0.25-1.75c0-0.59,0.08-1.18,0.25-1.75
				c0.17-0.57,0.41-1.08,0.74-1.53s0.73-0.81,1.23-1.09C-258.86,332.23-258.29,332.09-257.64,332.09z M-266.11,334.55h1.37
				c-0.03-0.61-0.15-1.14-0.37-1.59c-0.22-0.45-0.51-0.83-0.88-1.13c-0.37-0.3-0.8-0.53-1.28-0.67c-0.49-0.14-1.01-0.22-1.57-0.22
				c-0.49,0-0.99,0.06-1.49,0.17c-0.5,0.12-0.95,0.3-1.36,0.54c-0.41,0.25-0.73,0.57-0.99,0.98c-0.25,0.41-0.38,0.89-0.38,1.46
				c0,0.48,0.08,0.88,0.24,1.21c0.16,0.33,0.38,0.6,0.66,0.83c0.28,0.22,0.61,0.41,0.99,0.56c0.38,0.15,0.79,0.29,1.24,0.4
				l1.76,0.39c0.3,0.07,0.6,0.16,0.9,0.26c0.3,0.1,0.56,0.23,0.79,0.38c0.23,0.15,0.42,0.34,0.55,0.56c0.14,0.22,0.21,0.5,0.21,0.84
				c0,0.39-0.1,0.72-0.29,0.99s-0.45,0.49-0.75,0.66c-0.3,0.17-0.63,0.3-0.99,0.37c-0.35,0.07-0.7,0.11-1.03,0.11
				c-0.91,0-1.68-0.24-2.29-0.71c-0.62-0.47-0.95-1.17-1.01-2.1h-1.37c0.12,1.38,0.58,2.37,1.4,3c0.82,0.62,1.89,0.93,3.2,0.93
				c0.52,0,1.05-0.06,1.59-0.17c0.54-0.12,1.02-0.31,1.44-0.58c0.43-0.27,0.78-0.62,1.05-1.04c0.28-0.43,0.41-0.94,0.41-1.55
				c0-0.49-0.09-0.92-0.28-1.28c-0.19-0.36-0.43-0.67-0.73-0.91c-0.3-0.25-0.64-0.45-1.02-0.6c-0.38-0.15-0.77-0.26-1.16-0.31
				l-1.82-0.41c-0.23-0.06-0.49-0.13-0.76-0.23c-0.28-0.09-0.53-0.21-0.76-0.36c-0.23-0.14-0.42-0.32-0.58-0.53
				c-0.15-0.21-0.23-0.47-0.23-0.77c0-0.36,0.08-0.67,0.24-0.91c0.16-0.25,0.37-0.45,0.63-0.6c0.26-0.15,0.55-0.26,0.86-0.33
				c0.31-0.07,0.62-0.1,0.92-0.1c0.39,0,0.76,0.05,1.11,0.14c0.35,0.09,0.66,0.24,0.92,0.45c0.27,0.2,0.48,0.46,0.64,0.77
				C-266.21,333.76-266.13,334.13-266.11,334.55z M-276.82,331.27v11.21h1.37v-11.21H-276.82z M-276.82,326.97v2.19h1.37v-2.19
				H-276.82z M-288.16,331.27l4.32,11.21h1.46l4.19-11.21h-1.41l-3.48,9.84h-0.04l-3.52-9.84H-288.16z M-298.48,336.87
				c0-0.58,0.07-1.15,0.21-1.73c0.14-0.57,0.35-1.08,0.65-1.53c0.3-0.45,0.68-0.81,1.14-1.1c0.46-0.28,1.02-0.42,1.67-0.42
				c0.72,0,1.34,0.14,1.84,0.42c0.5,0.28,0.91,0.65,1.22,1.1s0.54,0.96,0.67,1.53s0.21,1.15,0.21,1.73c0,0.58-0.07,1.15-0.21,1.73
				s-0.36,1.08-0.67,1.53c-0.31,0.45-0.72,0.81-1.22,1.1c-0.5,0.28-1.11,0.42-1.84,0.42c-0.65,0-1.21-0.14-1.67-0.42
				c-0.46-0.28-0.84-0.65-1.14-1.1c-0.3-0.45-0.51-0.96-0.65-1.53C-298.41,338.03-298.48,337.45-298.48,336.87z M-289.51,342.48
				v-15.51h-1.37v6.43h-0.04c-0.14-0.41-0.35-0.76-0.62-1.06s-0.58-0.56-0.92-0.77c-0.35-0.21-0.72-0.37-1.12-0.47
				c-0.4-0.1-0.81-0.15-1.23-0.15c-0.85,0-1.6,0.16-2.23,0.48s-1.15,0.75-1.57,1.29c-0.42,0.54-0.73,1.17-0.93,1.89
				c-0.2,0.72-0.3,1.47-0.3,2.27c0,0.8,0.1,1.55,0.3,2.27c0.2,0.72,0.51,1.35,0.93,1.89c0.42,0.54,0.94,0.97,1.57,1.28
				c0.63,0.31,1.37,0.47,2.23,0.47c0.41,0,0.81-0.06,1.23-0.17c0.41-0.12,0.8-0.28,1.16-0.49c0.36-0.21,0.68-0.47,0.97-0.77
				c0.28-0.3,0.5-0.64,0.64-1h0.04v2.13H-289.51z M-308.25,326.97l-6.23,15.51h1.56l1.87-4.82h7.06l1.89,4.82h1.59l-6.08-15.51
				H-308.25z M-310.6,336.39l3.11-7.95l3,7.95H-310.6z M-323.35,331.27v-3.37h-1.37v3.37h-1.95v1.15h1.95v7.67
				c-0.01,0.96,0.16,1.61,0.52,1.97c0.36,0.35,1,0.53,1.91,0.53c0.2,0,0.41-0.01,0.61-0.02c0.2-0.01,0.41-0.02,0.61-0.02v-1.15
				c-0.39,0.04-0.78,0.07-1.17,0.07c-0.49-0.03-0.8-0.17-0.92-0.42c-0.12-0.25-0.18-0.6-0.18-1.05v-7.56h2.28v-1.15H-323.35z
				 M-328.89,334.79h1.37c-0.16-1.29-0.66-2.25-1.49-2.89c-0.83-0.64-1.85-0.96-3.05-0.96c-0.85,0-1.61,0.16-2.27,0.48
				s-1.21,0.75-1.66,1.28c-0.45,0.54-0.79,1.16-1.02,1.88c-0.23,0.72-0.35,1.48-0.35,2.29c0,0.81,0.12,1.57,0.35,2.29
				c0.23,0.72,0.57,1.34,1.02,1.88c0.45,0.54,1,0.96,1.66,1.27c0.66,0.31,1.42,0.47,2.27,0.47c1.27,0,2.32-0.38,3.13-1.14
				c0.81-0.76,1.31-1.82,1.5-3.18h-1.37c-0.04,0.46-0.16,0.89-0.35,1.28c-0.19,0.39-0.43,0.73-0.72,1.01c-0.29,0.28-0.62,0.5-1,0.66
				c-0.38,0.16-0.77,0.24-1.19,0.24c-0.65,0-1.22-0.14-1.72-0.41c-0.49-0.28-0.9-0.64-1.23-1.09c-0.33-0.45-0.57-0.96-0.74-1.53
				c-0.17-0.57-0.25-1.15-0.25-1.75c0-0.59,0.08-1.18,0.25-1.75c0.17-0.57,0.41-1.08,0.74-1.53c0.33-0.45,0.73-0.81,1.23-1.09
				c0.49-0.28,1.06-0.41,1.72-0.41c0.91,0,1.62,0.24,2.13,0.72C-329.42,333.29-329.07,333.95-328.89,334.79z M-339.38,342.48v-11.21
				h-1.37v5.89c0,0.56-0.07,1.12-0.2,1.66c-0.13,0.54-0.33,1.02-0.61,1.44c-0.28,0.42-0.62,0.76-1.04,1.01
				c-0.42,0.25-0.93,0.38-1.52,0.38c-1.09,0-1.85-0.26-2.29-0.78c-0.44-0.52-0.68-1.29-0.71-2.3v-7.3h-1.37v7.28
				c0,0.67,0.07,1.26,0.22,1.78c0.14,0.52,0.37,0.96,0.68,1.32c0.31,0.36,0.72,0.64,1.22,0.84c0.5,0.2,1.1,0.29,1.81,0.29
				c0.84,0,1.6-0.2,2.29-0.6c0.69-0.4,1.21-0.97,1.57-1.73h0.04v2.02H-339.38z M-360.03,336.87c0-0.58,0.07-1.15,0.21-1.73
				s0.35-1.08,0.65-1.53c0.3-0.45,0.68-0.81,1.14-1.1c0.46-0.28,1.02-0.42,1.67-0.42c0.72,0,1.34,0.14,1.84,0.42
				c0.5,0.28,0.91,0.65,1.22,1.1s0.54,0.96,0.67,1.53c0.14,0.57,0.21,1.15,0.21,1.73c0,0.58-0.07,1.15-0.21,1.73
				c-0.14,0.57-0.36,1.08-0.67,1.53c-0.31,0.45-0.72,0.81-1.22,1.1c-0.5,0.28-1.11,0.42-1.84,0.42c-0.65,0-1.21-0.14-1.67-0.42
				c-0.46-0.28-0.84-0.65-1.14-1.1c-0.3-0.45-0.51-0.96-0.65-1.53S-360.03,337.45-360.03,336.87z M-351.06,342.48v-15.51h-1.37v6.43
				h-0.04c-0.14-0.41-0.35-0.76-0.62-1.06c-0.27-0.3-0.58-0.56-0.92-0.77c-0.35-0.21-0.72-0.37-1.12-0.47
				c-0.4-0.1-0.81-0.15-1.23-0.15c-0.85,0-1.6,0.16-2.23,0.48s-1.15,0.75-1.57,1.29c-0.42,0.54-0.73,1.17-0.93,1.89
				c-0.2,0.72-0.3,1.47-0.3,2.27c0,0.8,0.1,1.55,0.3,2.27c0.2,0.72,0.51,1.35,0.93,1.89c0.42,0.54,0.94,0.97,1.57,1.28
				c0.63,0.31,1.37,0.47,2.23,0.47c0.41,0,0.81-0.06,1.23-0.17c0.41-0.12,0.8-0.28,1.16-0.49c0.36-0.21,0.68-0.47,0.97-0.77
				c0.28-0.3,0.5-0.64,0.64-1h0.04v2.13H-351.06z M-368.27,330.94c-0.85,0-1.61,0.16-2.27,0.48s-1.21,0.75-1.66,1.28
				c-0.45,0.54-0.79,1.16-1.02,1.88c-0.23,0.72-0.35,1.48-0.35,2.29c0,0.81,0.12,1.57,0.35,2.29c0.23,0.72,0.57,1.34,1.02,1.88
				c0.45,0.54,1,0.96,1.66,1.27c0.66,0.31,1.42,0.47,2.27,0.47s1.61-0.16,2.27-0.47c0.66-0.31,1.21-0.73,1.66-1.27
				c0.45-0.54,0.79-1.16,1.02-1.88c0.23-0.72,0.35-1.48,0.35-2.29c0-0.81-0.12-1.57-0.35-2.29c-0.23-0.72-0.57-1.34-1.02-1.88
				c-0.45-0.54-1-0.96-1.66-1.28S-367.41,330.94-368.27,330.94z M-368.27,332.09c0.65,0,1.22,0.14,1.72,0.41
				c0.49,0.28,0.9,0.64,1.23,1.09c0.33,0.45,0.57,0.96,0.74,1.53c0.17,0.57,0.25,1.15,0.25,1.75c0,0.59-0.08,1.18-0.25,1.75
				c-0.17,0.57-0.41,1.08-0.74,1.53c-0.33,0.45-0.73,0.81-1.23,1.09c-0.49,0.28-1.06,0.41-1.72,0.41c-0.65,0-1.22-0.14-1.72-0.41
				c-0.49-0.28-0.9-0.64-1.23-1.09s-0.57-0.96-0.74-1.53c-0.17-0.57-0.25-1.15-0.25-1.75c0-0.59,0.08-1.18,0.25-1.75
				c0.17-0.57,0.41-1.08,0.74-1.53s0.73-0.81,1.23-1.09C-369.49,332.23-368.92,332.09-368.27,332.09z M-379.45,331.27v11.21h1.37
				v-5.97c0-0.59,0.1-1.14,0.3-1.64c0.2-0.5,0.49-0.93,0.86-1.29c0.37-0.36,0.81-0.64,1.31-0.84c0.51-0.2,1.07-0.28,1.69-0.25v-1.37
				c-1.01-0.04-1.89,0.18-2.62,0.67c-0.73,0.49-1.27,1.19-1.62,2.11h-0.04v-2.63H-379.45z M-392.88,326.97v15.51h1.48v-6.65h5.41
				c0.7,0,1.32-0.1,1.89-0.29c0.56-0.2,1.05-0.49,1.46-0.87c0.41-0.38,0.72-0.85,0.93-1.4c0.22-0.55,0.33-1.17,0.33-1.87
				c0-0.7-0.11-1.32-0.33-1.87c-0.22-0.55-0.53-1.02-0.93-1.4c-0.41-0.38-0.89-0.67-1.46-0.87s-1.19-0.29-1.89-0.29H-392.88z
				 M-391.4,334.57v-6.34h5.08c1.03,0,1.86,0.26,2.5,0.78c0.64,0.52,0.96,1.32,0.96,2.39c0,1.07-0.32,1.87-0.96,2.39
				s-1.47,0.78-2.5,0.78H-391.4z M-410.86,331.27v11.21h1.37v-6.54c0.01-0.55,0.1-1.06,0.27-1.53c0.17-0.47,0.4-0.88,0.7-1.22
				c0.3-0.34,0.66-0.61,1.09-0.8c0.43-0.2,0.92-0.29,1.47-0.29c0.55,0,1.01,0.09,1.38,0.26c0.37,0.17,0.66,0.41,0.88,0.72
				c0.22,0.3,0.37,0.66,0.46,1.08c0.09,0.41,0.13,0.86,0.13,1.34v6.99h1.37v-7.21c0-0.67-0.07-1.27-0.2-1.8
				c-0.13-0.54-0.35-0.99-0.67-1.36c-0.32-0.37-0.74-0.66-1.27-0.86c-0.53-0.2-1.18-0.3-1.97-0.3c-0.8,0-1.53,0.21-2.19,0.62
				c-0.67,0.41-1.13,0.96-1.39,1.64h-0.04v-1.93H-410.86z M-414.95,336.35v1.78c0,0.55-0.1,1.04-0.31,1.48s-0.49,0.8-0.85,1.11
				c-0.35,0.3-0.77,0.54-1.25,0.7s-0.98,0.24-1.5,0.24c-0.32,0-0.63-0.05-0.93-0.15c-0.3-0.1-0.57-0.25-0.8-0.45
				c-0.23-0.2-0.42-0.43-0.55-0.7c-0.14-0.27-0.21-0.58-0.21-0.92c0-0.55,0.16-0.97,0.49-1.27c0.33-0.3,0.74-0.52,1.25-0.68
				c0.51-0.16,1.07-0.28,1.68-0.36c0.62-0.08,1.21-0.17,1.79-0.27c0.19-0.03,0.41-0.08,0.65-0.15c0.25-0.07,0.41-0.19,0.5-0.35
				H-414.95z M-422.24,334.7h1.37c0.03-0.91,0.32-1.57,0.87-1.99c0.55-0.41,1.26-0.62,2.13-0.62c0.41,0,0.79,0.03,1.14,0.1
				c0.35,0.07,0.67,0.18,0.93,0.36c0.27,0.17,0.48,0.41,0.63,0.71c0.15,0.3,0.23,0.68,0.23,1.14c0,0.3-0.04,0.55-0.12,0.74
				c-0.08,0.19-0.19,0.34-0.34,0.45c-0.14,0.11-0.33,0.18-0.54,0.23c-0.22,0.04-0.47,0.08-0.76,0.11c-0.74,0.09-1.47,0.18-2.18,0.27
				c-0.72,0.09-1.36,0.26-1.93,0.49c-0.57,0.23-1.03,0.57-1.38,1.01c-0.35,0.44-0.52,1.05-0.52,1.84c0,0.56,0.1,1.05,0.29,1.47
				c0.2,0.41,0.46,0.75,0.8,1.02c0.34,0.27,0.74,0.46,1.19,0.59c0.46,0.12,0.94,0.18,1.47,0.18c0.55,0,1.02-0.05,1.42-0.15
				c0.4-0.1,0.75-0.25,1.06-0.43c0.31-0.19,0.59-0.42,0.85-0.71c0.25-0.28,0.5-0.6,0.75-0.97h0.04c0,0.29,0.02,0.55,0.05,0.79
				c0.04,0.24,0.11,0.45,0.23,0.62c0.12,0.17,0.28,0.31,0.49,0.4c0.21,0.09,0.49,0.14,0.84,0.14c0.19,0,0.34-0.01,0.47-0.02
				c0.12-0.01,0.26-0.04,0.42-0.07v-1.15c-0.13,0.06-0.28,0.09-0.43,0.09c-0.54,0-0.8-0.28-0.8-0.83v-5.95
				c0-0.75-0.12-1.36-0.37-1.84c-0.25-0.47-0.56-0.84-0.96-1.1c-0.39-0.26-0.83-0.44-1.33-0.53c-0.49-0.09-0.98-0.14-1.48-0.14
				c-0.65,0-1.25,0.07-1.78,0.22c-0.54,0.14-1,0.37-1.4,0.67c-0.4,0.3-0.71,0.7-0.94,1.17S-422.2,334.05-422.24,334.7z
				 M-429.46,330.94c-0.85,0-1.61,0.16-2.27,0.48s-1.21,0.75-1.66,1.28c-0.45,0.54-0.79,1.16-1.02,1.88
				c-0.23,0.72-0.35,1.48-0.35,2.29c0,0.81,0.12,1.57,0.35,2.29c0.23,0.72,0.57,1.34,1.02,1.88c0.45,0.54,1,0.96,1.66,1.27
				c0.66,0.31,1.42,0.47,2.27,0.47s1.61-0.16,2.27-0.47c0.66-0.31,1.21-0.73,1.66-1.27c0.45-0.54,0.79-1.16,1.02-1.88
				c0.23-0.72,0.35-1.48,0.35-2.29c0-0.81-0.12-1.57-0.35-2.29c-0.23-0.72-0.57-1.34-1.02-1.88c-0.45-0.54-1-0.96-1.66-1.28
				S-428.6,330.94-429.46,330.94z M-429.46,332.09c0.65,0,1.22,0.14,1.72,0.41c0.49,0.28,0.9,0.64,1.23,1.09
				c0.33,0.45,0.57,0.96,0.74,1.53c0.17,0.57,0.25,1.15,0.25,1.75c0,0.59-0.08,1.18-0.25,1.75c-0.17,0.57-0.41,1.08-0.74,1.53
				c-0.33,0.45-0.73,0.81-1.23,1.09c-0.49,0.28-1.06,0.41-1.72,0.41s-1.22-0.14-1.72-0.41c-0.49-0.28-0.9-0.64-1.23-1.09
				c-0.33-0.45-0.57-0.96-0.74-1.53c-0.17-0.57-0.25-1.15-0.25-1.75c0-0.59,0.08-1.18,0.25-1.75c0.17-0.57,0.41-1.08,0.74-1.53
				c0.33-0.45,0.73-0.81,1.23-1.09C-430.68,332.23-430.11,332.09-429.46,332.09z M-445.59,326.97v15.51h10.17v-1.26h-8.69v-14.25
				H-445.59z"/>
		</defs>
		<clipPath id="SVGID_6_">
			<use xlink:href="#SVGID_5_"  style="overflow:visible;"/>
		</clipPath>
		<g class="st2">
			<defs>
				<rect id="SVGID_7_" x="-879.61" y="-582.65" width="1263.78" height="1778.17"/>
			</defs>
			<clipPath id="SVGID_8_">
				<use xlink:href="#SVGID_7_"  style="overflow:visible;"/>
			</clipPath>
			<rect x="-450.53" y="322.03" class="st3" width="210.71" height="25.69"/>
		</g>
	</g>
	<g>
		<path class="st4" d="M-345.18,242.24c-18.81,0-34.06,15.25-34.06,34.06c0,18.81,15.25,34.06,34.06,34.06
			c18.81,0,34.06-15.25,34.06-34.06C-311.12,257.49-326.36,242.24-345.18,242.24z M-345.18,308.47c-17.74,0-32.17-14.43-32.17-32.17
			c0-17.74,14.43-32.18,32.17-32.18c17.74,0,32.17,14.43,32.17,32.18C-313.01,294.04-327.44,308.47-345.18,308.47z"/>
		<path class="st4" d="M-324.3,263.03l-10.15-5.86c-0.28-0.16-0.63-0.16-0.91,0l-9.68,5.58l-9.68-5.59c-0.28-0.16-0.63-0.16-0.91,0
			l-10.08,5.82c-0.01,0-0.01,0-0.01,0.01c-0.28,0.16-0.46,0.46-0.46,0.79v11.65c0,0.33,0.17,0.62,0.46,0.79l9.68,5.59v11
			c0,0.32,0.17,0.62,0.45,0.79l10.11,5.83c0.01,0.01,0.02,0.02,0.03,0.03c0.14,0.08,0.3,0.12,0.45,0.12c0.16,0,0.31-0.04,0.45-0.12
			l10.09-5.82c0.28-0.16,0.46-0.46,0.46-0.79v-11l9.67-5.58c0.28-0.16,0.46-0.46,0.46-0.79v-11.64c0-0.01,0-0.01,0-0.02
			C-323.85,263.49-324.02,263.19-324.3,263.03z M-345.93,274.78l-8.27,4.77v-9.39l8.27-4.77V274.78z M-344.97,276.49l8.19,4.73
			l-8.18,4.72l-0.02,0.01l-8.2-4.73L-344.97,276.49z M-335.75,270.16v9.47l-8.33-4.81v-9.47l7.87,4.55L-335.75,270.16z M-334.91,259
			l8.34,4.81l-8.27,4.77l-2.43-1.4l-5.9-3.41L-334.91,259z M-355.17,259l8.34,4.81l-8.27,4.78l-8.34-4.81L-355.17,259z
			 M-364.35,265.35l8.34,4.81l0,9.55l-8.33-4.81V265.35z M-354.22,282.72l8.33,4.81v9.55l-8.33-4.81V282.72z M-335.8,292.31
			l-8.27,4.77v-9.55l8.27-4.77V292.31z M-325.67,274.94l-8.27,4.77v-9.55l8.27-4.77V274.94z"/>
	</g>
	<g>
		<path class="st5" d="M-450.52,360.58h7.08v1.49h-5.36v2.57h4.96v1.41h-4.96v2.88h5.46v1.49h-7.18V360.58z"/>
		<path class="st5" d="M-442.07,363.29h1.49v1.05l0.03,0.03c0.24-0.4,0.55-0.71,0.94-0.93s0.81-0.34,1.28-0.34
			c0.78,0,1.39,0.2,1.85,0.61c0.45,0.4,0.68,1.01,0.68,1.82v4.89h-1.57v-4.48c-0.02-0.56-0.14-0.96-0.36-1.22
			c-0.22-0.25-0.57-0.38-1.03-0.38c-0.27,0-0.5,0.05-0.72,0.15c-0.21,0.1-0.39,0.23-0.54,0.4c-0.15,0.17-0.26,0.37-0.35,0.6
			c-0.08,0.23-0.12,0.47-0.12,0.73v4.2h-1.57V363.29z"/>
		<path class="st5" d="M-434.16,360.58h1.57v3.65h0.03c0.19-0.32,0.48-0.59,0.86-0.81c0.38-0.22,0.81-0.32,1.27-0.32
			c0.78,0,1.39,0.2,1.85,0.61c0.45,0.4,0.68,1.01,0.68,1.82v4.89h-1.57v-4.48c-0.02-0.56-0.14-0.96-0.36-1.22
			c-0.22-0.25-0.57-0.38-1.03-0.38c-0.27,0-0.5,0.05-0.72,0.15c-0.21,0.1-0.39,0.23-0.54,0.4c-0.15,0.17-0.26,0.37-0.35,0.6
			c-0.08,0.23-0.12,0.47-0.12,0.73v4.2h-1.57V360.58z"/>
		<path class="st5" d="M-420.29,368.83c0,0.19,0.02,0.33,0.07,0.41c0.05,0.08,0.15,0.12,0.3,0.12c0.05,0,0.1,0,0.16,0
			c0.06,0,0.14-0.01,0.22-0.03v1.09c-0.06,0.02-0.13,0.04-0.21,0.06c-0.09,0.02-0.18,0.04-0.27,0.06c-0.09,0.02-0.18,0.03-0.28,0.04
			c-0.09,0.01-0.17,0.02-0.23,0.02c-0.32,0-0.59-0.07-0.8-0.19c-0.21-0.13-0.35-0.35-0.41-0.68c-0.31,0.3-0.7,0.52-1.15,0.66
			c-0.45,0.14-0.89,0.21-1.31,0.21c-0.32,0-0.63-0.04-0.92-0.13c-0.3-0.09-0.55-0.21-0.78-0.39c-0.22-0.17-0.4-0.39-0.54-0.65
			c-0.13-0.26-0.2-0.57-0.2-0.92c0-0.44,0.08-0.8,0.24-1.07c0.16-0.27,0.37-0.49,0.63-0.65c0.26-0.16,0.55-0.27,0.88-0.34
			c0.33-0.07,0.65-0.12,0.99-0.16c0.28-0.06,0.55-0.09,0.81-0.12c0.26-0.02,0.49-0.06,0.68-0.12c0.2-0.06,0.35-0.14,0.47-0.26
			c0.12-0.11,0.17-0.29,0.17-0.52c0-0.2-0.05-0.37-0.15-0.49c-0.1-0.13-0.21-0.23-0.36-0.3c-0.14-0.07-0.3-0.12-0.48-0.14
			c-0.17-0.02-0.34-0.03-0.5-0.03c-0.44,0-0.8,0.09-1.09,0.28s-0.45,0.47-0.48,0.85h-1.57c0.03-0.46,0.14-0.84,0.33-1.14
			c0.19-0.3,0.44-0.55,0.74-0.73c0.3-0.18,0.63-0.31,1.01-0.39c0.38-0.07,0.76-0.11,1.16-0.11c0.35,0,0.69,0.04,1.03,0.11
			c0.34,0.07,0.64,0.19,0.92,0.36c0.27,0.16,0.49,0.38,0.65,0.64c0.16,0.26,0.25,0.58,0.25,0.96V368.83z M-421.86,366.84
			c-0.24,0.16-0.53,0.25-0.88,0.28c-0.35,0.03-0.7,0.08-1.05,0.15c-0.16,0.03-0.33,0.07-0.48,0.12c-0.16,0.05-0.29,0.12-0.41,0.21
			c-0.12,0.09-0.21,0.2-0.28,0.34s-0.1,0.31-0.1,0.52c0,0.17,0.05,0.32,0.15,0.44c0.1,0.12,0.22,0.21,0.37,0.28
			c0.14,0.07,0.3,0.12,0.47,0.15c0.17,0.03,0.32,0.04,0.46,0.04c0.17,0,0.36-0.02,0.57-0.07c0.2-0.05,0.39-0.12,0.57-0.23
			c0.18-0.11,0.33-0.25,0.45-0.42c0.12-0.17,0.18-0.38,0.18-0.63V366.84z"/>
		<path class="st5" d="M-418.6,363.29h1.49v1.05l0.03,0.03c0.24-0.4,0.55-0.71,0.94-0.93s0.81-0.34,1.28-0.34
			c0.78,0,1.39,0.2,1.85,0.61c0.45,0.4,0.68,1.01,0.68,1.82v4.89h-1.57v-4.48c-0.02-0.56-0.14-0.96-0.36-1.22
			c-0.22-0.25-0.57-0.38-1.03-0.38c-0.27,0-0.5,0.05-0.72,0.15c-0.21,0.1-0.39,0.23-0.54,0.4c-0.15,0.17-0.26,0.37-0.35,0.6
			c-0.08,0.23-0.12,0.47-0.12,0.73v4.2h-1.57V363.29z"/>
		<path class="st5" d="M-405.88,365.67c-0.07-0.44-0.24-0.77-0.53-1c-0.29-0.22-0.65-0.34-1.09-0.34c-0.2,0-0.42,0.03-0.65,0.1
			c-0.23,0.07-0.44,0.2-0.63,0.39c-0.19,0.19-0.35,0.45-0.48,0.79c-0.13,0.33-0.19,0.77-0.19,1.31c0,0.3,0.03,0.59,0.1,0.88
			s0.18,0.56,0.33,0.78c0.15,0.23,0.35,0.42,0.59,0.56c0.24,0.14,0.53,0.21,0.87,0.21c0.46,0,0.84-0.14,1.14-0.43
			c0.3-0.29,0.48-0.68,0.56-1.2h1.57c-0.15,0.93-0.5,1.64-1.05,2.13c-0.56,0.49-1.29,0.74-2.21,0.74c-0.56,0-1.06-0.1-1.48-0.28
			c-0.43-0.19-0.79-0.45-1.08-0.77c-0.29-0.33-0.52-0.71-0.67-1.16c-0.15-0.45-0.23-0.94-0.23-1.46c0-0.53,0.07-1.03,0.22-1.5
			c0.15-0.47,0.37-0.87,0.66-1.22c0.29-0.34,0.66-0.61,1.1-0.81c0.44-0.2,0.95-0.3,1.53-0.3c0.41,0,0.81,0.05,1.18,0.16
			s0.7,0.26,0.99,0.47c0.29,0.21,0.53,0.48,0.71,0.8c0.18,0.32,0.29,0.7,0.33,1.14H-405.88z"/>
		<path class="st5" d="M-401.81,367.26c0,0.27,0.04,0.54,0.12,0.8c0.08,0.26,0.2,0.48,0.35,0.68c0.16,0.19,0.35,0.35,0.59,0.46
			c0.24,0.11,0.52,0.17,0.85,0.17c0.46,0,0.83-0.1,1.11-0.3s0.49-0.49,0.63-0.89h1.49c-0.08,0.39-0.22,0.73-0.43,1.03
			c-0.2,0.3-0.45,0.56-0.73,0.77c-0.28,0.21-0.6,0.36-0.96,0.47c-0.35,0.11-0.72,0.16-1.11,0.16c-0.56,0-1.06-0.09-1.49-0.28
			c-0.43-0.18-0.8-0.44-1.09-0.77c-0.3-0.33-0.52-0.73-0.68-1.19c-0.15-0.46-0.23-0.96-0.23-1.52c0-0.5,0.08-0.98,0.24-1.44
			c0.16-0.45,0.39-0.85,0.69-1.2c0.3-0.34,0.66-0.62,1.08-0.82c0.42-0.2,0.9-0.3,1.43-0.3c0.56,0,1.06,0.12,1.51,0.35
			c0.45,0.23,0.81,0.54,1.11,0.93c0.29,0.39,0.51,0.83,0.64,1.33c0.13,0.5,0.17,1.02,0.1,1.55H-401.81z M-398.14,366.22
			c-0.02-0.25-0.07-0.49-0.16-0.72c-0.09-0.23-0.21-0.43-0.36-0.6c-0.15-0.17-0.34-0.31-0.55-0.41c-0.21-0.11-0.46-0.16-0.72-0.16
			c-0.27,0-0.53,0.05-0.75,0.15s-0.42,0.23-0.58,0.4c-0.16,0.17-0.29,0.37-0.39,0.6c-0.1,0.23-0.15,0.48-0.16,0.74H-398.14z"/>
		<path class="st5" d="M-388.67,370.41h-1.49v-0.96h-0.03c-0.21,0.41-0.52,0.71-0.92,0.89c-0.4,0.18-0.83,0.27-1.28,0.27
			c-0.56,0-1.05-0.1-1.47-0.3c-0.42-0.2-0.76-0.47-1.04-0.81c-0.27-0.34-0.48-0.74-0.62-1.2s-0.21-0.96-0.21-1.49
			c0-0.64,0.09-1.2,0.26-1.67s0.41-0.85,0.69-1.16c0.29-0.3,0.62-0.53,0.99-0.67c0.37-0.14,0.75-0.21,1.14-0.21
			c0.22,0,0.45,0.02,0.68,0.06c0.23,0.04,0.45,0.11,0.66,0.2c0.21,0.09,0.41,0.21,0.59,0.35c0.18,0.14,0.33,0.31,0.45,0.5h0.03
			v-3.64h1.57V370.41z M-394.15,366.93c0,0.3,0.04,0.6,0.12,0.9c0.08,0.29,0.2,0.56,0.36,0.78c0.16,0.23,0.36,0.41,0.61,0.55
			c0.25,0.14,0.54,0.21,0.88,0.21c0.35,0,0.65-0.07,0.9-0.22c0.25-0.15,0.46-0.34,0.62-0.58c0.16-0.24,0.28-0.51,0.36-0.81
			c0.08-0.3,0.12-0.6,0.12-0.92c0-0.79-0.18-1.4-0.53-1.85c-0.35-0.44-0.83-0.66-1.44-0.66c-0.37,0-0.68,0.08-0.93,0.23
			c-0.25,0.15-0.46,0.35-0.62,0.59c-0.16,0.24-0.27,0.52-0.34,0.82C-394.12,366.29-394.15,366.61-394.15,366.93z"/>
		<path class="st5" d="M-383.02,360.58h1.72v5.73c0,0.33,0.02,0.67,0.05,1.01c0.03,0.34,0.12,0.65,0.28,0.92
			c0.15,0.27,0.38,0.49,0.69,0.67c0.31,0.17,0.74,0.26,1.3,0.26s0.99-0.09,1.3-0.26c0.31-0.17,0.54-0.4,0.69-0.67
			c0.15-0.27,0.24-0.58,0.27-0.92c0.03-0.34,0.05-0.67,0.05-1.01v-5.73h1.72v6.3c0,0.63-0.1,1.18-0.29,1.65
			c-0.19,0.47-0.47,0.86-0.82,1.18c-0.35,0.32-0.78,0.55-1.27,0.71c-0.5,0.16-1.05,0.23-1.65,0.23c-0.61,0-1.16-0.08-1.65-0.23
			c-0.49-0.16-0.92-0.39-1.27-0.71c-0.35-0.32-0.63-0.71-0.82-1.18c-0.19-0.47-0.29-1.02-0.29-1.65V360.58z"/>
		<path class="st5" d="M-373.19,363.29h1.49v1.05l0.03,0.03c0.24-0.4,0.55-0.71,0.94-0.93s0.81-0.34,1.28-0.34
			c0.78,0,1.39,0.2,1.85,0.61c0.45,0.4,0.68,1.01,0.68,1.82v4.89h-1.57v-4.48c-0.02-0.56-0.14-0.96-0.36-1.22
			c-0.22-0.25-0.57-0.38-1.03-0.38c-0.27,0-0.5,0.05-0.72,0.15c-0.21,0.1-0.39,0.23-0.54,0.4c-0.15,0.17-0.26,0.37-0.35,0.6
			c-0.08,0.23-0.12,0.47-0.12,0.73v4.2h-1.57V363.29z"/>
		<path class="st5" d="M-358.57,370.41h-1.49v-0.96h-0.03c-0.21,0.41-0.52,0.71-0.92,0.89c-0.4,0.18-0.83,0.27-1.28,0.27
			c-0.56,0-1.05-0.1-1.47-0.3c-0.42-0.2-0.76-0.47-1.04-0.81c-0.27-0.34-0.48-0.74-0.62-1.2c-0.14-0.46-0.21-0.96-0.21-1.49
			c0-0.64,0.09-1.2,0.26-1.67c0.17-0.47,0.41-0.85,0.69-1.16c0.29-0.3,0.62-0.53,0.99-0.67c0.37-0.14,0.75-0.21,1.14-0.21
			c0.22,0,0.45,0.02,0.68,0.06c0.23,0.04,0.45,0.11,0.66,0.2c0.21,0.09,0.41,0.21,0.59,0.35c0.18,0.14,0.33,0.31,0.45,0.5h0.03
			v-3.64h1.57V370.41z M-364.06,366.93c0,0.3,0.04,0.6,0.12,0.9s0.2,0.56,0.36,0.78c0.16,0.23,0.36,0.41,0.61,0.55
			c0.25,0.14,0.54,0.21,0.88,0.21c0.35,0,0.65-0.07,0.9-0.22c0.25-0.15,0.46-0.34,0.62-0.58c0.16-0.24,0.28-0.51,0.36-0.81
			c0.08-0.3,0.12-0.6,0.12-0.92c0-0.79-0.18-1.4-0.53-1.85c-0.35-0.44-0.83-0.66-1.44-0.66c-0.37,0-0.68,0.08-0.93,0.23
			c-0.25,0.15-0.46,0.35-0.62,0.59c-0.16,0.24-0.27,0.52-0.34,0.82C-364.02,366.29-364.06,366.61-364.06,366.93z"/>
		<path class="st5" d="M-355.64,367.26c0,0.27,0.04,0.54,0.12,0.8c0.08,0.26,0.2,0.48,0.35,0.68c0.16,0.19,0.35,0.35,0.59,0.46
			c0.24,0.11,0.52,0.17,0.85,0.17c0.46,0,0.83-0.1,1.11-0.3s0.49-0.49,0.63-0.89h1.49c-0.08,0.39-0.22,0.73-0.43,1.03
			c-0.2,0.3-0.45,0.56-0.73,0.77c-0.28,0.21-0.6,0.36-0.96,0.47c-0.35,0.11-0.72,0.16-1.11,0.16c-0.56,0-1.06-0.09-1.49-0.28
			c-0.43-0.18-0.8-0.44-1.09-0.77c-0.3-0.33-0.52-0.73-0.68-1.19c-0.15-0.46-0.23-0.96-0.23-1.52c0-0.5,0.08-0.98,0.24-1.44
			c0.16-0.45,0.39-0.85,0.69-1.2c0.3-0.34,0.66-0.62,1.08-0.82c0.42-0.2,0.9-0.3,1.43-0.3c0.56,0,1.06,0.12,1.51,0.35
			c0.45,0.23,0.81,0.54,1.11,0.93c0.29,0.39,0.51,0.83,0.64,1.33c0.13,0.5,0.17,1.02,0.1,1.55H-355.64z M-351.97,366.22
			c-0.02-0.25-0.07-0.49-0.16-0.72c-0.09-0.23-0.21-0.43-0.36-0.6c-0.15-0.17-0.34-0.31-0.55-0.41c-0.21-0.11-0.46-0.16-0.72-0.16
			c-0.27,0-0.53,0.05-0.75,0.15s-0.42,0.23-0.58,0.4c-0.16,0.17-0.29,0.37-0.39,0.6c-0.1,0.23-0.15,0.48-0.16,0.74H-351.97z"/>
		<path class="st5" d="M-349.21,363.29h1.47v1.38h0.03c0.04-0.19,0.13-0.38,0.27-0.57c0.13-0.18,0.29-0.35,0.48-0.5
			c0.19-0.15,0.4-0.27,0.63-0.36c0.23-0.09,0.46-0.14,0.7-0.14c0.18,0,0.31,0.01,0.38,0.01c0.07,0.01,0.14,0.02,0.21,0.03v1.52
			c-0.11-0.02-0.22-0.03-0.34-0.05c-0.12-0.01-0.23-0.02-0.34-0.02c-0.27,0-0.52,0.05-0.75,0.16c-0.23,0.11-0.44,0.26-0.61,0.47
			c-0.17,0.21-0.31,0.46-0.41,0.77c-0.1,0.3-0.15,0.65-0.15,1.05v3.39h-1.57V363.29z"/>
		<path class="st5" d="M-345.01,363.29h1.67l1.39,5.32h0.03l1.34-5.32h1.58l1.28,5.32h0.03l1.45-5.32h1.6l-2.23,7.12h-1.61
			l-1.32-5.29h-0.03l-1.31,5.29h-1.65L-345.01,363.29z"/>
		<path class="st5" d="M-333.64,363.29h1.47v1.38h0.03c0.04-0.19,0.13-0.38,0.27-0.57c0.13-0.18,0.29-0.35,0.48-0.5
			c0.19-0.15,0.4-0.27,0.63-0.36c0.23-0.09,0.46-0.14,0.7-0.14c0.18,0,0.31,0.01,0.38,0.01c0.07,0.01,0.14,0.02,0.21,0.03v1.52
			c-0.11-0.02-0.22-0.03-0.34-0.05c-0.12-0.01-0.23-0.02-0.34-0.02c-0.27,0-0.52,0.05-0.75,0.16s-0.44,0.26-0.61,0.47
			c-0.17,0.21-0.31,0.46-0.41,0.77c-0.1,0.3-0.15,0.65-0.15,1.05v3.39h-1.57V363.29z"/>
		<path class="st5" d="M-328.75,360.58h1.57v1.49h-1.57V360.58z M-328.75,363.29h1.57v7.12h-1.57V363.29z"/>
		<path class="st5" d="M-326.19,363.29h1.19v-2.13h1.57v2.13h1.42v1.17h-1.42v3.8c0,0.16,0.01,0.31,0.02,0.43
			c0.01,0.12,0.05,0.22,0.1,0.3c0.05,0.08,0.12,0.15,0.23,0.19c0.1,0.04,0.24,0.06,0.41,0.06c0.11,0,0.22,0,0.33-0.01
			c0.11,0,0.22-0.02,0.33-0.05v1.21c-0.17,0.02-0.34,0.04-0.51,0.06c-0.16,0.02-0.33,0.03-0.51,0.03c-0.41,0-0.75-0.04-1-0.12
			c-0.25-0.08-0.45-0.19-0.59-0.35c-0.14-0.15-0.24-0.34-0.29-0.57c-0.05-0.23-0.08-0.49-0.09-0.78v-4.2h-1.19V363.29z"/>
		<path class="st5" d="M-320.85,360.58h1.57v1.49h-1.57V360.58z M-320.85,363.29h1.57v7.12h-1.57V363.29z"/>
		<path class="st5" d="M-317.57,363.29h1.49v1.05l0.03,0.03c0.24-0.4,0.55-0.71,0.94-0.93s0.81-0.34,1.28-0.34
			c0.78,0,1.39,0.2,1.85,0.61c0.45,0.4,0.68,1.01,0.68,1.82v4.89h-1.57v-4.48c-0.02-0.56-0.14-0.96-0.36-1.22
			c-0.22-0.25-0.57-0.38-1.03-0.38c-0.27,0-0.5,0.05-0.72,0.15c-0.21,0.1-0.39,0.23-0.54,0.4c-0.15,0.17-0.26,0.37-0.35,0.6
			c-0.08,0.23-0.12,0.47-0.12,0.73v4.2h-1.57V363.29z"/>
		<path class="st5" d="M-303.08,370.04c0,1.07-0.3,1.88-0.9,2.4c-0.6,0.53-1.47,0.79-2.6,0.79c-0.36,0-0.72-0.04-1.08-0.11
			c-0.36-0.07-0.69-0.2-0.99-0.37c-0.3-0.17-0.55-0.4-0.75-0.69c-0.2-0.29-0.32-0.63-0.36-1.05h1.57c0.05,0.22,0.12,0.4,0.23,0.54
			c0.11,0.14,0.24,0.25,0.39,0.32c0.15,0.08,0.32,0.13,0.5,0.15c0.18,0.02,0.38,0.03,0.58,0.03c0.63,0,1.1-0.16,1.39-0.47
			c0.29-0.31,0.44-0.76,0.44-1.35v-1.09h-0.03c-0.22,0.39-0.52,0.7-0.9,0.92c-0.38,0.22-0.79,0.33-1.23,0.33
			c-0.57,0-1.05-0.1-1.45-0.3c-0.4-0.2-0.73-0.47-0.99-0.81c-0.26-0.35-0.45-0.74-0.57-1.19c-0.12-0.45-0.18-0.93-0.18-1.45
			c0-0.48,0.07-0.93,0.22-1.36c0.15-0.43,0.36-0.81,0.63-1.14c0.27-0.33,0.61-0.59,1.01-0.78c0.4-0.19,0.85-0.29,1.36-0.29
			c0.45,0,0.86,0.09,1.24,0.28c0.38,0.19,0.67,0.49,0.87,0.89h0.03v-0.98h1.57V370.04z M-306.56,369.17c0.35,0,0.65-0.07,0.89-0.21
			c0.24-0.14,0.44-0.33,0.59-0.56c0.15-0.23,0.26-0.5,0.33-0.8c0.07-0.3,0.1-0.6,0.1-0.9s-0.04-0.6-0.11-0.88
			c-0.07-0.29-0.19-0.54-0.34-0.76s-0.35-0.4-0.59-0.52c-0.24-0.13-0.54-0.19-0.87-0.19c-0.35,0-0.64,0.07-0.88,0.22
			c-0.24,0.15-0.43,0.34-0.58,0.57c-0.15,0.23-0.25,0.5-0.32,0.8c-0.06,0.3-0.1,0.59-0.1,0.89c0,0.29,0.04,0.58,0.11,0.86
			c0.07,0.28,0.19,0.53,0.34,0.75c0.15,0.22,0.35,0.4,0.58,0.54C-307.18,369.1-306.89,369.17-306.56,369.17z"/>
		<path class="st5" d="M-298.41,360.58h1.75l1.78,7.52h0.03l1.98-7.52h1.76l1.93,7.52h0.03l1.83-7.52h1.75l-2.71,9.83h-1.75
			l-1.97-7.52h-0.03l-2.01,7.52h-1.78L-298.41,360.58z"/>
		<path class="st5" d="M-281.65,370.61c-0.57,0-1.08-0.1-1.52-0.28c-0.45-0.19-0.82-0.45-1.13-0.78c-0.31-0.33-0.54-0.73-0.7-1.19
			c-0.16-0.46-0.24-0.96-0.24-1.52c0-0.54,0.08-1.04,0.24-1.5c0.16-0.46,0.4-0.86,0.7-1.19c0.31-0.33,0.68-0.59,1.13-0.78
			c0.45-0.19,0.95-0.28,1.52-0.28c0.57,0,1.08,0.09,1.52,0.28c0.45,0.19,0.82,0.45,1.13,0.78c0.31,0.33,0.54,0.73,0.7,1.19
			c0.16,0.46,0.24,0.96,0.24,1.5c0,0.55-0.08,1.06-0.24,1.52c-0.16,0.46-0.4,0.85-0.7,1.19c-0.31,0.33-0.68,0.59-1.13,0.78
			C-280.57,370.51-281.08,370.61-281.65,370.61z M-281.65,369.36c0.35,0,0.65-0.07,0.91-0.22c0.26-0.15,0.47-0.34,0.63-0.58
			c0.16-0.24,0.29-0.51,0.36-0.81c0.08-0.3,0.12-0.6,0.12-0.92c0-0.3-0.04-0.61-0.12-0.91s-0.2-0.57-0.36-0.81
			c-0.16-0.23-0.38-0.42-0.63-0.57c-0.26-0.15-0.56-0.22-0.91-0.22c-0.35,0-0.65,0.07-0.91,0.22c-0.26,0.15-0.47,0.34-0.63,0.57
			c-0.16,0.23-0.29,0.5-0.36,0.81s-0.12,0.61-0.12,0.91c0,0.31,0.04,0.62,0.12,0.92c0.08,0.3,0.2,0.57,0.36,0.81
			c0.17,0.24,0.38,0.43,0.63,0.58C-282.3,369.29-282,369.36-281.65,369.36z"/>
		<path class="st5" d="M-276.74,363.29h1.47v1.38h0.03c0.04-0.19,0.13-0.38,0.27-0.57c0.13-0.18,0.29-0.35,0.48-0.5
			c0.19-0.15,0.4-0.27,0.63-0.36c0.23-0.09,0.46-0.14,0.7-0.14c0.18,0,0.31,0.01,0.38,0.01c0.07,0.01,0.14,0.02,0.21,0.03v1.52
			c-0.11-0.02-0.22-0.03-0.34-0.05c-0.12-0.01-0.23-0.02-0.34-0.02c-0.27,0-0.52,0.05-0.75,0.16s-0.44,0.26-0.61,0.47
			c-0.17,0.21-0.31,0.46-0.41,0.77c-0.1,0.3-0.15,0.65-0.15,1.05v3.39h-1.57V363.29z"/>
		<path class="st5" d="M-271.86,360.58h1.57v5.59l2.84-2.88h1.93l-2.73,2.62l2.99,4.5h-1.91l-2.18-3.46l-0.94,0.91v2.55h-1.57
			V360.58z"/>
		<path class="st5" d="M-265.2,363.29h1.17v-0.59c0-0.45,0.06-0.82,0.16-1.1c0.11-0.28,0.26-0.49,0.44-0.65
			c0.18-0.15,0.39-0.25,0.63-0.3c0.23-0.05,0.48-0.08,0.74-0.08c0.5,0,0.87,0.03,1.1,0.1v1.23c-0.1-0.03-0.21-0.05-0.32-0.06
			c-0.11-0.01-0.25-0.02-0.4-0.02c-0.21,0-0.39,0.05-0.54,0.15c-0.15,0.1-0.23,0.3-0.23,0.59v0.73h1.34v1.17h-1.34v5.95h-1.57v-5.95
			h-1.17V363.29z"/>
		<path class="st5" d="M-260.12,360.58h1.57v9.83h-1.57V360.58z"/>
		<path class="st5" d="M-253.58,370.61c-0.57,0-1.08-0.1-1.52-0.28c-0.45-0.19-0.82-0.45-1.13-0.78c-0.31-0.33-0.54-0.73-0.7-1.19
			c-0.16-0.46-0.24-0.96-0.24-1.52c0-0.54,0.08-1.04,0.24-1.5c0.16-0.46,0.4-0.86,0.7-1.19c0.31-0.33,0.68-0.59,1.13-0.78
			c0.45-0.19,0.95-0.28,1.52-0.28c0.57,0,1.08,0.09,1.52,0.28c0.45,0.19,0.82,0.45,1.13,0.78c0.31,0.33,0.54,0.73,0.7,1.19
			c0.16,0.46,0.24,0.96,0.24,1.5c0,0.55-0.08,1.06-0.24,1.52c-0.16,0.46-0.4,0.85-0.7,1.19c-0.31,0.33-0.68,0.59-1.13,0.78
			S-253.01,370.61-253.58,370.61z M-253.58,369.36c0.35,0,0.65-0.07,0.91-0.22c0.26-0.15,0.47-0.34,0.63-0.58
			c0.16-0.24,0.29-0.51,0.36-0.81c0.08-0.3,0.12-0.6,0.12-0.92c0-0.3-0.04-0.61-0.12-0.91c-0.08-0.3-0.2-0.57-0.36-0.81
			c-0.16-0.23-0.38-0.42-0.63-0.57c-0.26-0.15-0.56-0.22-0.91-0.22c-0.35,0-0.65,0.07-0.91,0.22c-0.26,0.15-0.47,0.34-0.63,0.57
			c-0.16,0.23-0.29,0.5-0.36,0.81c-0.08,0.3-0.12,0.61-0.12,0.91c0,0.31,0.04,0.62,0.12,0.92c0.08,0.3,0.2,0.57,0.36,0.81
			c0.17,0.24,0.38,0.43,0.63,0.58C-254.23,369.29-253.93,369.36-253.58,369.36z"/>
		<path class="st5" d="M-249.32,363.29h1.67l1.39,5.32h0.03l1.34-5.32h1.58l1.28,5.32h0.03l1.45-5.32h1.6l-2.23,7.12h-1.61
			l-1.32-5.29h-0.03l-1.31,5.29h-1.65L-249.32,363.29z"/>
	</g>
</g>
</svg>
