<?xml version="1.0" encoding="utf-8"?>
<!-- Generator: Adobe Illustrator 19.1.0, SVG Export Plug-In . SVG Version: 6.00 Build 0)  -->
<!DOCTYPE svg PUBLIC "-//W3C//DTD SVG 1.1//EN" "http://www.w3.org/Graphics/SVG/1.1/DTD/svg11.dtd">
<svg version="1.1" id="Layer_1" xmlns="http://www.w3.org/2000/svg" xmlns:xlink="http://www.w3.org/1999/xlink" x="0px" y="0px"
	 viewBox="0 0 503.33 61.67" style="enable-background:new 0 0 503.33 61.67;" xml:space="preserve">
<style type="text/css">
	.st0{fill:#91959C;}
	.st1{fill:#12A5DF;}
	.st2{fill:#88BD45;}
</style>
<rect x="214.29" y="4.23" class="st0" width="2.33" height="57.44"/>
<g>
	<path class="st0" d="M240.19,20.04v20.99h12.8v1.86h-14.98V20.04H240.19z"/>
	<path class="st0" d="M265.14,26.6c0.97,0.47,1.79,1.1,2.45,1.89c0.66,0.79,1.16,1.71,1.5,2.77c0.34,1.06,0.51,2.18,0.51,3.38
		c0,1.2-0.17,2.32-0.51,3.38c-0.34,1.06-0.84,1.98-1.5,2.77c-0.66,0.79-1.48,1.41-2.45,1.87c-0.97,0.46-2.09,0.69-3.34,0.69
		c-1.26,0-2.37-0.23-3.34-0.69c-0.97-0.46-1.79-1.08-2.45-1.87c-0.66-0.79-1.16-1.71-1.5-2.77c-0.34-1.06-0.51-2.18-0.51-3.38
		c0-1.19,0.17-2.32,0.51-3.38c0.34-1.06,0.84-1.98,1.5-2.77c0.66-0.79,1.48-1.42,2.45-1.89c0.97-0.47,2.08-0.7,3.34-0.7
		C263.05,25.89,264.17,26.13,265.14,26.6z M259.27,28.2c-0.73,0.41-1.33,0.94-1.81,1.6c-0.48,0.66-0.84,1.41-1.09,2.26
		c-0.25,0.84-0.37,1.7-0.37,2.58s0.12,1.73,0.37,2.58c0.24,0.84,0.61,1.59,1.09,2.26c0.48,0.66,1.08,1.2,1.81,1.6
		c0.72,0.41,1.57,0.61,2.53,0.61c0.96,0,1.8-0.2,2.53-0.61c0.73-0.4,1.33-0.94,1.81-1.6c0.48-0.66,0.84-1.41,1.09-2.26
		c0.25-0.84,0.37-1.7,0.37-2.58s-0.12-1.73-0.37-2.58c-0.25-0.84-0.61-1.59-1.09-2.26c-0.48-0.66-1.08-1.19-1.81-1.6
		c-0.72-0.4-1.57-0.61-2.53-0.61C260.83,27.59,259.99,27.79,259.27,28.2z"/>
	<path class="st0" d="M273.02,28.93c0.34-0.7,0.8-1.28,1.39-1.73c0.59-0.45,1.28-0.78,2.06-0.99c0.79-0.21,1.66-0.32,2.62-0.32
		c0.72,0,1.45,0.07,2.18,0.21c0.72,0.14,1.38,0.4,1.95,0.78c0.58,0.38,1.04,0.92,1.41,1.62c0.36,0.69,0.54,1.59,0.54,2.7v8.77
		c0,0.81,0.39,1.22,1.18,1.22c0.23,0,0.45-0.04,0.64-0.13v1.7c-0.24,0.04-0.44,0.08-0.62,0.1c-0.18,0.02-0.41,0.03-0.69,0.03
		c-0.51,0-0.92-0.07-1.23-0.21c-0.31-0.14-0.55-0.34-0.72-0.59c-0.17-0.26-0.28-0.56-0.34-0.91c-0.05-0.35-0.08-0.74-0.08-1.17
		h-0.06c-0.36,0.53-0.73,1.01-1.11,1.42c-0.37,0.42-0.79,0.76-1.25,1.04c-0.46,0.28-0.98,0.49-1.57,0.64
		c-0.59,0.15-1.29,0.22-2.1,0.22c-0.77,0-1.49-0.09-2.16-0.27c-0.67-0.18-1.26-0.47-1.76-0.86c-0.5-0.39-0.89-0.9-1.18-1.5
		c-0.29-0.61-0.43-1.33-0.43-2.16c0-1.15,0.26-2.05,0.77-2.7c0.51-0.65,1.19-1.15,2.03-1.49c0.84-0.34,1.79-0.58,2.85-0.72
		c1.05-0.14,2.13-0.27,3.21-0.4c0.43-0.04,0.8-0.1,1.12-0.16c0.32-0.06,0.59-0.18,0.8-0.34c0.21-0.16,0.38-0.38,0.5-0.66
		c0.12-0.28,0.18-0.64,0.18-1.09c0-0.68-0.11-1.24-0.34-1.68c-0.22-0.44-0.53-0.78-0.93-1.04c-0.39-0.26-0.85-0.43-1.38-0.53
		c-0.52-0.1-1.08-0.14-1.68-0.14c-1.28,0-2.33,0.3-3.14,0.91c-0.81,0.61-1.24,1.58-1.28,2.93h-2.02
		C272.48,30.47,272.68,29.64,273.02,28.93z M283.11,33.86c-0.13,0.24-0.37,0.41-0.74,0.51c-0.36,0.11-0.68,0.18-0.96,0.22
		c-0.85,0.15-1.73,0.28-2.64,0.4c-0.91,0.12-1.73,0.29-2.48,0.53c-0.75,0.24-1.36,0.57-1.84,1.01c-0.48,0.44-0.72,1.06-0.72,1.87
		c0,0.51,0.1,0.97,0.3,1.36c0.2,0.4,0.47,0.74,0.82,1.02c0.34,0.29,0.74,0.51,1.18,0.66c0.45,0.15,0.91,0.22,1.38,0.22
		c0.77,0,1.5-0.12,2.21-0.35c0.7-0.23,1.32-0.58,1.84-1.02c0.52-0.45,0.94-0.99,1.25-1.63c0.31-0.64,0.46-1.37,0.46-2.18v-2.62
		H283.11z"/>
	<path class="st0" d="M291.58,26.37v2.85h0.06c0.38-1,1.07-1.81,2.05-2.42c0.98-0.61,2.06-0.91,3.23-0.91c1.15,0,2.12,0.15,2.9,0.45
		c0.78,0.3,1.4,0.72,1.87,1.26c0.47,0.54,0.8,1.21,0.99,2c0.19,0.79,0.29,1.67,0.29,2.66v10.62h-2.02v-10.3
		c0-0.7-0.06-1.36-0.19-1.97c-0.13-0.61-0.35-1.14-0.67-1.58c-0.32-0.45-0.75-0.8-1.29-1.06c-0.54-0.26-1.22-0.38-2.03-0.38
		c-0.81,0-1.53,0.14-2.16,0.43c-0.63,0.29-1.16,0.68-1.6,1.18s-0.78,1.1-1.02,1.79c-0.25,0.69-0.38,1.45-0.4,2.26v9.63h-2.02V26.37
		H291.58z"/>
	<path class="st0" d="M324.8,20.04l8.96,22.85h-2.34l-2.78-7.1h-10.4l-2.75,7.1h-2.3l9.19-22.85H324.8z M327.9,33.93l-4.42-11.71
		l-4.58,11.71H327.9z"/>
	<path class="st0" d="M348.5,42.89v-3.14h-0.06c-0.21,0.53-0.53,1.02-0.95,1.47c-0.42,0.45-0.89,0.83-1.42,1.14
		c-0.53,0.31-1.1,0.55-1.71,0.72c-0.61,0.17-1.21,0.26-1.81,0.26c-1.26,0-2.35-0.23-3.28-0.69c-0.93-0.46-1.7-1.09-2.32-1.89
		c-0.62-0.8-1.08-1.73-1.38-2.78c-0.3-1.06-0.45-2.17-0.45-3.34c0-1.17,0.15-2.29,0.45-3.34c0.3-1.06,0.76-1.98,1.38-2.78
		c0.62-0.8,1.39-1.43,2.32-1.9c0.93-0.47,2.02-0.7,3.28-0.7c0.62,0,1.22,0.08,1.81,0.22c0.59,0.15,1.13,0.38,1.65,0.69
		c0.51,0.31,0.96,0.69,1.36,1.14c0.39,0.45,0.7,0.97,0.91,1.57h0.06v-9.47h2.02v22.85H348.5z M337.45,37.17
		c0.2,0.84,0.52,1.59,0.96,2.26c0.44,0.66,1,1.2,1.68,1.62c0.68,0.42,1.5,0.62,2.46,0.62c1.07,0,1.97-0.21,2.7-0.62
		c0.74-0.42,1.33-0.96,1.79-1.62c0.46-0.66,0.79-1.41,0.99-2.26c0.2-0.84,0.3-1.69,0.3-2.54s-0.1-1.7-0.3-2.54
		c-0.2-0.84-0.53-1.59-0.99-2.26c-0.46-0.66-1.06-1.2-1.79-1.62c-0.73-0.42-1.64-0.62-2.7-0.62c-0.96,0-1.78,0.21-2.46,0.62
		c-0.68,0.42-1.24,0.96-1.68,1.62s-0.76,1.41-0.96,2.26c-0.2,0.84-0.3,1.69-0.3,2.54S337.24,36.33,337.45,37.17z"/>
	<path class="st0" d="M355.25,26.37l5.19,14.5h0.06l5.12-14.5h2.08l-6.18,16.51h-2.14l-6.37-16.51H355.25z"/>
	<path class="st0" d="M372.03,20.04v3.23h-2.02v-3.23H372.03z M372.03,26.37v16.51h-2.02V26.37H372.03z"/>
	<path class="st0" d="M385.4,29.59c-0.23-0.46-0.55-0.84-0.94-1.14c-0.39-0.3-0.85-0.52-1.36-0.66c-0.51-0.14-1.06-0.21-1.63-0.21
		c-0.45,0-0.9,0.05-1.36,0.14c-0.46,0.1-0.88,0.26-1.26,0.48c-0.38,0.22-0.69,0.52-0.93,0.88c-0.23,0.36-0.35,0.81-0.35,1.34
		c0,0.45,0.11,0.83,0.34,1.14c0.22,0.31,0.51,0.57,0.85,0.78c0.34,0.21,0.71,0.39,1.12,0.53c0.4,0.14,0.78,0.25,1.12,0.34l2.69,0.61
		c0.58,0.08,1.15,0.24,1.71,0.46c0.56,0.22,1.07,0.52,1.5,0.88c0.44,0.36,0.79,0.81,1.07,1.34c0.28,0.53,0.42,1.16,0.42,1.89
		c0,0.9-0.2,1.66-0.61,2.29c-0.41,0.63-0.92,1.14-1.55,1.54c-0.63,0.4-1.34,0.68-2.13,0.85c-0.79,0.17-1.57,0.26-2.34,0.26
		c-1.94,0-3.52-0.46-4.72-1.38c-1.2-0.92-1.89-2.39-2.06-4.42h2.02c0.09,1.37,0.58,2.39,1.49,3.09c0.91,0.69,2.03,1.04,3.38,1.04
		c0.49,0,1-0.05,1.52-0.16c0.52-0.11,1.01-0.29,1.46-0.54c0.45-0.26,0.82-0.58,1.11-0.98c0.29-0.39,0.43-0.88,0.43-1.46
		c0-0.49-0.1-0.9-0.3-1.23c-0.2-0.33-0.47-0.61-0.82-0.83c-0.34-0.22-0.73-0.41-1.17-0.56c-0.44-0.15-0.88-0.28-1.33-0.38
		l-2.59-0.58c-0.66-0.17-1.27-0.37-1.82-0.59c-0.55-0.22-1.04-0.5-1.46-0.83c-0.42-0.33-0.74-0.74-0.98-1.22
		c-0.23-0.48-0.35-1.07-0.35-1.78c0-0.83,0.19-1.55,0.56-2.14c0.37-0.6,0.86-1.08,1.46-1.44c0.6-0.36,1.26-0.63,2-0.8
		c0.74-0.17,1.47-0.26,2.19-0.26c0.83,0,1.6,0.11,2.32,0.32c0.71,0.21,1.35,0.54,1.89,0.99c0.54,0.45,0.98,1,1.3,1.66
		c0.32,0.66,0.5,1.44,0.54,2.34h-2.02C385.76,30.59,385.64,30.05,385.4,29.59z"/>
	<path class="st0" d="M401.94,26.6c0.97,0.47,1.79,1.1,2.45,1.89c0.66,0.79,1.16,1.71,1.5,2.77c0.34,1.06,0.51,2.18,0.51,3.38
		c0,1.2-0.17,2.32-0.51,3.38c-0.34,1.06-0.84,1.98-1.5,2.77c-0.66,0.79-1.48,1.41-2.45,1.87c-0.97,0.46-2.09,0.69-3.34,0.69
		c-1.26,0-2.37-0.23-3.34-0.69c-0.97-0.46-1.79-1.08-2.45-1.87c-0.66-0.79-1.16-1.71-1.5-2.77c-0.34-1.06-0.51-2.18-0.51-3.38
		c0-1.19,0.17-2.32,0.51-3.38c0.34-1.06,0.84-1.98,1.5-2.77c0.66-0.79,1.48-1.42,2.45-1.89c0.97-0.47,2.08-0.7,3.34-0.7
		C399.86,25.89,400.97,26.13,401.94,26.6z M396.07,28.2c-0.73,0.41-1.33,0.94-1.81,1.6c-0.48,0.66-0.84,1.41-1.09,2.26
		c-0.25,0.84-0.37,1.7-0.37,2.58s0.12,1.73,0.37,2.58c0.24,0.84,0.61,1.59,1.09,2.26c0.48,0.66,1.08,1.2,1.81,1.6
		c0.72,0.41,1.57,0.61,2.53,0.61c0.96,0,1.8-0.2,2.53-0.61c0.73-0.4,1.33-0.94,1.81-1.6c0.48-0.66,0.84-1.41,1.09-2.26
		c0.25-0.84,0.37-1.7,0.37-2.58s-0.12-1.73-0.37-2.58c-0.25-0.84-0.61-1.59-1.09-2.26c-0.48-0.66-1.08-1.19-1.81-1.6
		c-0.72-0.4-1.57-0.61-2.53-0.61C397.64,27.59,396.8,27.79,396.07,28.2z"/>
	<path class="st0" d="M410.94,26.37v3.87H411c0.51-1.34,1.31-2.38,2.38-3.1c1.08-0.72,2.36-1.06,3.86-0.99v2.02
		c-0.92-0.04-1.75,0.08-2.5,0.37c-0.75,0.29-1.39,0.7-1.94,1.23c-0.54,0.53-0.96,1.17-1.26,1.9c-0.3,0.74-0.45,1.54-0.45,2.42v8.8
		h-2.02V26.37H410.94z"/>
	<path class="st0" d="M428.67,38.31c0.38,0.79,0.91,1.42,1.58,1.89c0.67,0.47,1.47,0.81,2.38,1.01c0.92,0.2,1.9,0.3,2.95,0.3
		c0.6,0,1.25-0.09,1.95-0.26c0.71-0.17,1.36-0.44,1.97-0.82c0.61-0.37,1.11-0.85,1.52-1.44c0.4-0.59,0.61-1.3,0.61-2.13
		c0-0.64-0.14-1.2-0.43-1.66c-0.29-0.47-0.66-0.86-1.12-1.18c-0.46-0.32-0.97-0.58-1.52-0.78c-0.55-0.2-1.1-0.37-1.63-0.5
		l-5.09-1.25c-0.66-0.17-1.31-0.38-1.94-0.64c-0.63-0.26-1.18-0.6-1.65-1.02c-0.47-0.43-0.85-0.95-1.14-1.57
		c-0.29-0.62-0.43-1.38-0.43-2.27c0-0.55,0.11-1.2,0.32-1.95c0.21-0.75,0.61-1.45,1.2-2.11c0.59-0.66,1.39-1.22,2.42-1.68
		c1.02-0.46,2.34-0.69,3.94-0.69c1.13,0,2.21,0.15,3.23,0.45c1.02,0.3,1.92,0.75,2.69,1.34c0.77,0.6,1.38,1.34,1.84,2.22
		c0.46,0.88,0.69,1.91,0.69,3.09h-2.18c-0.04-0.88-0.24-1.64-0.59-2.29c-0.35-0.65-0.81-1.19-1.38-1.63
		c-0.57-0.44-1.22-0.77-1.95-0.99c-0.74-0.22-1.51-0.34-2.32-0.34c-0.75,0-1.47,0.08-2.16,0.24c-0.69,0.16-1.3,0.42-1.82,0.77
		c-0.52,0.35-0.94,0.82-1.26,1.39c-0.32,0.58-0.48,1.29-0.48,2.14c0,0.53,0.09,1,0.27,1.39c0.18,0.4,0.43,0.73,0.75,1.01
		c0.32,0.28,0.69,0.5,1.11,0.67c0.42,0.17,0.86,0.31,1.33,0.42l5.57,1.38c0.81,0.21,1.57,0.48,2.29,0.78
		c0.71,0.31,1.34,0.69,1.89,1.15c0.54,0.46,0.97,1.02,1.28,1.68c0.31,0.66,0.46,1.46,0.46,2.4c0,0.26-0.03,0.6-0.08,1.02
		c-0.05,0.43-0.18,0.88-0.38,1.36c-0.2,0.48-0.49,0.97-0.87,1.46c-0.37,0.49-0.88,0.93-1.54,1.33s-1.46,0.71-2.42,0.96
		c-0.96,0.25-2.11,0.37-3.46,0.37c-1.35,0-2.59-0.16-3.74-0.46c-1.15-0.31-2.13-0.78-2.95-1.42c-0.81-0.64-1.43-1.46-1.87-2.46
		c-0.44-1-0.62-2.21-0.56-3.62h2.18C428.11,36.54,428.29,37.52,428.67,38.31z"/>
	<path class="st0" d="M458.07,42.89v-2.98H458c-0.53,1.11-1.31,1.96-2.32,2.54c-1.01,0.59-2.14,0.88-3.38,0.88
		c-1.04,0-1.94-0.14-2.67-0.43c-0.74-0.29-1.33-0.7-1.79-1.23c-0.46-0.53-0.79-1.18-1.01-1.95c-0.21-0.77-0.32-1.64-0.32-2.62V26.37
		h2.02v10.75c0.04,1.49,0.39,2.62,1.04,3.39c0.65,0.77,1.78,1.15,3.38,1.15c0.87,0,1.62-0.19,2.24-0.56
		c0.62-0.37,1.13-0.87,1.54-1.49c0.4-0.62,0.7-1.33,0.9-2.13c0.19-0.8,0.29-1.62,0.29-2.45v-8.67h2.02v16.51H458.07z"/>
	<path class="st0" d="M465.78,20.04v3.23h-2.02v-3.23H465.78z M465.78,26.37v16.51h-2.02V26.37H465.78z"/>
	<path class="st0" d="M476.58,26.37v1.7h-3.36v11.14c0,0.66,0.09,1.18,0.27,1.55c0.18,0.37,0.63,0.58,1.36,0.62
		c0.58,0,1.15-0.03,1.73-0.1v1.7c-0.3,0-0.6,0.01-0.9,0.03c-0.3,0.02-0.6,0.03-0.9,0.03c-1.34,0-2.28-0.26-2.82-0.78
		c-0.53-0.52-0.79-1.49-0.77-2.9v-11.3h-2.88v-1.7h2.88v-4.96h2.02v4.96H476.58z"/>
	<path class="st0" d="M480.98,37.43c0.2,0.78,0.53,1.48,0.98,2.1c0.45,0.62,1.01,1.13,1.7,1.54c0.68,0.41,1.5,0.61,2.46,0.61
		c1.47,0,2.62-0.38,3.46-1.15c0.83-0.77,1.41-1.79,1.73-3.07h2.02c-0.43,1.88-1.21,3.33-2.35,4.35c-1.14,1.02-2.76,1.54-4.85,1.54
		c-1.3,0-2.43-0.23-3.38-0.69c-0.95-0.46-1.72-1.09-2.32-1.89c-0.6-0.8-1.04-1.73-1.33-2.78c-0.29-1.06-0.43-2.17-0.43-3.34
		c0-1.09,0.14-2.15,0.43-3.2c0.29-1.04,0.73-1.98,1.33-2.8c0.6-0.82,1.37-1.48,2.32-1.98c0.95-0.5,2.07-0.75,3.38-0.75
		c1.32,0,2.45,0.27,3.39,0.8c0.94,0.53,1.7,1.23,2.29,2.1c0.59,0.86,1.01,1.86,1.26,2.98c0.26,1.12,0.36,2.26,0.32,3.41h-12.71
		C480.68,35.9,480.78,36.65,480.98,37.43z M490.97,31.27c-0.25-0.7-0.59-1.33-1.04-1.87c-0.45-0.54-0.99-0.98-1.63-1.31
		c-0.64-0.33-1.37-0.5-2.18-0.5c-0.83,0-1.57,0.16-2.21,0.5c-0.64,0.33-1.18,0.77-1.63,1.31c-0.45,0.54-0.81,1.17-1.07,1.89
		c-0.27,0.71-0.44,1.45-0.53,2.19h10.69C491.35,32.71,491.21,31.97,490.97,31.27z"/>
	<g>
		<path class="st0" d="M494.27,22.84c0,0.19,0.03,0.35,0.1,0.49c0.07,0.14,0.16,0.25,0.27,0.33c0.12,0.09,0.25,0.15,0.4,0.19
			c0.15,0.04,0.32,0.06,0.49,0.06c0.19,0,0.36-0.02,0.49-0.07c0.13-0.04,0.25-0.1,0.33-0.17c0.08-0.07,0.14-0.15,0.18-0.24
			c0.04-0.09,0.06-0.18,0.06-0.28c0-0.19-0.04-0.33-0.13-0.42c-0.09-0.09-0.18-0.15-0.28-0.19c-0.18-0.07-0.38-0.13-0.62-0.19
			c-0.24-0.06-0.53-0.13-0.87-0.23c-0.21-0.06-0.39-0.13-0.54-0.22c-0.14-0.09-0.26-0.19-0.34-0.3c-0.08-0.11-0.14-0.23-0.18-0.36
			c-0.04-0.13-0.05-0.25-0.05-0.38c0-0.25,0.05-0.47,0.16-0.65c0.1-0.18,0.24-0.34,0.42-0.46c0.17-0.12,0.37-0.21,0.59-0.27
			c0.22-0.06,0.44-0.09,0.67-0.09c0.26,0,0.51,0.03,0.74,0.1c0.23,0.07,0.43,0.17,0.61,0.3c0.18,0.14,0.31,0.3,0.42,0.5
			c0.1,0.2,0.15,0.43,0.15,0.69h-0.87c-0.02-0.32-0.13-0.55-0.33-0.68c-0.2-0.13-0.45-0.2-0.75-0.2c-0.1,0-0.21,0.01-0.31,0.03
			c-0.11,0.02-0.21,0.06-0.3,0.11c-0.09,0.05-0.16,0.12-0.22,0.2c-0.06,0.08-0.09,0.19-0.09,0.31c0,0.18,0.05,0.32,0.16,0.42
			c0.11,0.1,0.25,0.18,0.43,0.23c0.02,0,0.09,0.02,0.22,0.06c0.13,0.04,0.27,0.07,0.43,0.12c0.16,0.04,0.31,0.08,0.47,0.12
			c0.15,0.04,0.26,0.07,0.33,0.09c0.16,0.05,0.31,0.12,0.43,0.21c0.12,0.09,0.22,0.19,0.3,0.3c0.08,0.12,0.14,0.24,0.18,0.37
			c0.04,0.13,0.06,0.26,0.06,0.39c0,0.28-0.06,0.52-0.17,0.72c-0.11,0.2-0.26,0.36-0.45,0.49c-0.19,0.12-0.4,0.22-0.64,0.28
			c-0.24,0.06-0.48,0.09-0.73,0.09c-0.29,0-0.55-0.04-0.8-0.1c-0.25-0.07-0.47-0.18-0.66-0.32c-0.19-0.14-0.34-0.33-0.45-0.56
			c-0.11-0.23-0.17-0.49-0.18-0.8H494.27z"/>
		<path class="st0" d="M498.14,19.51h1.23l1.38,3.91h0.01l1.34-3.91h1.22v4.99h-0.83v-3.85h-0.01l-1.38,3.85h-0.72l-1.38-3.85h-0.01
			v3.85h-0.83V19.51z"/>
	</g>
</g>
<g>
	<g>
		<path id="XMLID_103_" class="st1" d="M0,16.79h17.01v4.09H4.69v7.22H16.3v3.95H4.69v11.09H0V16.79z"/>
		<path id="XMLID_101_" class="st1" d="M18.87,25.27h4.28v2.98h0.07c0.5-1.04,1.19-1.89,2.08-2.53c0.89-0.65,1.94-0.97,3.13-0.97
			c0.17,0,0.36,0.01,0.56,0.02c0.2,0.01,0.37,0.04,0.52,0.09v4.09c-0.3-0.07-0.55-0.12-0.76-0.15c-0.21-0.02-0.42-0.04-0.61-0.04
			c-1.02,0-1.84,0.19-2.46,0.56c-0.62,0.37-1.1,0.82-1.45,1.34c-0.35,0.52-0.58,1.05-0.71,1.6c-0.12,0.55-0.19,0.98-0.19,1.3v9.57
			h-4.47V25.27z"/>
		<path id="XMLID_98_" class="st1" d="M47.79,34.43c0,0.2,0,0.4,0,0.6c0,0.2-0.01,0.4-0.04,0.6H34.17c0.05,0.65,0.22,1.23,0.5,1.77
			c0.28,0.53,0.66,0.99,1.13,1.38c0.47,0.38,1,0.69,1.6,0.91c0.6,0.22,1.22,0.34,1.86,0.34c1.12,0,2.06-0.2,2.83-0.61
			c0.77-0.41,1.4-0.97,1.9-1.69l2.98,2.38c-1.76,2.38-4.32,3.57-7.67,3.57c-1.39,0-2.67-0.22-3.83-0.65
			c-1.17-0.43-2.18-1.05-3.03-1.84c-0.86-0.79-1.53-1.77-2.01-2.92c-0.48-1.15-0.73-2.46-0.73-3.93c0-1.44,0.24-2.75,0.73-3.93
			c0.48-1.18,1.15-2.18,1.99-3.01c0.84-0.83,1.84-1.48,3-1.94c1.15-0.46,2.4-0.69,3.74-0.69c1.24,0,2.39,0.2,3.44,0.61
			c1.05,0.41,1.97,1.02,2.74,1.82C46.1,28,46.7,29,47.14,30.2C47.57,31.41,47.79,32.82,47.79,34.43z M43.32,32.42
			c0-0.57-0.08-1.12-0.24-1.64s-0.42-0.98-0.76-1.38c-0.35-0.4-0.79-0.71-1.32-0.95c-0.53-0.24-1.16-0.35-1.88-0.35
			c-1.34,0-2.48,0.4-3.41,1.21c-0.93,0.81-1.45,1.84-1.54,3.11H43.32z"/>
		<path id="XMLID_95_" class="st1" d="M68.97,43.14h-4.24v-2.68h-0.07c-0.62,1.04-1.48,1.84-2.59,2.38
			c-1.1,0.55-2.29,0.82-3.55,0.82c-1.37,0-2.59-0.25-3.67-0.76c-1.08-0.51-2-1.19-2.75-2.05c-0.76-0.86-1.34-1.86-1.75-3.01
			c-0.41-1.15-0.61-2.39-0.61-3.7c0-1.31,0.21-2.54,0.63-3.68c0.42-1.14,1.02-2.13,1.79-2.98c0.77-0.84,1.69-1.51,2.75-1.99
			c1.07-0.48,2.23-0.73,3.5-0.73c0.82,0,1.55,0.09,2.2,0.28c0.64,0.19,1.21,0.42,1.69,0.69c0.48,0.27,0.9,0.57,1.25,0.89
			c0.35,0.32,0.63,0.63,0.86,0.93h0.11V16.87h4.47V43.14z M54.26,34.13c0,0.69,0.11,1.39,0.32,2.08c0.21,0.7,0.53,1.32,0.95,1.86
			c0.42,0.55,0.95,0.99,1.6,1.34c0.65,0.35,1.4,0.52,2.27,0.52c0.82,0,1.55-0.17,2.2-0.5c0.65-0.33,1.2-0.78,1.66-1.32
			c0.46-0.55,0.81-1.16,1.04-1.84c0.24-0.68,0.35-1.37,0.35-2.07c0-0.69-0.12-1.39-0.35-2.08c-0.24-0.69-0.58-1.31-1.04-1.86
			c-0.46-0.55-1.01-0.99-1.66-1.34c-0.65-0.35-1.38-0.52-2.2-0.52c-0.87,0-1.63,0.17-2.27,0.5c-0.65,0.34-1.18,0.78-1.6,1.32
			c-0.42,0.55-0.74,1.16-0.95,1.84C54.37,32.75,54.26,33.44,54.26,34.13z"/>
		<path id="XMLID_92_" class="st1" d="M90.33,43.14h-4.24v-2.68h-0.07c-0.62,1.04-1.48,1.84-2.59,2.38
			c-1.1,0.55-2.29,0.82-3.55,0.82c-1.37,0-2.59-0.25-3.67-0.76c-1.08-0.51-2-1.19-2.75-2.05c-0.76-0.86-1.34-1.86-1.75-3.01
			c-0.41-1.15-0.61-2.39-0.61-3.7c0-1.31,0.21-2.54,0.63-3.68c0.42-1.14,1.02-2.13,1.79-2.98c0.77-0.84,1.69-1.51,2.75-1.99
			c1.07-0.48,2.23-0.73,3.5-0.73c0.82,0,1.55,0.09,2.2,0.28c0.64,0.19,1.21,0.42,1.69,0.69c0.48,0.27,0.9,0.57,1.25,0.89
			c0.35,0.32,0.63,0.63,0.86,0.93h0.11V16.87h4.47V43.14z M75.63,34.13c0,0.69,0.11,1.39,0.32,2.08c0.21,0.7,0.53,1.32,0.95,1.86
			c0.42,0.55,0.95,0.99,1.6,1.34c0.65,0.35,1.4,0.52,2.27,0.52c0.82,0,1.55-0.17,2.2-0.5c0.65-0.33,1.2-0.78,1.66-1.32
			c0.46-0.55,0.81-1.16,1.04-1.84c0.24-0.68,0.35-1.37,0.35-2.07c0-0.69-0.12-1.39-0.35-2.08c-0.24-0.69-0.58-1.31-1.04-1.86
			c-0.46-0.55-1.01-0.99-1.66-1.34c-0.65-0.35-1.38-0.52-2.2-0.52c-0.87,0-1.63,0.17-2.27,0.5c-0.65,0.34-1.18,0.78-1.6,1.32
			c-0.42,0.55-0.74,1.16-0.95,1.84C75.73,32.75,75.63,33.44,75.63,34.13z"/>
		<path id="XMLID_89_" class="st1" d="M93.55,19.21c0-0.72,0.27-1.35,0.8-1.88c0.53-0.53,1.21-0.8,2.03-0.8s1.51,0.25,2.07,0.76
			c0.56,0.51,0.84,1.15,0.84,1.92c0,0.77-0.28,1.41-0.84,1.92c-0.56,0.51-1.25,0.76-2.07,0.76s-1.5-0.27-2.03-0.8
			C93.82,20.55,93.55,19.93,93.55,19.21z M94.18,25.27h4.47v17.86h-4.47V25.27z"/>
		<path id="XMLID_86_" class="st1" d="M119.48,34.43c0,0.2,0,0.4,0,0.6c0,0.2-0.01,0.4-0.04,0.6h-13.58
			c0.05,0.65,0.22,1.23,0.5,1.77c0.29,0.53,0.66,0.99,1.14,1.38c0.47,0.38,1,0.69,1.6,0.91c0.6,0.22,1.22,0.34,1.86,0.34
			c1.12,0,2.06-0.2,2.83-0.61c0.77-0.41,1.4-0.97,1.9-1.69l2.98,2.38c-1.76,2.38-4.32,3.57-7.67,3.57c-1.39,0-2.67-0.22-3.83-0.65
			c-1.17-0.43-2.18-1.05-3.03-1.84c-0.86-0.79-1.53-1.77-2.01-2.92c-0.48-1.15-0.73-2.46-0.73-3.93c0-1.44,0.24-2.75,0.73-3.93
			c0.48-1.18,1.15-2.18,1.99-3.01c0.84-0.83,1.84-1.48,3-1.94c1.15-0.46,2.4-0.69,3.74-0.69c1.24,0,2.39,0.2,3.44,0.61
			c1.05,0.41,1.97,1.02,2.74,1.82c0.77,0.81,1.37,1.81,1.81,3.01C119.26,31.41,119.48,32.82,119.48,34.43z M115.01,32.42
			c0-0.57-0.08-1.12-0.24-1.64c-0.16-0.52-0.42-0.98-0.76-1.38c-0.35-0.4-0.79-0.71-1.32-0.95c-0.53-0.24-1.16-0.35-1.88-0.35
			c-1.34,0-2.48,0.4-3.41,1.21c-0.93,0.81-1.45,1.84-1.54,3.11H115.01z"/>
	</g>
	<g>
		<path id="XMLID_84_" class="st2" d="M125.51,16.79h7.33l6.85,18.72h0.11l6.77-18.72h7.37v26.35h-4.65V21.96h-0.07l-8,21.18h-3.28
			l-7.89-21.18h-0.07v21.18h-4.47V16.79z"/>
		<path id="XMLID_81_" class="st2" d="M168.97,40.87h-0.11c-0.45,0.79-1.17,1.45-2.16,1.95c-0.99,0.51-2.12,0.76-3.39,0.76
			c-0.72,0-1.47-0.09-2.25-0.28c-0.78-0.19-1.5-0.5-2.16-0.93c-0.66-0.43-1.2-1.01-1.64-1.71c-0.43-0.71-0.65-1.58-0.65-2.62
			c0-1.34,0.38-2.41,1.13-3.2c0.76-0.79,1.73-1.4,2.92-1.82c1.19-0.42,2.51-0.7,3.96-0.84c1.45-0.14,2.87-0.2,4.26-0.2v-0.45
			c0-1.12-0.4-1.94-1.21-2.47c-0.81-0.53-1.77-0.8-2.88-0.8c-0.94,0-1.85,0.2-2.72,0.6c-0.87,0.4-1.59,0.88-2.16,1.45l-2.31-2.72
			c1.02-0.94,2.19-1.65,3.52-2.12c1.33-0.47,2.67-0.71,4.04-0.71c1.59,0,2.9,0.22,3.93,0.67c1.03,0.45,1.84,1.03,2.44,1.75
			c0.6,0.72,1.01,1.53,1.25,2.42c0.24,0.89,0.35,1.79,0.35,2.68v10.87h-4.17V40.87z M168.9,34.99h-1.01c-0.72,0-1.48,0.03-2.27,0.09
			c-0.79,0.06-1.53,0.2-2.2,0.41c-0.67,0.21-1.23,0.51-1.67,0.89c-0.45,0.38-0.67,0.91-0.67,1.58c0,0.42,0.09,0.78,0.28,1.06
			c0.19,0.29,0.43,0.52,0.73,0.69c0.3,0.17,0.63,0.3,1,0.37c0.37,0.07,0.74,0.11,1.12,0.11c1.54,0,2.7-0.41,3.5-1.23
			c0.79-0.82,1.19-1.94,1.19-3.35V34.99z"/>
		<path id="XMLID_79_" class="st2" d="M188.9,30.22c-0.35-0.5-0.87-0.91-1.56-1.25c-0.69-0.34-1.4-0.5-2.12-0.5
			c-0.82,0-1.54,0.17-2.16,0.5c-0.62,0.33-1.13,0.78-1.54,1.32c-0.41,0.55-0.71,1.16-0.91,1.84c-0.2,0.68-0.3,1.37-0.3,2.07
			c0,0.7,0.11,1.38,0.32,2.07c0.21,0.68,0.53,1.3,0.95,1.84c0.42,0.55,0.95,0.99,1.58,1.32c0.63,0.34,1.37,0.5,2.21,0.5
			c0.69,0,1.39-0.14,2.08-0.41c0.69-0.27,1.25-0.67,1.67-1.19l2.79,2.83c-0.74,0.79-1.69,1.41-2.85,1.84s-2.4,0.65-3.74,0.65
			c-1.32,0-2.56-0.21-3.74-0.63c-1.18-0.42-2.21-1.04-3.09-1.86c-0.88-0.82-1.58-1.81-2.08-2.98c-0.51-1.17-0.76-2.49-0.76-3.98
			c0-1.44,0.25-2.74,0.76-3.91c0.51-1.17,1.2-2.16,2.07-2.98c0.87-0.82,1.88-1.45,3.03-1.9c1.15-0.45,2.39-0.67,3.7-0.67
			c1.31,0,2.59,0.25,3.81,0.74c1.23,0.5,2.2,1.18,2.92,2.05L188.9,30.22z"/>
	</g>
	<g>
		<polygon class="st2" points="58.14,16.87 58.14,11.3 40.77,0 23.4,11.3 23.4,16.87 40.77,5.52 		"/>
		<polygon class="st2" points="53.37,6.77 53.37,0 48.61,0 48.61,3.67 		"/>
	</g>
</g>
</svg>
