<svg width="14" height="14" viewBox="0 0 14 14" version="1.1" xmlns="http://www.w3.org/2000/svg" xmlns:xlink="http://www.w3.org/1999/xlink" xmlns:figma="http://www.figma.com/figma/ns">
<title>Group</title>
<desc>Created using Figma</desc>
<g id="Canvas" transform="translate(788 -145)" figma:type="canvas">
<g id="Group" figma:type="frame">
<g id="Rectangle 16" figma:type="rounded-rectangle">
<use xlink:href="#path0_fill" transform="translate(-788 145)" fill="#FFFFFF"/>
<mask id="mask0_outline_ins">
<use xlink:href="#path0_fill" fill="white" transform="translate(-788 145)"/>
</mask>
<g mask="url(#mask0_outline_ins)">
<use xlink:href="#path1_stroke_2x" transform="translate(-788 145)" fill="#2B2B2B"/>
</g>
</g>
<g id="Vector 3" figma:type="vector">
<use xlink:href="#path2_stroke" transform="translate(-784 151)" fill="#2B2B2B"/>
</g>
</g>
</g>
<defs>
<path id="path0_fill" d="M 0 1C 0 0.447715 0.447715 0 1 0L 13 0C 13.5523 0 14 0.447715 14 1L 14 13C 14 13.5523 13.5523 14 13 14L 1 14C 0.447715 14 0 13.5523 0 13L 0 1Z"/>
<path id="path1_stroke_2x" d="M 1 1L 13 1L 13 -1L 1 -1L 1 1ZM 13 1L 13 13L 15 13L 15 1L 13 1ZM 13 13L 1 13L 1 15L 13 15L 13 13ZM 1 13L 1 1L -1 1L -1 13L 1 13ZM 1 -1C -0.10457 -1 -1 -0.10457 -1 1L 1 1L 1 -1ZM 13 1L 15 1C 15 -0.10457 14.1046 -1 13 -1L 13 1ZM 13 13L 13 15C 14.1046 15 15 14.1046 15 13L 13 13ZM 1 13L -1 13C -1 14.1046 -0.10457 15 1 15L 1 13Z"/>
<path id="path2_stroke" d="M 3 3L 2.64645 3.35355L 3 3.70711L 3.35355 3.35355L 3 3ZM -0.353553 0.353553L 2.64645 3.35355L 3.35355 2.64645L 0.353553 -0.353553L -0.353553 0.353553ZM 3.35355 3.35355L 6.35355 0.353553L 5.64645 -0.353553L 2.64645 2.64645L 3.35355 3.35355Z"/>
</defs>
</svg>
