﻿{
  "method": "POST",
  "methodOptions": [ "GET", "POST", "PUT", "PATCH", "DELETE"],
  "url": "/LendersOfficeApp/LoanEditor/lqbapi/loan.ashx?op=Load&loanid=6903f95c-9dff-48e5-ae25-a3b70184e0be&appId=",
  "data": ["sLpTemplateNm","sCcTemplateNm","sLNm","sLPurposeT","sLienPosT","sLT","aOccT","sFinMethT","sFinMethDesc","sConstructionPeriodMon","sConstructionImprovementAmt","sConstructionPeriodIR","sLandCost","sPurchPrice","sFfUfmipFinanced","sLTotI","sApprVal","sFinalLAmt","sLiaMonLTot","sDownPmtPc","sNoteIR","sPresLTotPersistentHExp","sEquityCalc","sTerm","sQualTopR","sLtvR","sLAmtLckd","sLAmtCalc","sQualIR","sQualBottomR","sCltvR","sIsLineOfCredit","sIsQRateIOnly","sIsOptionArm","sCreditLineAmt","sSpState","sOptionArmTeaserR","sGseSpT","sOriginalAppraisedValue","sHighPricedMortgageT","sHighPricedMortgageTLckd","sIsEmployeeLoan","sProThisMPmt","sProOFinPmt","sProHazInsT","sProHazInsBaseAmt","sProHazInsR","sProHazInsMb","sProHazIns","sProRealETxT","sProRealETxBaseAmt","sProRealETxR","sProRealETxMb","sProRealETx","sProMIns","sProMInsLckd","sProHoAssocDues","sProOHExp","sProOHExpLckd","sMonthlyPmt","sLeadSrcDesc"]
}
