PmlId,RunHours,BrokerEmail
PML0127,18,lockdesk@ffcmortgage.com
PML0132,,dwilliams@rightstartmortgage.com;bwilliams@rightstartmortgage.com
PML0158,,nquinn@mortgagecorp.com
PML0160,,lock@ahlmtg.com;mike.ahmari@ahlmtg.com
PML0168,,lock@aploan.com
PML0170,8;12;16,DNowak@iservelending.com;BVargo@iservelending.com
PML0171,10;12;16,Secondary@greenwaylending.com;Underwriting@greenwaylending.com
PML0188,,dstewart@thehomelendinggroup.com
PML0195,,rdecorte@goprime.com
PML0196,,guttal@vccuonline.net;HLSLockdesk@vccuonline.net;bcrews@vccuonline.net
PML0197,8;12;16,Locks@iapprovelending.com;phuongdi.trang@iapprovelending.com;matt.mucklow@iapprovelending.com;anju.juneja@iapprovelending.com
PML0198,,Ken.pittman@argus-lending.com;Underwriting@argus-lending.com
PML0199,,mstoffer@consumersbank.com;mrice@consumersbank.com
PML0201,,Kristen.Schmidt@renewlending.com
PML0202,,sarah@bcfwholesale.com;juju@bcfwholesale.com;Ronnie@bcfwholesale.com
PML0208,,mark@pacificbanc.com;Gcollins@pacificbanc.com;lcoleman@pacificbanc.com;msoliman@bluepointmtg.com
PML0214,,Cheryl.rogers@wheda.com;Kari.becker@wheda.com
PML0215,,coling@californiacu.org
PML0216,,samuel.ma@ogimb.com;lockdesk@ogimb.com
PML0218,14,lockdesk2@mctrade.net
PML0224,,lock@winprimelending.com
PML0227,,lockdesk1@imcu.com;verify@imcu.com
PML0229,,lockdesk@jmaclending.com
PML0230,,vmelkonyan@bankersxpress.com;ddnguyen@bankersxpress.com;agutierrez@bankersxpress.com
PML0232,,gchow@mtgcapital.com;etsai@mtgcapital.com;mikes@mtgcapital.com
PML0238,,locks@alshomeloans.com
PML0243,,secondary@Tlpoffice.com
PML0246,,Lynn.Lawson@lenoxhomeloans.com;Anant.bhakta@lenoxhomeloans.com;lockdesk@lenoxhomeloans.com;lockdesk@weslend.com
PML0247,,rates@lionbank.com
PML0248,,cbowers@privateplus.com
PML0249,,ratelock@texaslending.com
PML0252,,lockdesk@hancockmtg.com
PML0253,,lock@sunstreetmortgage.com
PML0256,,realestatedepartment@sharonview.org
PML0260,,secondary@clslenders.com
PML0262,,Amit@blustream.com;Jeff@nexerallc.com;Michelle@nexerallc.com;Steve@nexerallc.com;Veronika@nexerallc.com;julian@nexerallc.com;eric@nexerallc.com
PML0263,,locks@mwfinc.com
PML0265,,lock@newcastle.loans
