PmlId,RunHours,BrokerEmail,sStatusTOptions,sRLcKdDMin,sRLcKdDFrom
PML0127,18,lockdesk@ffcmortgage.com,,,
PML0229,,lockdesk@jmaclending.com,,,
PML0247,,rates@lionbank.com,4;5;6;21;23;33;34;35;36,,
PML0249,,ratelock@texaslending.com,,,
PML0263,,locks@mwfinc.com,,,

