Field,Description
sLNm,Loan Number
sLAmtCalc,Loan Amount
aBFirstNm,Borr First Name
aBLastNm,Borr Last Name
sSpAddr,Subj Prop Address
sSpCity,Subj Prop City
sSpState,Subj Prop State
sSpZip,Subj Prop Zip
sFinMethT,Amortization Type
sTerm,Term
sDue,Due
cLpInvestorNm,Back-End Rate Lock Investor
sLpTemplateNm,Loan Program Name
sNoteIR,Note Rate
aOccT,Subj Prop Purpose
sLtvR,LTV
sCltvR,CLTV
sProdSpT,Property Type
sCreditScoreType1,Middle Score of Primary
sCreditScoreType2,Lowest Middle Score of All Borrowers
sLPurposeT,Loan Purpose
sProdImpound,Is Impound
sRateLockStatusT,Rate Lock Status
sRLckdD,Rate Locked Date
sQualBottomR,DTI
sLT,Loan Type
sRAdjMarginR,Margin
sApr,APR
sApprVal,Appraisal Value
sPurchPrice,Purchased price
sProd3rdPartyUwResultT,AU Response
sProdSpStructureT,Structure Type
sBrokComp1Pc,Originator Price
sStatusT,Loan Status
sProdIsDuRefiPlus,Is DuRefiPlus
sRLckdExpiredD,Rate Lock Expired Date
sGfeOriginationF,GFE Origination Fee
sFinCharge,Finance Charge
sLDiscnt,802 Loan Discount
sGfeRequiredServicesTotalFee,GFE Required Services Total Fee
sGfeLenderTitleTotalFee,GFE Lender Title Total Fee
sGfeOwnerTitleTotalFee,GFE Owner Title Total Fee
sGfeServicesYouShopTotalFee,GFE Services You Shop Total Fee
sGfeGovtRecTotalFee,GFE Government Recording Total Fee
sGfeTransferTaxTotalFee,GFE Transfer Tax Total Fee
sGfeInitialImpoundDeposit,GFE Initial Impound Deposit
sGfeDailyInterestTotalFee,GFE Daily Interest Total Fee
sGfeHomeOwnerInsuranceTotalFee,GFE Homeowner Insurance Total Fee
sFinalLAmt,Total Loan Amount
