Field,Description
sLNm,Loan Number
sLAmtCalc,Loan Amount
aBFirstNm,Borr First Name
aBLastNm,Borr Last Name
sSpAddr,Subj Prop Address
sSpCity,Subj Prop City
sSpState,Subj Prop State
sSpZip,Subj Prop Zip
sFinMethT,Amortization Type
sTerm,Term
sDue,Due
cLpInvestorNm,Back-End Rate Lock Investor
sLpTemplateNm,Loan Program Name
sNoteIR,Note Rate
aOccT,Subj Prop Purpose
sLtvR,LTV
sCltvR,CLTV
sProdSpT,Property Type
sCreditScoreType1,Middle Score of Primary
sCreditScoreType2,Lowest Middle Score of All Borrowers
sLPurposeT,Loan Purpose
sProdImpound,Is Impound
sRateLockStatusT,Rate Lock Status
sRLckdD,Rate Locked Date
sLT,Loan Type
sRAdjMarginR,Margin
sApprVal,Appraisal Value
sPurchPrice,Purchased price
sProd3rdPartyUwResultT,AU Response
sProdSpStructureT,Structure Type
sBrokComp1Pc,Originator Price
sProdIsDuRefiPlus,Is DuRefiPlus
sRLckdExpiredD,Rate Lock Expired Date
sFinalLAmt,Total Loan Amount
